(* * * * * * * * * * * * * * * * * * * * * * * * * * * * * * * * * * * * * * * * *)
(*                                                                             *)
(*         This file has been automatically generated by FeynRules.            *)
(*                                                                             *)
(* * * * * * * * * * * * * * * * * * * * * * * * * * * * * * * * * * * * * * * * *)


FR$ModelInformation={
  ModelName->"bdm5_lamhs",
  Authors -> {"N. Christensen", "C. Duhr", "B. Fuks"},
  Version -> "1.4.6",
  Date -> "15. 04. 2014",
  Institutions -> {"Michigan State University", "Universite catholique de Louvain (CP3)", "IPHC Strasbourg / University of Strasbourg"},
  Emails -> {"neil@pa.msu.edu", "claude.duhr@uclouvain.be", "benjamin.fuks@cnrs.in2p3.fr"},
  URLs -> "http://feynrules.phys.ucl.ac.be/view/Main/StandardModel"};

FR$ClassesTranslation={A -> V[1], Z -> V[2], W -> V[3], G -> V[4], ghA -> U[1], ghZ -> U[2], ghWp -> U[3], ghWm -> U[4], ghG -> U[5], ve -> F[1], vm -> F[2], vt -> F[3], e -> F[4], mu -> F[5], ta -> F[6], u -> F[7], c -> F[8], t -> F[9], d -> F[10], s -> F[11], b -> F[12], H -> S[1], G0 -> S[2], GP -> S[3], chiM -> F[13], chi0 -> F[14], S0 -> S[4], A0 -> S[5], pQ -> S[6]};

FR$InteractionOrderPerturbativeExpansion={{QCD, 0}, {QED, 0}};

FR$GoldstoneList={S[2], S[3]};

(*     Declared indices    *)

IndexRange[ Index[Gluon] ] = NoUnfold[ Range[ 8 ] ]

IndexRange[ Index[SU2W] ] = Range[ 3 ]

IndexRange[ Index[Generation] ] = Range[ 3 ]

IndexRange[ Index[Colour] ] = NoUnfold[ Range[ 3 ] ]

IndexRange[ Index[SU2D] ] = Range[ 2 ]

(*     Declared particles    *)

M$ClassesDescription = {
V[1] == {
    SelfConjugate -> True,
    PropagatorType -> Sine,
    PropagatorArrow -> None,
    Mass -> 0,
    Indices -> {},
    PropagatorLabel -> "A" },

V[2] == {
    SelfConjugate -> True,
    PropagatorType -> Sine,
    PropagatorArrow -> None,
    Mass -> MZ,
    Indices -> {},
    PropagatorLabel -> "Z" },

V[3] == {
    SelfConjugate -> False,
    QuantumNumbers -> {Q},
    PropagatorType -> Sine,
    PropagatorArrow -> Forward,
    Mass -> MW,
    Indices -> {},
    PropagatorLabel -> "W" },

V[4] == {
    SelfConjugate -> True,
    PropagatorType -> Cycles,
    PropagatorArrow -> None,
    Mass -> 0,
    Indices -> {Index[Gluon]},
    PropagatorLabel -> "G" },

U[1] == {
    SelfConjugate -> False,
    QuantumNumbers -> {GhostNumber},
    PropagatorType -> GhostDash,
    PropagatorArrow -> Forward,
    Mass -> 0,
    Indices -> {},
    PropagatorLabel -> "ghA" },

U[2] == {
    SelfConjugate -> False,
    QuantumNumbers -> {GhostNumber},
    PropagatorType -> GhostDash,
    PropagatorArrow -> Forward,
    Mass -> MZ,
    Indices -> {},
    PropagatorLabel -> "ghZ" },

U[3] == {
    SelfConjugate -> False,
    QuantumNumbers -> {GhostNumber, Q},
    PropagatorType -> GhostDash,
    PropagatorArrow -> Forward,
    Mass -> MW,
    Indices -> {},
    PropagatorLabel -> "ghWp" },

U[4] == {
    SelfConjugate -> False,
    QuantumNumbers -> {GhostNumber, -Q},
    PropagatorType -> GhostDash,
    PropagatorArrow -> Forward,
    Mass -> MW,
    Indices -> {},
    PropagatorLabel -> "ghWm" },

U[5] == {
    SelfConjugate -> False,
    QuantumNumbers -> {GhostNumber},
    PropagatorType -> GhostDash,
    PropagatorArrow -> Forward,
    Mass -> 0,
    Indices -> {Index[Gluon]},
    PropagatorLabel -> "ghG" },

F[1] == {
    SelfConjugate -> False,
    QuantumNumbers -> {LeptonNumber},
    PropagatorType -> Straight,
    PropagatorArrow -> Forward,
    Mass -> 0,
    Indices -> {},
    PropagatorLabel -> "ve" },

F[2] == {
    SelfConjugate -> False,
    QuantumNumbers -> {LeptonNumber},
    PropagatorType -> Straight,
    PropagatorArrow -> Forward,
    Mass -> 0,
    Indices -> {},
    PropagatorLabel -> "vm" },

F[3] == {
    SelfConjugate -> False,
    QuantumNumbers -> {LeptonNumber},
    PropagatorType -> Straight,
    PropagatorArrow -> Forward,
    Mass -> 0,
    Indices -> {},
    PropagatorLabel -> "vt" },

F[4] == {
    SelfConjugate -> False,
    QuantumNumbers -> {-Q, LeptonNumber},
    PropagatorType -> Straight,
    PropagatorArrow -> Forward,
    Mass -> Me,
    Indices -> {},
    PropagatorLabel -> "e" },

F[5] == {
    SelfConjugate -> False,
    QuantumNumbers -> {-Q, LeptonNumber},
    PropagatorType -> Straight,
    PropagatorArrow -> Forward,
    Mass -> MMU,
    Indices -> {},
    PropagatorLabel -> "mu" },

F[6] == {
    SelfConjugate -> False,
    QuantumNumbers -> {-Q, LeptonNumber},
    PropagatorType -> Straight,
    PropagatorArrow -> Forward,
    Mass -> MTA,
    Indices -> {},
    PropagatorLabel -> "ta" },

F[7] == {
    SelfConjugate -> False,
    QuantumNumbers -> {(2*Q)/3},
    PropagatorType -> Straight,
    PropagatorArrow -> Forward,
    Mass -> MU,
    Indices -> {Index[Colour]},
    PropagatorLabel -> "u" },

F[8] == {
    SelfConjugate -> False,
    QuantumNumbers -> {(2*Q)/3},
    PropagatorType -> Straight,
    PropagatorArrow -> Forward,
    Mass -> MC,
    Indices -> {Index[Colour]},
    PropagatorLabel -> "c" },

F[9] == {
    SelfConjugate -> False,
    QuantumNumbers -> {(2*Q)/3},
    PropagatorType -> Straight,
    PropagatorArrow -> Forward,
    Mass -> MT,
    Indices -> {Index[Colour]},
    PropagatorLabel -> "t" },

F[10] == {
    SelfConjugate -> False,
    QuantumNumbers -> {-1/3*Q},
    PropagatorType -> Straight,
    PropagatorArrow -> Forward,
    Mass -> MD,
    Indices -> {Index[Colour]},
    PropagatorLabel -> "d" },

F[11] == {
    SelfConjugate -> False,
    QuantumNumbers -> {-1/3*Q},
    PropagatorType -> Straight,
    PropagatorArrow -> Forward,
    Mass -> MS,
    Indices -> {Index[Colour]},
    PropagatorLabel -> "s" },

F[12] == {
    SelfConjugate -> False,
    QuantumNumbers -> {-1/3*Q},
    PropagatorType -> Straight,
    PropagatorArrow -> Forward,
    Mass -> MB,
    Indices -> {Index[Colour]},
    PropagatorLabel -> "b" },

S[1] == {
    SelfConjugate -> True,
    PropagatorType -> ScalarDash,
    PropagatorArrow -> None,
    Mass -> MH,
    Indices -> {},
    PropagatorLabel -> "H" },

S[2] == {
    SelfConjugate -> True,
    PropagatorType -> ScalarDash,
    PropagatorArrow -> None,
    Mass -> MZ,
    Indices -> {},
    PropagatorLabel -> "G0" },

S[3] == {
    SelfConjugate -> False,
    QuantumNumbers -> {Q},
    PropagatorType -> ScalarDash,
    PropagatorArrow -> None,
    Mass -> MW,
    Indices -> {},
    PropagatorLabel -> "GP" },

F[13] == {
    SelfConjugate -> False,
    QuantumNumbers -> {-Q},
    PropagatorType -> Straight,
    PropagatorArrow -> Forward,
    Mass -> MchiM,
    Indices -> {},
    PropagatorLabel -> "chiM" },

F[14] == {
    SelfConjugate -> False,
    QuantumNumbers -> {0},
    PropagatorType -> Straight,
    PropagatorArrow -> None,
    Mass -> Mchi0,
    Indices -> {},
    PropagatorLabel -> "chi0" },

S[4] == {
    SelfConjugate -> True,
    PropagatorType -> ScalarDash,
    PropagatorArrow -> None,
    Mass -> MS0,
    Indices -> {},
    PropagatorLabel -> "S0" },

S[5] == {
    SelfConjugate -> True,
    PropagatorType -> ScalarDash,
    PropagatorArrow -> None,
    Mass -> MA0,
    Indices -> {},
    PropagatorLabel -> "A0" },

S[6] == {
    SelfConjugate -> False,
    QuantumNumbers -> {(2*Q)/3},
    PropagatorType -> ScalarDash,
    PropagatorArrow -> None,
    Mass -> MphiQ,
    Indices -> {Index[Colour]},
    PropagatorLabel -> "pQ" }
}


(*        Definitions       *)

GaugeXi[ V[1] ] = GaugeXi[A];
GaugeXi[ V[2] ] = GaugeXi[Z];
GaugeXi[ V[3] ] = GaugeXi[W];
GaugeXi[ V[4] ] = GaugeXi[G];
GaugeXi[ U[1] ] = GaugeXi[A];
GaugeXi[ U[2] ] = GaugeXi[Z];
GaugeXi[ U[3] ] = GaugeXi[W];
GaugeXi[ U[4] ] = GaugeXi[W];
GaugeXi[ U[5] ] = GaugeXi[G];
GaugeXi[ S[1] ] = 1;
GaugeXi[ S[2] ] = GaugeXi[Z];
GaugeXi[ S[3] ] = GaugeXi[W];
GaugeXi[ F[13] ] = GaugeXi[F[21]];
GaugeXi[ F[14] ] = GaugeXi[F[22]];
GaugeXi[ S[4] ] = GaugeXi[S[21]];
GaugeXi[ S[5] ] = GaugeXi[S[22]];
GaugeXi[ S[6] ] = GaugeXi[S[24]];

MZ[ ___ ] := MZ;
MW[ ___ ] := MW;
Me[ ___ ] := Me;
MMU[ ___ ] := MMU;
MTA[ ___ ] := MTA;
MU[ ___ ] := MU;
MC[ ___ ] := MC;
MT[ ___ ] := MT;
MD[ ___ ] := MD;
MS[ ___ ] := MS;
MB[ ___ ] := MB;
MH[ ___ ] := MH;
MchiM[ ___ ] := MchiM;
Mchi0[ ___ ] := Mchi0;
MS0[ ___ ] := MS0;
MA0[ ___ ] := MA0;
MphiQ[ ___ ] := MphiQ;


TheLabel[ V[4, {__}] ] := TheLabel[V[4]];
TheLabel[ U[5, {__}] ] := TheLabel[U[5]];
TheLabel[ F[7, {__}] ] := TheLabel[F[7]];
TheLabel[ F[8, {__}] ] := TheLabel[F[8]];
TheLabel[ F[9, {__}] ] := TheLabel[F[9]];
TheLabel[ F[10, {__}] ] := TheLabel[F[10]];
TheLabel[ F[11, {__}] ] := TheLabel[F[11]];
TheLabel[ F[12, {__}] ] := TheLabel[F[12]];
TheLabel[ S[6, {__}] ] := TheLabel[S[6]];


(*      Couplings (calculated by FeynRules)      *)

M$CouplingMatrices = {

C[ S[1] , S[1] , S[1] , S[1] ] == {{(-6*I)*lamH, 0}},

C[ S[5] , S[5] , S[1] , S[1] ] == {{(-I)*(lamHPL - lamHPLprime), 0}},

C[ S[5] , S[5] , S[5] , S[5] ] == {{(-6*I)*(lamPL + lamPLprime), 0}},

C[ S[1] , S[1] , S[4] , S[4] ] == {{(-I)*(lamHPL + lamHPLprime), 0}},

C[ S[5] , S[5] , S[4] , S[4] ] == {{(-2*I)*(lamPL - lamPLprime), 0}},

C[ S[4] , S[4] , S[4] , S[4] ] == {{(-6*I)*(lamPL + lamPLprime), 0}},

C[ S[1] , S[1] , S[1] ] == {{(-6*I)*lamH*vev, 0}},

C[ S[5] , S[5] , S[1] ] == {{(-I)*(lamHPL - lamHPLprime)*vev, 0}},

C[ S[1] , S[4] , S[4] ] == {{(-I)*(lamHPL + lamHPLprime)*vev, 0}},

C[ -U[5, {e1x1}] , U[5, {e2x1}] , V[4, {e3x2}] ] == {{gc10*SUNF[e3x2, e1x1, e2x1], 0}, {gc10*SUNF[e3x2, e1x1, e2x1], 0}, {0, 0}},

C[ V[4, {e1x2}] , V[4, {e2x2}] , V[4, {e3x2}] ] == {{-(gc11*SUNF[e1x2, e2x2, e3x2]), 0}, {gc11*SUNF[e1x2, e2x2, e3x2], 0}, {gc11*SUNF[e1x2, e2x2, e3x2], 0}, {-(gc11*SUNF[e1x2, e2x2, e3x2]), 0}, {-(gc11*SUNF[e1x2, e2x2, e3x2]), 0}, {gc11*SUNF[e1x2, e2x2, e3x2], 0}},

C[ V[4, {e1x2}] , V[4, {e2x2}] , V[4, {e3x2}] , V[4, {e4x2}] ] == {{(-I)*gc12*(SUNF[e1x2, e2x2, e3x2, e4x2] + SUNF[e1x2, e3x2, e2x2, e4x2]), 0}, {I*gc12*(SUNF[e1x2, e2x2, e3x2, e4x2] - SUNF[e1x2, e4x2, e2x2, e3x2]), 0}, {I*gc12*(SUNF[e1x2, e3x2, e2x2, e4x2] + SUNF[e1x2, e4x2, e2x2, e3x2]), 0}},

C[ -F[13] , F[13] , V[1] ] == {{I*gc13, 0}, {I*gc13, 0}},

C[ S[6, {e2x1}] , -S[6, {e3x1}] , V[1] ] == {{(-I)*gc14*IndexDelta[e2x1, e3x1], 0}, {I*gc14*IndexDelta[e2x1, e3x1], 0}},

C[ S[1] , S[1] , S[6, {e3x1}] , -S[6, {e4x1}] ] == {{(-I)*lamHPQ*IndexDelta[e3x1, e4x1], 0}},

C[ S[5] , S[5] , S[6, {e3x1}] , -S[6, {e4x1}] ] == {{(-I)*(lamPQPL - lamPQPLprime)*IndexDelta[e3x1, e4x1], 0}},

C[ S[6, {e1x1}] , -S[6, {e2x1}] , S[4] , S[4] ] == {{(-I)*(lamPQPL + lamPQPLprime)*IndexDelta[e1x1, e2x1], 0}},

C[ S[1] , S[6, {e2x1}] , -S[6, {e3x1}] ] == {{(-I)*lamHPQ*vev*IndexDelta[e2x1, e3x1], 0}},

C[ S[6, {e3x1}] , -S[6, {e4x1}] , V[1] , V[1] ] == {{((8*I)/9)*EL^2*IndexDelta[e3x1, e4x1], 0}},

C[ S[6, {e1x1}] , S[6, {e2x1}] , -S[6, {e3x1}] , -S[6, {e4x1}] ] == {{(-2*I)*lamPQ*(IndexDelta[e1x1, e4x1]*IndexDelta[e2x1, e3x1] + IndexDelta[e1x1, e3x1]*IndexDelta[e2x1, e4x1]), 0}},

C[ -F[12, {e1x2}] , F[12, {e2x2}] , S[1] ] == {{I*gc21*IndexDelta[e1x2, e2x2], 0}, {I*gc21*IndexDelta[e1x2, e2x2], 0}},

C[ -F[10, {e1x2}] , F[10, {e2x2}] , S[1] ] == {{I*gc22*IndexDelta[e1x2, e2x2], 0}, {I*gc22*IndexDelta[e1x2, e2x2], 0}},

C[ -F[11, {e1x2}] , F[11, {e2x2}] , S[1] ] == {{I*gc23*IndexDelta[e1x2, e2x2], 0}, {I*gc23*IndexDelta[e1x2, e2x2], 0}},

C[ -F[4] , F[4] , S[1] ] == {{I*gc24, 0}, {I*gc24, 0}},

C[ -F[5] , F[5] , S[1] ] == {{I*gc25, 0}, {I*gc25, 0}},

C[ -F[6] , F[6] , S[1] ] == {{I*gc26, 0}, {I*gc26, 0}},

C[ -F[8, {e1x2}] , F[8, {e2x2}] , S[1] ] == {{I*gc27*IndexDelta[e1x2, e2x2], 0}, {I*gc27*IndexDelta[e1x2, e2x2], 0}},

C[ -F[9, {e1x2}] , F[9, {e2x2}] , S[1] ] == {{I*gc28*IndexDelta[e1x2, e2x2], 0}, {I*gc28*IndexDelta[e1x2, e2x2], 0}},

C[ -F[7, {e1x2}] , F[7, {e2x2}] , S[1] ] == {{I*gc29*IndexDelta[e1x2, e2x2], 0}, {I*gc29*IndexDelta[e1x2, e2x2], 0}},

C[ -F[14] , F[8, {e2x2}] , -S[6, {e3x1}] ] == {{I*gc30*IndexDelta[e2x2, e3x1], 0}, {0, 0}},

C[ -F[14] , F[9, {e2x2}] , -S[6, {e3x1}] ] == {{I*gc31*IndexDelta[e2x2, e3x1], 0}, {0, 0}},

C[ -F[14] , F[7, {e2x2}] , -S[6, {e3x1}] ] == {{I*gc32*IndexDelta[e2x2, e3x1], 0}, {0, 0}},

C[ -F[13] , F[12, {e2x2}] , -S[6, {e3x1}] ] == {{I*gc33*IndexDelta[e2x2, e3x1], 0}, {0, 0}},

C[ -F[13] , F[11, {e2x2}] , -S[6, {e3x1}] ] == {{I*gc34*IndexDelta[e2x2, e3x1], 0}, {0, 0}},

C[ -F[14] , F[2] , S[5] ] == {{gc35, 0}, {0, 0}},

C[ -F[14] , F[2] , S[4] ] == {{I*gc36, 0}, {0, 0}},

C[ -F[13] , F[5] , S[5] ] == {{gc37, 0}, {0, 0}},

C[ -F[13] , F[5] , S[4] ] == {{I*gc38, 0}, {0, 0}},

C[ -F[8, {e1x2}] , F[14] , S[6, {e3x1}] ] == {{0, 0}, {I*gc39R*IndexDelta[e1x2, e3x1], 0}},

C[ -F[9, {e1x2}] , F[14] , S[6, {e3x1}] ] == {{0, 0}, {I*gc40R*IndexDelta[e1x2, e3x1], 0}},

C[ -F[7, {e1x2}] , F[14] , S[6, {e3x1}] ] == {{0, 0}, {I*gc41R*IndexDelta[e1x2, e3x1], 0}},

C[ -F[12, {e1x2}] , F[13] , S[6, {e3x1}] ] == {{0, 0}, {I*gc42R*IndexDelta[e1x2, e3x1], 0}},

C[ -F[11, {e1x2}] , F[13] , S[6, {e3x1}] ] == {{0, 0}, {I*gc43R*IndexDelta[e1x2, e3x1], 0}},

C[ -F[2] , F[14] , S[5] ] == {{0, 0}, {gc44R, 0}},

C[ -F[2] , F[14] , S[4] ] == {{0, 0}, {I*gc45R, 0}},

C[ -F[5] , F[13] , S[5] ] == {{0, 0}, {gc46R, 0}},

C[ -F[5] , F[13] , S[4] ] == {{0, 0}, {I*gc47R, 0}},

C[ S[6, {e2x1}] , -S[6, {e3x1}] , V[4, {e1x2}] ] == {{(-I)*gc48*SUNT[e1x2, e3x1, e2x1], 0}, {I*gc48*SUNT[e1x2, e3x1, e2x1], 0}},

C[ S[6, {e3x1}] , -S[6, {e4x1}] , V[1] , V[4, {e2x2}] ] == {{((4*I)/3)*EL*GS*SUNT[e2x2, e4x1, e3x1], 0}},

C[ S[6, {e3x1}] , -S[6, {e4x1}] , V[4, {e1x2}] , V[4, {e2x2}] ] == {{I*GS^2*(SUNT[e1x2, e2x2, e4x1, e3x1] + SUNT[e2x2, e1x2, e4x1, e3x1]), 0}},

C[ V[1] , V[3] , -V[3] ] == {{(-I)*gc51, 0}, {I*gc51, 0}, {I*gc51, 0}, {(-I)*gc51, 0}, {(-I)*gc51, 0}, {I*gc51, 0}},

C[ -F[14] , F[13] , V[3] ] == {{I*gc52, 0}, {I*gc52, 0}},

C[ -F[13] , F[14] , -V[3] ] == {{I*gc53, 0}, {I*gc53, 0}},

C[ S[1] , S[1] , V[3] , -V[3] ] == {{((I/2)*EL^2)/sw^2, 0}},

C[ S[1] , V[3] , -V[3] ] == {{((I/2)*EL^2*vev)/sw^2, 0}},

C[ V[1] , V[1] , V[3] , -V[3] ] == {{(-I)*gc56, 0}, {(-I)*gc56, 0}, {(2*I)*gc56, 0}},

C[ V[3] , -V[3] , V[2] ] == {{(-I)*gc57, 0}, {I*gc57, 0}, {I*gc57, 0}, {(-I)*gc57, 0}, {(-I)*gc57, 0}, {I*gc57, 0}},

C[ V[3] , V[3] , -V[3] , -V[3] ] == {{(-I)*gc58, 0}, {(-I)*gc58, 0}, {(2*I)*gc58, 0}},

C[ -F[14] , F[14] , V[2] ] == {{I*gc59, 0}, {I*gc59, 0}},

C[ -F[13] , F[13] , V[2] ] == {{I*gc60, 0}, {I*gc60, 0}},

C[ S[6, {e1x1}] , -S[6, {e2x1}] , V[2] ] == {{(-I)*gc61*IndexDelta[e1x1, e2x1], 0}, {I*gc61*IndexDelta[e1x1, e2x1], 0}},

C[ S[6, {e2x1}] , -S[6, {e3x1}] , V[1] , V[2] ] == {{(((-8*I)/9)*EL^2*sw*IndexDelta[e2x1, e3x1])/cw, 0}},

C[ S[6, {e2x1}] , -S[6, {e3x1}] , V[4, {e1x2}] , V[2] ] == {{(((-4*I)/3)*EL*GS*sw*SUNT[e1x2, e3x1, e2x1])/cw, 0}},

C[ V[1] , V[3] , -V[3] , V[2] ] == {{(-2*I)*gc64, 0}, {I*gc64, 0}, {I*gc64, 0}},

C[ S[1] , S[1] , V[2] , V[2] ] == {{((I/2)*EL^2*(cw^2 + sw^2)^2)/(cw^2*sw^2), 0}},

C[ S[1] , V[2] , V[2] ] == {{((I/2)*EL^2*(cw^2 + sw^2)^2*vev)/(cw^2*sw^2), 0}},

C[ S[6, {e1x1}] , -S[6, {e2x1}] , V[2] , V[2] ] == {{(((8*I)/9)*EL^2*sw^2*IndexDelta[e1x1, e2x1])/cw^2, 0}},

C[ V[3] , -V[3] , V[2] , V[2] ] == {{(-I)*gc68, 0}, {(-I)*gc68, 0}, {(2*I)*gc68, 0}},

C[ -F[4] , F[4] , V[1] ] == {{I*gc69, 0}, {I*gc69, 0}},

C[ -F[5] , F[5] , V[1] ] == {{I*gc70, 0}, {I*gc70, 0}},

C[ -F[6] , F[6] , V[1] ] == {{I*gc71, 0}, {I*gc71, 0}},

C[ -F[8, {e1x2}] , F[8, {e2x2}] , V[1] ] == {{I*gc72*IndexDelta[e1x2, e2x2], 0}, {I*gc72*IndexDelta[e1x2, e2x2], 0}},

C[ -F[9, {e1x2}] , F[9, {e2x2}] , V[1] ] == {{I*gc73*IndexDelta[e1x2, e2x2], 0}, {I*gc73*IndexDelta[e1x2, e2x2], 0}},

C[ -F[7, {e1x2}] , F[7, {e2x2}] , V[1] ] == {{I*gc74*IndexDelta[e1x2, e2x2], 0}, {I*gc74*IndexDelta[e1x2, e2x2], 0}},

C[ -F[12, {e1x2}] , F[12, {e2x2}] , V[1] ] == {{I*gc75*IndexDelta[e1x2, e2x2], 0}, {I*gc75*IndexDelta[e1x2, e2x2], 0}},

C[ -F[10, {e1x2}] , F[10, {e2x2}] , V[1] ] == {{I*gc76*IndexDelta[e1x2, e2x2], 0}, {I*gc76*IndexDelta[e1x2, e2x2], 0}},

C[ -F[11, {e1x2}] , F[11, {e2x2}] , V[1] ] == {{I*gc77*IndexDelta[e1x2, e2x2], 0}, {I*gc77*IndexDelta[e1x2, e2x2], 0}},

C[ -F[8, {e1x2}] , F[8, {e2x2}] , V[4, {e3x2}] ] == {{I*gc78*SUNT[e3x2, e1x2, e2x2], 0}, {I*gc78*SUNT[e3x2, e1x2, e2x2], 0}},

C[ -F[9, {e1x2}] , F[9, {e2x2}] , V[4, {e3x2}] ] == {{I*gc79*SUNT[e3x2, e1x2, e2x2], 0}, {I*gc79*SUNT[e3x2, e1x2, e2x2], 0}},

C[ -F[7, {e1x2}] , F[7, {e2x2}] , V[4, {e3x2}] ] == {{I*gc80*SUNT[e3x2, e1x2, e2x2], 0}, {I*gc80*SUNT[e3x2, e1x2, e2x2], 0}},

C[ -F[12, {e1x2}] , F[12, {e2x2}] , V[4, {e3x2}] ] == {{I*gc81*SUNT[e3x2, e1x2, e2x2], 0}, {I*gc81*SUNT[e3x2, e1x2, e2x2], 0}},

C[ -F[10, {e1x2}] , F[10, {e2x2}] , V[4, {e3x2}] ] == {{I*gc82*SUNT[e3x2, e1x2, e2x2], 0}, {I*gc82*SUNT[e3x2, e1x2, e2x2], 0}},

C[ -F[11, {e1x2}] , F[11, {e2x2}] , V[4, {e3x2}] ] == {{I*gc83*SUNT[e3x2, e1x2, e2x2], 0}, {I*gc83*SUNT[e3x2, e1x2, e2x2], 0}},

C[ -F[8, {e1x2}] , F[12, {e2x2}] , V[3] ] == {{I*gc84*IndexDelta[e1x2, e2x2], 0}, {0, 0}},

C[ -F[8, {e1x2}] , F[10, {e2x2}] , V[3] ] == {{I*gc85*IndexDelta[e1x2, e2x2], 0}, {0, 0}},

C[ -F[8, {e1x2}] , F[11, {e2x2}] , V[3] ] == {{I*gc86*IndexDelta[e1x2, e2x2], 0}, {0, 0}},

C[ -F[9, {e1x2}] , F[12, {e2x2}] , V[3] ] == {{I*gc87*IndexDelta[e1x2, e2x2], 0}, {0, 0}},

C[ -F[9, {e1x2}] , F[10, {e2x2}] , V[3] ] == {{I*gc88*IndexDelta[e1x2, e2x2], 0}, {0, 0}},

C[ -F[9, {e1x2}] , F[11, {e2x2}] , V[3] ] == {{I*gc89*IndexDelta[e1x2, e2x2], 0}, {0, 0}},

C[ -F[7, {e1x2}] , F[12, {e2x2}] , V[3] ] == {{I*gc90*IndexDelta[e1x2, e2x2], 0}, {0, 0}},

C[ -F[7, {e1x2}] , F[10, {e2x2}] , V[3] ] == {{I*gc91*IndexDelta[e1x2, e2x2], 0}, {0, 0}},

C[ -F[7, {e1x2}] , F[11, {e2x2}] , V[3] ] == {{I*gc92*IndexDelta[e1x2, e2x2], 0}, {0, 0}},

C[ -F[12, {e1x2}] , F[8, {e2x2}] , -V[3] ] == {{I*gc93*IndexDelta[e1x2, e2x2], 0}, {0, 0}},

C[ -F[12, {e1x2}] , F[9, {e2x2}] , -V[3] ] == {{I*gc94*IndexDelta[e1x2, e2x2], 0}, {0, 0}},

C[ -F[12, {e1x2}] , F[7, {e2x2}] , -V[3] ] == {{I*gc95*IndexDelta[e1x2, e2x2], 0}, {0, 0}},

C[ -F[10, {e1x2}] , F[8, {e2x2}] , -V[3] ] == {{I*gc96*IndexDelta[e1x2, e2x2], 0}, {0, 0}},

C[ -F[10, {e1x2}] , F[9, {e2x2}] , -V[3] ] == {{I*gc97*IndexDelta[e1x2, e2x2], 0}, {0, 0}},

C[ -F[10, {e1x2}] , F[7, {e2x2}] , -V[3] ] == {{I*gc98*IndexDelta[e1x2, e2x2], 0}, {0, 0}},

C[ -F[11, {e1x2}] , F[8, {e2x2}] , -V[3] ] == {{I*gc99*IndexDelta[e1x2, e2x2], 0}, {0, 0}},

C[ -F[11, {e1x2}] , F[9, {e2x2}] , -V[3] ] == {{I*gc100*IndexDelta[e1x2, e2x2], 0}, {0, 0}},

C[ -F[11, {e1x2}] , F[7, {e2x2}] , -V[3] ] == {{I*gc101*IndexDelta[e1x2, e2x2], 0}, {0, 0}},

C[ -F[1] , F[4] , V[3] ] == {{I*gc102, 0}, {0, 0}},

C[ -F[2] , F[5] , V[3] ] == {{I*gc103, 0}, {0, 0}},

C[ -F[3] , F[6] , V[3] ] == {{I*gc104, 0}, {0, 0}},

C[ -F[4] , F[1] , -V[3] ] == {{I*gc105, 0}, {0, 0}},

C[ -F[5] , F[2] , -V[3] ] == {{I*gc106, 0}, {0, 0}},

C[ -F[6] , F[3] , -V[3] ] == {{I*gc107, 0}, {0, 0}},

C[ -F[8, {e1x2}] , F[8, {e2x2}] , V[2] ] == {{I*gc108L*IndexDelta[e1x2, e2x2], 0}, {I*gc108R*IndexDelta[e1x2, e2x2], 0}},

C[ -F[9, {e1x2}] , F[9, {e2x2}] , V[2] ] == {{I*gc109L*IndexDelta[e1x2, e2x2], 0}, {I*gc109R*IndexDelta[e1x2, e2x2], 0}},

C[ -F[7, {e1x2}] , F[7, {e2x2}] , V[2] ] == {{I*gc110L*IndexDelta[e1x2, e2x2], 0}, {I*gc110R*IndexDelta[e1x2, e2x2], 0}},

C[ -F[12, {e1x2}] , F[12, {e2x2}] , V[2] ] == {{I*gc111L*IndexDelta[e1x2, e2x2], 0}, {I*gc111R*IndexDelta[e1x2, e2x2], 0}},

C[ -F[10, {e1x2}] , F[10, {e2x2}] , V[2] ] == {{I*gc112L*IndexDelta[e1x2, e2x2], 0}, {I*gc112R*IndexDelta[e1x2, e2x2], 0}},

C[ -F[11, {e1x2}] , F[11, {e2x2}] , V[2] ] == {{I*gc113L*IndexDelta[e1x2, e2x2], 0}, {I*gc113R*IndexDelta[e1x2, e2x2], 0}},

C[ -F[1] , F[1] , V[2] ] == {{I*gc114, 0}, {0, 0}},

C[ -F[2] , F[2] , V[2] ] == {{I*gc115, 0}, {0, 0}},

C[ -F[3] , F[3] , V[2] ] == {{I*gc116, 0}, {0, 0}},

C[ -F[4] , F[4] , V[2] ] == {{I*gc117L, 0}, {I*gc117R, 0}},

C[ -F[5] , F[5] , V[2] ] == {{I*gc118L, 0}, {I*gc118R, 0}},

C[ -F[6] , F[6] , V[2] ] == {{I*gc119L, 0}, {I*gc119R, 0}}

}

(* * * * * * * * * * * * * * * * * * * * * * * * * * * * * * * * * * * *)

(* Parameter replacement lists (These lists were created by FeynRules) *)

(* FA Couplings *)

M$FACouplings = {
     gc10 -> GS,
     gc11 -> -GS,
     gc12 -> -GS^2,
     gc13 -> -EL,
     gc14 -> (-2*EL)/3,
     gc21 -> -(yb/Sqrt[2]),
     gc22 -> -(ydo/Sqrt[2]),
     gc23 -> -(ys/Sqrt[2]),
     gc24 -> -(ye/Sqrt[2]),
     gc25 -> -(ym/Sqrt[2]),
     gc26 -> -(ytau/Sqrt[2]),
     gc27 -> -(yc/Sqrt[2]),
     gc28 -> -(yt/Sqrt[2]),
     gc29 -> -(yup/Sqrt[2]),
     gc30 -> CKM2x3*ymbD + CKM2x2*ymsD,
     gc31 -> CKM3x3*ymbD + CKM3x2*ymsD,
     gc32 -> CKM1x3*ymbD + CKM1x2*ymsD,
     gc33 -> ymbD,
     gc34 -> ymsD,
     gc35 -> ymmD/Sqrt[2],
     gc36 -> ymmD/Sqrt[2],
     gc37 -> ymmD/Sqrt[2],
     gc38 -> ymmD/Sqrt[2],
     gc39R -> CKM2x3*ymbD + CKM2x2*ymsD,
     gc40R -> CKM3x3*ymbD + CKM3x2*ymsD,
     gc41R -> CKM1x3*ymbD + CKM1x2*ymsD,
     gc42R -> ymbD,
     gc43R -> ymsD,
     gc44R -> -(ymmD/Sqrt[2]),
     gc45R -> ymmD/Sqrt[2],
     gc46R -> -(ymmD/Sqrt[2]),
     gc47R -> ymmD/Sqrt[2],
     gc48 -> -GS,
     gc51 -> EL,
     gc52 -> EL/(Sqrt[2]*sw),
     gc53 -> EL/(Sqrt[2]*sw),
     gc56 -> -EL^2,
     gc57 -> (cw*EL)/sw,
     gc58 -> EL^2/sw^2,
     gc59 -> (EL*(cw^2 + sw^2))/(2*cw*sw),
     gc60 -> -1/2*(EL*(cw^2 - sw^2))/(cw*sw),
     gc61 -> (2*EL*sw)/(3*cw),
     gc64 -> (cw*EL^2)/sw,
     gc68 -> -((cw^2*EL^2)/sw^2),
     gc69 -> -EL,
     gc70 -> -EL,
     gc71 -> -EL,
     gc72 -> (2*EL)/3,
     gc73 -> (2*EL)/3,
     gc74 -> (2*EL)/3,
     gc75 -> -1/3*EL,
     gc76 -> -1/3*EL,
     gc77 -> -1/3*EL,
     gc78 -> GS,
     gc79 -> GS,
     gc80 -> GS,
     gc81 -> GS,
     gc82 -> GS,
     gc83 -> GS,
     gc84 -> (CKM2x3*EL)/(Sqrt[2]*sw),
     gc85 -> (CKM2x1*EL)/(Sqrt[2]*sw),
     gc86 -> (CKM2x2*EL)/(Sqrt[2]*sw),
     gc87 -> (CKM3x3*EL)/(Sqrt[2]*sw),
     gc88 -> (CKM3x1*EL)/(Sqrt[2]*sw),
     gc89 -> (CKM3x2*EL)/(Sqrt[2]*sw),
     gc90 -> (CKM1x3*EL)/(Sqrt[2]*sw),
     gc91 -> (CKM1x1*EL)/(Sqrt[2]*sw),
     gc92 -> (CKM1x2*EL)/(Sqrt[2]*sw),
     gc93 -> (CKM2x3*EL)/(Sqrt[2]*sw),
     gc94 -> (CKM3x3*EL)/(Sqrt[2]*sw),
     gc95 -> (CKM1x3*EL)/(Sqrt[2]*sw),
     gc96 -> (CKM2x1*EL)/(Sqrt[2]*sw),
     gc97 -> (CKM3x1*EL)/(Sqrt[2]*sw),
     gc98 -> (CKM1x1*EL)/(Sqrt[2]*sw),
     gc99 -> (CKM2x2*EL)/(Sqrt[2]*sw),
     gc100 -> (CKM3x2*EL)/(Sqrt[2]*sw),
     gc101 -> (CKM1x2*EL)/(Sqrt[2]*sw),
     gc102 -> EL/(Sqrt[2]*sw),
     gc103 -> EL/(Sqrt[2]*sw),
     gc104 -> EL/(Sqrt[2]*sw),
     gc105 -> EL/(Sqrt[2]*sw),
     gc106 -> EL/(Sqrt[2]*sw),
     gc107 -> EL/(Sqrt[2]*sw),
     gc108L -> (cw*EL)/(2*sw) - (EL*sw)/(6*cw),
     gc108R -> (-2*EL*sw)/(3*cw),
     gc109L -> (cw*EL)/(2*sw) - (EL*sw)/(6*cw),
     gc109R -> (-2*EL*sw)/(3*cw),
     gc110L -> (cw*EL)/(2*sw) - (EL*sw)/(6*cw),
     gc110R -> (-2*EL*sw)/(3*cw),
     gc111L -> -1/6*(EL*(3*cw^2 + sw^2))/(cw*sw),
     gc111R -> (EL*sw)/(3*cw),
     gc112L -> -1/6*(EL*(3*cw^2 + sw^2))/(cw*sw),
     gc112R -> (EL*sw)/(3*cw),
     gc113L -> -1/6*(EL*(3*cw^2 + sw^2))/(cw*sw),
     gc113R -> (EL*sw)/(3*cw),
     gc114 -> (EL*(cw^2 + sw^2))/(2*cw*sw),
     gc115 -> (EL*(cw^2 + sw^2))/(2*cw*sw),
     gc116 -> (EL*(cw^2 + sw^2))/(2*cw*sw),
     gc117L -> -1/2*(EL*(cw^2 - sw^2))/(cw*sw),
     gc117R -> (EL*sw)/cw,
     gc118L -> -1/2*(EL*(cw^2 - sw^2))/(cw*sw),
     gc118R -> (EL*sw)/cw,
     gc119L -> -1/2*(EL*(cw^2 - sw^2))/(cw*sw),
     gc119R -> (EL*sw)/cw};

