%!PS-Adobe-3.0
%%BoundingBox: 0 0 595 842 
%%Pages: 7 
%%PageOrder: Ascend
%%DocumentNeededResources: font Helvetica Palatino-Italic Symbol
%%DocumentSuppliedResources: procset FeynArts.pro
%%Creator: FeynArts
%%EndComments

%%BeginProlog
%%BeginResource: procset FeynArts.pro
/FeynArtsDict 100 dict def FeynArtsDict begin /DiagramBorder 1 def
/DiagramCanvas 20 def /DiagramSize DiagramBorder dup add DiagramCanvas
add def /LabelFont /Palatino-Italic def /LabelFontSize 2 def
/PropagatorThickness .11 def /VertexThickness PropagatorThickness 8 mul
def /CounterThickness PropagatorThickness 3 mul def /CrossWidth 1 def
/OnePIWidth //CrossWidth def /ArrowLength 1.2 def /ArrowHeight .4 def
/DampingConst ArrowLength .65 mul dup mul dup mul def /ScalarDashing [
.66 ] def /GhostDashing [ .11 .66 ] def /NPoints 10 def /NCrestsSine .5
def /NCrestsCycles .65 def /SineAmp .25 def /CyclesAmp .6 def
/CyclesBreadth .16 def /Degree 3.141592653589793 180 div def /acos { dup
dup mul 1 exch sub sqrt exch atan } bind def /asin { dup dup mul 1 exch
sub sqrt atan } bind def /polar { 3 -1 roll sub /y exch def exch sub /x
exch def x dup mul y dup mul add sqrt y x atan } bind def /stm matrix def
/yoff -1 def /Layout { dup floor //DiagramSize mul /yoff exch def
//DiagramSize mul /ymax exch def //DiagramSize mul /xmax exch def /height
exch 3 index sub def /width exch 3 index sub def translate ymax width mul
xmax height mul div abs dup 1 gt { width exch div width /width 2 index
def sub -.5 mul 0 } { height mul height /height 2 index def sub -.5 mul 0
exch } ifelse translate width xmax div height ymax div scale //stm
currentmatrix pop /xoff //DiagramBorder def /yoff yoff //DiagramSize sub
//DiagramBorder add def } bind def /Advance { yoff 0 lt {
(Too many diagrams for the chosen sheet layout.) error } if //stm
setmatrix xoff yoff translate /xoff xoff //DiagramSize add dup xmax ge {
pop /yoff yoff //DiagramSize sub def //DiagramBorder } if def } bind def
/dfont /Helvetica findfont //LabelFontSize .8 mul scalefont def /Diagram
{ Advance //dfont setfont dup stringwidth pop //DiagramCanvas exch sub .5
mul -.5 moveto show } bind def /Vert { /cto exch def /y exch def /x exch
def 1 setlinecap cto 0 eq { x y moveto 0 0 rlineto //VertexThickness
setlinewidth stroke } { cto 0 gt { x y moveto //CrossWidth .5 mul dup
rmoveto //CrossWidth dup neg dup dup rlineto exch dup 0 rmoveto rlineto
//CounterThickness setlinewidth stroke //PropagatorThickness setlinewidth
2 1 cto { .25 mul .55 add //CrossWidth mul x y 3 -1 roll 0 360 arc stroke
} for } { newpath x y //OnePIWidth 0 360 arc gsave cto .3 mul 1.1 add dup
0 lt { pop 0 } if setgray fill grestore //PropagatorThickness
setlinewidth stroke } ifelse } ifelse } bind def /Prop { /toy exch def
/tox exch def /fromy exch def /fromx exch def fromx tox eq fromy toy eq
and { /midy exch def /midx exch def /ctrx fromx midx add .5 mul def /ctry
fromy midy add .5 mul def fromx fromy ctrx ctry polar /ommc exch def /rad
exch def /dir ommc 90 add def /dphi 180 def } { /height exch def fromx
fromy tox toy polar /dir exch def .5 mul /lab exch def /ommc dir 90
height 0 ge { sub } { add } ifelse def /cosommc ommc cos def /sinommc
ommc sin def /midx fromx tox add .5 mul def /midy fromy toy add .5 mul
def /ctrx midx def /ctry midy def height 0 eq { /rad 20000 def /dphi lab
rad div asin def -1 } { /h height abs def /dphi h 1 atan dup add def /rad
lab dphi sin div def height 0 lt { /dphi dphi neg def } if h lab mul dup
cosommc mul midx add /midx exch def sinommc mul midy add /midy exch def h
1 gt { 1 } { -1 } ifelse } ifelse rad dup mul lab dup mul sub sqrt mul
dup cosommc mul ctrx add /ctrx exch def sinommc mul ctry add /ctry exch
def } ifelse /arrow exch def arrow 0 eq { /damping { pop 1 } def } {
/damping { ommc sub abs //Degree mul rad mul dup mul dup mul dup
//DampingConst add div } bind def } ifelse /pcs 0 def dup {
//FeynArtsDict exch known { /pcs pcs 1 add def } if } forall /phi ommc
dphi sub def /dphi dphi dup add pcs div def //PropagatorThickness
setlinewidth 1 setlinecap gsave fromx fromy moveto exec stroke arrow 0 ne
{ newpath rad 20000 ge { //ArrowLength arrow mul dup dir cos mul /x exch
def dir sin mul /y exch def x .5 mul midx add y .5 mul midy add moveto x
/x cosommc //ArrowHeight mul def x add neg y /y sinommc //ArrowHeight mul
def y add neg rlineto x dup add y dup add rlineto } { ommc dir sub sin 0
le { /arrow arrow neg def } if /rad rad dup add def /ctrx ctrx dup add
midx sub def /ctry ctry dup add midy sub def /dphi //ArrowLength .5 mul
rad atan arrow mul def ommc dphi sub dup cos rad mul ctrx add /tipx exch
def sin rad mul ctry add /tipy exch def ommc dphi add dup /sinommc exch
sin def /cosommc exch cos def rad //ArrowHeight sub arrowarc arrow 1 eq {
arc } { arcn } ifelse rad //ArrowHeight add arrowarc exch arrow 1 eq {
arcn } { arc } ifelse } ifelse closepath fill } if grestore } bind def
/arrowarc { dup cosommc mul ctrx add /tailx exch def sinommc mul ctry add
/taily exch def tailx tipx sub tipy taily sub dup dup mul 2 index dup mul
add dup .25 mul rad dup mul exch sub exch div sqrt arrow mul dup 3 -1
roll mul tailx tipx add .5 mul add /midx exch def mul taily tipy add .5
mul add /midy exch def midx midy rad tipy midy sub tipx midx sub atan
taily midy sub tailx midx sub atan } bind def /Straight { rad 20000 lt {
ctrx ctry rad phi phi dphi add dphi 0 ge { arc } { arcn } ifelse } { phi
dphi add dup cos rad mul ctrx add exch sin rad mul ctry add lineto }
ifelse /phi phi dphi add def } bind def /Dash { currentpoint stroke
moveto 0 setdash Straight currentpoint stroke moveto [ ] 0 setdash } bind
def /ScalarDash { //ScalarDashing Dash } bind def /GhostDash {
//GhostDashing Dash } bind def /Sine { /a dphi abs //Degree mul rad mul
def /omega //NCrestsSine a mul round dup 1 lt { pop 1 } if .5 add dup add
180 mul def 0 1 //NPoints a mul floor div 1 { /n exch def /a phi n dphi
mul add def rad a damping //SineAmp mul n omega mul sin mul sub dup a cos
mul ctrx add exch a sin mul ctry add lineto } for /phi phi dphi add def }
bind def /rshift CyclesAmp SineAmp sub def /phadj rshift CyclesAmp div
acos def /sinphadj phadj sin def /Cycles { /a dphi abs //Degree mul rad
mul def /omega //NCrestsCycles a mul round dup 1 lt { pop 1 } if 180 mul
//phadj add dup add def /phamp //CyclesBreadth 180 mul rad div dphi 0 lt
{ neg } if def 0 1 //NPoints a mul dup add floor div 1 { /n exch def n
omega mul //phadj sub dup cos //CyclesAmp mul //rshift sub rad add /a
exch def sin n dup add 1 sub //sinphadj mul sub phamp mul phi add n dphi
mul add dup cos a mul ctrx add exch sin a mul ctry add lineto } for /phi
phi dphi add def } bind def /lfont //LabelFont findfont def /sfont
/Symbol findfont def /slant //lfont dup /FontInfo known { /FontInfo get
dup /ItalicAngle known { /ItalicAngle get sin -.5 mul } { pop 0 } ifelse
} { pop 0 } ifelse def /Label { /fsize exch //LabelFontSize mul def
/super .38 def /putchar { false charpath } bind def /chardim {
flattenpath pathbbox /height exch def 3 -1 roll sub /width exch def pop
/icorr font //sfont eq { 0 } { //slant height mul } ifelse def } bind def
/font //lfont def newpath 0 0 moveto 4 index exec flattenpath pathbbox
newpath 2 index sub 5 -1 roll 1 add mul -.5 mul 6 -1 roll add 3 -1 roll
sub exch 2 index sub 4 -1 roll 1 add mul -.5 mul 4 -1 roll add 3 -1 roll
sub exch moveto /putchar { show } bind def /chardim { } def /font //lfont
def exec newpath } bind def /$ { /font //sfont def } bind def /# { font
fsize scalefont setfont putchar currentpoint /y exch def /x exch def
chardim /font //lfont def } bind def /_ { font fsize .66 mul scalefont
setfont /super .5 def x .042 fsize mul add y .133 fsize mul sub moveto
putchar /font //lfont def } bind def /^ { font fsize .66 mul scalefont
setfont x .083 fsize mul add y super fsize mul add moveto putchar /font
//lfont def } bind def /~ { font fsize scalefont setfont dup stringwidth
height add .44 fsize mul sub y add exch -.8 mul width .45 mul sub icorr
add x add exch moveto putchar /font //lfont def } bind def end
%%EndResource
%%EndProlog

%%BeginSetup
%%IncludeResource: font Helvetica
%%IncludeResource: font Palatino-Italic
%%IncludeResource: font Symbol
FeynArtsDict begin
%%EndSetup

%%Page: 1 1 
gsave
82 169 514 673 3 3 Layout

(1) Diagram
% aebf/cgdg/efegfg.m
{ Cycles } 0 0. 0. 15. 6. 13.5 Prop
{ (G)# } 3.54571 15.9528 0 -1 1 Label
{ Cycles } 0 0. 0. 5. 6. 6.5 Prop
{ (G)# } 3.37593 4.72628 0 1 1 Label
{ ScalarDash } 0 0. 20 15. 12. 10. Prop
{ (H)# } 15.791 13.1224 1 -1 1 Label
{ ScalarDash } 0 0. 20 5. 12. 10. Prop
{ (H)# } 16.209 8.1224 -1 -1 1 Label
{ ScalarDash } 0 0. 6. 13.5 6. 6.5 Prop
{ (phiQ5)# } 5.18 10. 1 0 1 Label
{ ScalarDash } 0 0. 6. 13.5 12. 10. Prop
{ (phiQ5)# } 9.17503 12.3929 -1 -1 1 Label
{ ScalarDash } 0 0. 6. 6.5 12. 10. Prop
{ (phiQ5)# } 9.17503 7.60709 -1 1 1 Label
6. 13.5 0 Vert
6. 6.5 0 Vert
12. 10. 0 Vert

(2) Diagram
% aebf/cgdg/efegfg.m
{ Cycles } 0 0. 0. 15. 6. 13.5 Prop
{ (G)# } 3.54571 15.9528 0 -1 1 Label
{ Cycles } 0 0. 0. 5. 6. 6.5 Prop
{ (G)# } 3.37593 4.72628 0 1 1 Label
{ ScalarDash } 0 0. 20 15. 12. 10. Prop
{ (H)# } 15.791 13.1224 1 -1 1 Label
{ ScalarDash } 0 0. 20 5. 12. 10. Prop
{ (H)# } 16.209 8.1224 -1 -1 1 Label
{ ScalarDash } 0 0. 6. 13.5 6. 6.5 Prop
{ (phiQ5)# } 5.18 10. 1 0 1 Label
{ ScalarDash } 0 0. 6. 13.5 12. 10. Prop
{ (phiQ5)# } 9.17503 12.3929 -1 -1 1 Label
{ ScalarDash } 0 0. 6. 6.5 12. 10. Prop
{ (phiQ5)# } 9.17503 7.60709 -1 1 1 Label
6. 13.5 0 Vert
6. 6.5 0 Vert
12. 10. 0 Vert

(3) Diagram
% aebf/cgdg/efegfg.m
{ Cycles } 0 0. 0. 15. 6. 13.5 Prop
{ (G)# } 3.54571 15.9528 0 -1 1 Label
{ Cycles } 0 0. 0. 5. 6. 6.5 Prop
{ (G)# } 3.37593 4.72628 0 1 1 Label
{ ScalarDash } 0 0. 20 15. 12. 10. Prop
{ (H)# } 15.791 13.1224 1 -1 1 Label
{ ScalarDash } 0 0. 20 5. 12. 10. Prop
{ (H)# } 16.209 8.1224 -1 -1 1 Label
{ ScalarDash } 0 0. 6. 13.5 6. 6.5 Prop
{ (phiQ2)# } 5.18 10. 1 0 1 Label
{ ScalarDash } 0 0. 6. 13.5 12. 10. Prop
{ (phiQ2)# } 9.17503 12.3929 -1 -1 1 Label
{ ScalarDash } 0 0. 6. 6.5 12. 10. Prop
{ (phiQ2)# } 9.17503 7.60709 -1 1 1 Label
6. 13.5 0 Vert
6. 6.5 0 Vert
12. 10. 0 Vert

(4) Diagram
% aebf/cgdg/efegfg.m
{ Cycles } 0 0. 0. 15. 6. 13.5 Prop
{ (G)# } 3.54571 15.9528 0 -1 1 Label
{ Cycles } 0 0. 0. 5. 6. 6.5 Prop
{ (G)# } 3.37593 4.72628 0 1 1 Label
{ ScalarDash } 0 0. 20 15. 12. 10. Prop
{ (H)# } 15.791 13.1224 1 -1 1 Label
{ ScalarDash } 0 0. 20 5. 12. 10. Prop
{ (H)# } 16.209 8.1224 -1 -1 1 Label
{ ScalarDash } 0 0. 6. 13.5 6. 6.5 Prop
{ (phiQ2)# } 5.18 10. 1 0 1 Label
{ ScalarDash } 0 0. 6. 13.5 12. 10. Prop
{ (phiQ2)# } 9.17503 12.3929 -1 -1 1 Label
{ ScalarDash } 0 0. 6. 6.5 12. 10. Prop
{ (phiQ2)# } 9.17503 7.60709 -1 1 1 Label
6. 13.5 0 Vert
6. 6.5 0 Vert
12. 10. 0 Vert

(5) Diagram
% aebe/cfdg/fgfege.m
{ Cycles } 0 0. 0. 15. 8. 10. Prop
{ (G)# } 3.6585 11.6656 1 1 1 Label
{ Cycles } 0 0. 0. 5. 8. 10. Prop
{ (G)# } 4.3415 6.6656 -1 1 1 Label
{ ScalarDash } 0 0. 20 15. 14. 13.5 Prop
{ (H)# } 16.6847 15.0312 0 -1 1 Label
{ ScalarDash } 0 0. 20 5. 14. 6.5 Prop
{ (H)# } 16.6847 4.96881 0 1 1 Label
{ ScalarDash } 0 0. 14. 13.5 14. 6.5 Prop
{ (phiQ5)# } 14.82 10. -1 0 1 Label
{ ScalarDash } 0 0. 14. 13.5 8. 10. Prop
{ (phiQ5)# } 10.825 12.3929 1 -1 1 Label
{ ScalarDash } 0 0. 14. 6.5 8. 10. Prop
{ (phiQ5)# } 10.825 7.60709 1 1 1 Label
14. 13.5 0 Vert
14. 6.5 0 Vert
8. 10. 0 Vert

(6) Diagram
% aebe/cfdg/fgfege.m
{ Cycles } 0 0. 0. 15. 8. 10. Prop
{ (G)# } 3.6585 11.6656 1 1 1 Label
{ Cycles } 0 0. 0. 5. 8. 10. Prop
{ (G)# } 4.3415 6.6656 -1 1 1 Label
{ ScalarDash } 0 0. 20 15. 14. 13.5 Prop
{ (H)# } 16.6847 15.0312 0 -1 1 Label
{ ScalarDash } 0 0. 20 5. 14. 6.5 Prop
{ (H)# } 16.6847 4.96881 0 1 1 Label
{ ScalarDash } 0 0. 14. 13.5 14. 6.5 Prop
{ (phiQ5)# } 14.82 10. -1 0 1 Label
{ ScalarDash } 0 0. 14. 13.5 8. 10. Prop
{ (phiQ5)# } 10.825 12.3929 1 -1 1 Label
{ ScalarDash } 0 0. 14. 6.5 8. 10. Prop
{ (phiQ5)# } 10.825 7.60709 1 1 1 Label
14. 13.5 0 Vert
14. 6.5 0 Vert
8. 10. 0 Vert

(7) Diagram
% aebe/cfdg/fgfege.m
{ Cycles } 0 0. 0. 15. 8. 10. Prop
{ (G)# } 3.6585 11.6656 1 1 1 Label
{ Cycles } 0 0. 0. 5. 8. 10. Prop
{ (G)# } 4.3415 6.6656 -1 1 1 Label
{ ScalarDash } 0 0. 20 15. 14. 13.5 Prop
{ (H)# } 16.6847 15.0312 0 -1 1 Label
{ ScalarDash } 0 0. 20 5. 14. 6.5 Prop
{ (H)# } 16.6847 4.96881 0 1 1 Label
{ ScalarDash } 0 0. 14. 13.5 14. 6.5 Prop
{ (phiQ2)# } 14.82 10. -1 0 1 Label
{ ScalarDash } 0 0. 14. 13.5 8. 10. Prop
{ (phiQ2)# } 10.825 12.3929 1 -1 1 Label
{ ScalarDash } 0 0. 14. 6.5 8. 10. Prop
{ (phiQ2)# } 10.825 7.60709 1 1 1 Label
14. 13.5 0 Vert
14. 6.5 0 Vert
8. 10. 0 Vert

(8) Diagram
% aebe/cfdg/fgfege.m
{ Cycles } 0 0. 0. 15. 8. 10. Prop
{ (G)# } 3.6585 11.6656 1 1 1 Label
{ Cycles } 0 0. 0. 5. 8. 10. Prop
{ (G)# } 4.3415 6.6656 -1 1 1 Label
{ ScalarDash } 0 0. 20 15. 14. 13.5 Prop
{ (H)# } 16.6847 15.0312 0 -1 1 Label
{ ScalarDash } 0 0. 20 5. 14. 6.5 Prop
{ (H)# } 16.6847 4.96881 0 1 1 Label
{ ScalarDash } 0 0. 14. 13.5 14. 6.5 Prop
{ (phiQ2)# } 14.82 10. -1 0 1 Label
{ ScalarDash } 0 0. 14. 13.5 8. 10. Prop
{ (phiQ2)# } 10.825 12.3929 1 -1 1 Label
{ ScalarDash } 0 0. 14. 6.5 8. 10. Prop
{ (phiQ2)# } 10.825 7.60709 1 1 1 Label
14. 13.5 0 Vert
14. 6.5 0 Vert
8. 10. 0 Vert

(9) Diagram
% aebe/cfdg/ehfgfhgh.m
{ Cycles } 0 0. 0. 15. 4. 10. Prop
{ (G)# } 1.26965 12.0117 1 1 1 Label
{ Cycles } 0 0. 0. 5. 4. 10. Prop
{ (G)# } 2.73035 7.01172 -1 1 1 Label
{ ScalarDash } 0 0. 20 15. 16. 13.5 Prop
{ (H)# } 17.5435 14.9872 0 -1 1 Label
{ ScalarDash } 0 0. 20 5. 16. 6.5 Prop
{ (H)# } 17.5435 5.01277 0 1 1 Label
{ Cycles } 0 0. 4. 10. 10. 10. Prop
{ (G)# } 7. 11.77 0 -1 1 Label
{ Straight } -1 0. 16. 13.5 16. 6.5 Prop
{ (u)# (e)_ } 17.07 10. -1 0 1 Label
{ Straight } 1 0. 16. 13.5 10. 10. Prop
{ (u)# (f)_ } 12.699 12.6089 1 -1 1 Label
{ Straight } -1 0. 16. 6.5 10. 10. Prop
{ (u)# (f)_ } 12.699 7.39114 1 1 1 Label
4. 10. 0 Vert
16. 13.5 0 Vert
16. 6.5 0 Vert
10. 10. 0 Vert

grestore
showpage

%%Page: 2 2 
gsave
82 169 514 673 3 3 Layout

(10) Diagram
% aebe/cfdg/ehfgfhgh.m
{ Cycles } 0 0. 0. 15. 4. 10. Prop
{ (G)# } 1.26965 12.0117 1 1 1 Label
{ Cycles } 0 0. 0. 5. 4. 10. Prop
{ (G)# } 2.73035 7.01172 -1 1 1 Label
{ ScalarDash } 0 0. 20 15. 16. 13.5 Prop
{ (H)# } 17.5435 14.9872 0 -1 1 Label
{ ScalarDash } 0 0. 20 5. 16. 6.5 Prop
{ (H)# } 17.5435 5.01277 0 1 1 Label
{ Cycles } 0 0. 4. 10. 10. 10. Prop
{ (G)# } 7. 11.77 0 -1 1 Label
{ Straight } 1 0. 16. 13.5 16. 6.5 Prop
{ (u)# (e)_ } 17.07 10. -1 0 1 Label
{ Straight } -1 0. 16. 13.5 10. 10. Prop
{ (u)# (f)_ } 12.699 12.6089 1 -1 1 Label
{ Straight } 1 0. 16. 6.5 10. 10. Prop
{ (u)# (f)_ } 12.699 7.39114 1 1 1 Label
4. 10. 0 Vert
16. 13.5 0 Vert
16. 6.5 0 Vert
10. 10. 0 Vert

(11) Diagram
% aebe/cfdg/ehfgfhgh.m
{ Cycles } 0 0. 0. 15. 4. 10. Prop
{ (G)# } 1.26965 12.0117 1 1 1 Label
{ Cycles } 0 0. 0. 5. 4. 10. Prop
{ (G)# } 2.73035 7.01172 -1 1 1 Label
{ ScalarDash } 0 0. 20 15. 16. 13.5 Prop
{ (H)# } 17.5435 14.9872 0 -1 1 Label
{ ScalarDash } 0 0. 20 5. 16. 6.5 Prop
{ (H)# } 17.5435 5.01277 0 1 1 Label
{ Cycles } 0 0. 4. 10. 10. 10. Prop
{ (G)# } 7. 11.77 0 -1 1 Label
{ Straight } -1 0. 16. 13.5 16. 6.5 Prop
{ (d)# (e)_ } 17.07 10. -1 0 1 Label
{ Straight } 1 0. 16. 13.5 10. 10. Prop
{ (d)# (f)_ } 12.699 12.6089 1 -1 1 Label
{ Straight } -1 0. 16. 6.5 10. 10. Prop
{ (d)# (f)_ } 12.699 7.39114 1 1 1 Label
4. 10. 0 Vert
16. 13.5 0 Vert
16. 6.5 0 Vert
10. 10. 0 Vert

(12) Diagram
% aebe/cfdg/ehfgfhgh.m
{ Cycles } 0 0. 0. 15. 4. 10. Prop
{ (G)# } 1.26965 12.0117 1 1 1 Label
{ Cycles } 0 0. 0. 5. 4. 10. Prop
{ (G)# } 2.73035 7.01172 -1 1 1 Label
{ ScalarDash } 0 0. 20 15. 16. 13.5 Prop
{ (H)# } 17.5435 14.9872 0 -1 1 Label
{ ScalarDash } 0 0. 20 5. 16. 6.5 Prop
{ (H)# } 17.5435 5.01277 0 1 1 Label
{ Cycles } 0 0. 4. 10. 10. 10. Prop
{ (G)# } 7. 11.77 0 -1 1 Label
{ Straight } 1 0. 16. 13.5 16. 6.5 Prop
{ (d)# (e)_ } 17.07 10. -1 0 1 Label
{ Straight } -1 0. 16. 13.5 10. 10. Prop
{ (d)# (f)_ } 12.699 12.6089 1 -1 1 Label
{ Straight } 1 0. 16. 6.5 10. 10. Prop
{ (d)# (f)_ } 12.699 7.39114 1 1 1 Label
4. 10. 0 Vert
16. 13.5 0 Vert
16. 6.5 0 Vert
10. 10. 0 Vert

(13) Diagram
% aebe/cfdg/ehfgfhgh.m
{ Cycles } 0 0. 0. 15. 4. 10. Prop
{ (G)# } 1.26965 12.0117 1 1 1 Label
{ Cycles } 0 0. 0. 5. 4. 10. Prop
{ (G)# } 2.73035 7.01172 -1 1 1 Label
{ ScalarDash } 0 0. 20 15. 16. 13.5 Prop
{ (H)# } 17.5435 14.9872 0 -1 1 Label
{ ScalarDash } 0 0. 20 5. 16. 6.5 Prop
{ (H)# } 17.5435 5.01277 0 1 1 Label
{ Cycles } 0 0. 4. 10. 10. 10. Prop
{ (G)# } 7. 11.77 0 -1 1 Label
{ ScalarDash } 0 0. 16. 13.5 16. 6.5 Prop
{ (phiQ5)# } 16.82 10. -1 0 1 Label
{ ScalarDash } 0 0. 16. 13.5 10. 10. Prop
{ (phiQ5)# } 12.825 12.3929 1 -1 1 Label
{ ScalarDash } 0 0. 16. 6.5 10. 10. Prop
{ (phiQ5)# } 12.825 7.60709 1 1 1 Label
4. 10. 0 Vert
16. 13.5 0 Vert
16. 6.5 0 Vert
10. 10. 0 Vert

(14) Diagram
% aebe/cfdg/ehfgfhgh.m
{ Cycles } 0 0. 0. 15. 4. 10. Prop
{ (G)# } 1.26965 12.0117 1 1 1 Label
{ Cycles } 0 0. 0. 5. 4. 10. Prop
{ (G)# } 2.73035 7.01172 -1 1 1 Label
{ ScalarDash } 0 0. 20 15. 16. 13.5 Prop
{ (H)# } 17.5435 14.9872 0 -1 1 Label
{ ScalarDash } 0 0. 20 5. 16. 6.5 Prop
{ (H)# } 17.5435 5.01277 0 1 1 Label
{ Cycles } 0 0. 4. 10. 10. 10. Prop
{ (G)# } 7. 11.77 0 -1 1 Label
{ ScalarDash } 0 0. 16. 13.5 16. 6.5 Prop
{ (phiQ5)# } 16.82 10. -1 0 1 Label
{ ScalarDash } 0 0. 16. 13.5 10. 10. Prop
{ (phiQ5)# } 12.825 12.3929 1 -1 1 Label
{ ScalarDash } 0 0. 16. 6.5 10. 10. Prop
{ (phiQ5)# } 12.825 7.60709 1 1 1 Label
4. 10. 0 Vert
16. 13.5 0 Vert
16. 6.5 0 Vert
10. 10. 0 Vert

(15) Diagram
% aebe/cfdg/ehfgfhgh.m
{ Cycles } 0 0. 0. 15. 4. 10. Prop
{ (G)# } 1.26965 12.0117 1 1 1 Label
{ Cycles } 0 0. 0. 5. 4. 10. Prop
{ (G)# } 2.73035 7.01172 -1 1 1 Label
{ ScalarDash } 0 0. 20 15. 16. 13.5 Prop
{ (H)# } 17.5435 14.9872 0 -1 1 Label
{ ScalarDash } 0 0. 20 5. 16. 6.5 Prop
{ (H)# } 17.5435 5.01277 0 1 1 Label
{ Cycles } 0 0. 4. 10. 10. 10. Prop
{ (G)# } 7. 11.77 0 -1 1 Label
{ ScalarDash } 0 0. 16. 13.5 16. 6.5 Prop
{ (phiQ2)# } 16.82 10. -1 0 1 Label
{ ScalarDash } 0 0. 16. 13.5 10. 10. Prop
{ (phiQ2)# } 12.825 12.3929 1 -1 1 Label
{ ScalarDash } 0 0. 16. 6.5 10. 10. Prop
{ (phiQ2)# } 12.825 7.60709 1 1 1 Label
4. 10. 0 Vert
16. 13.5 0 Vert
16. 6.5 0 Vert
10. 10. 0 Vert

(16) Diagram
% aebe/cfdg/ehfgfhgh.m
{ Cycles } 0 0. 0. 15. 4. 10. Prop
{ (G)# } 1.26965 12.0117 1 1 1 Label
{ Cycles } 0 0. 0. 5. 4. 10. Prop
{ (G)# } 2.73035 7.01172 -1 1 1 Label
{ ScalarDash } 0 0. 20 15. 16. 13.5 Prop
{ (H)# } 17.5435 14.9872 0 -1 1 Label
{ ScalarDash } 0 0. 20 5. 16. 6.5 Prop
{ (H)# } 17.5435 5.01277 0 1 1 Label
{ Cycles } 0 0. 4. 10. 10. 10. Prop
{ (G)# } 7. 11.77 0 -1 1 Label
{ ScalarDash } 0 0. 16. 13.5 16. 6.5 Prop
{ (phiQ2)# } 16.82 10. -1 0 1 Label
{ ScalarDash } 0 0. 16. 13.5 10. 10. Prop
{ (phiQ2)# } 12.825 12.3929 1 -1 1 Label
{ ScalarDash } 0 0. 16. 6.5 10. 10. Prop
{ (phiQ2)# } 12.825 7.60709 1 1 1 Label
4. 10. 0 Vert
16. 13.5 0 Vert
16. 6.5 0 Vert
10. 10. 0 Vert

(17) Diagram
% aebf/cgdg/ghefehfh.m
{ Cycles } 0 0. 0. 15. 4. 13.5 Prop
{ (G)# } 2.79003 15.8767 0 -1 1 Label
{ Cycles } 0 0. 0. 5. 4. 6.5 Prop
{ (G)# } 2.54424 4.77869 0 1 1 Label
{ ScalarDash } 0 0. 20 15. 16. 10. Prop
{ (H)# } 17.4649 12.8321 1 -1 1 Label
{ ScalarDash } 0 0. 20 5. 16. 10. Prop
{ (H)# } 18.5351 7.8321 -1 -1 1 Label
{ ScalarDash } 0 0. 16. 10. 10. 10. Prop
{ (H)# } 13. 9.18 0 1 1 Label
{ Straight } -1 0. 4. 13.5 4. 6.5 Prop
{ (u)# (e)_ } 2.93 10. 1 0 1 Label
{ Straight } 1 0. 4. 13.5 10. 10. Prop
{ (u)# (e)_ } 7.301 12.6089 -1 -1 1 Label
{ Straight } -1 0. 4. 6.5 10. 10. Prop
{ (u)# (e)_ } 7.301 7.39114 -1 1 1 Label
4. 13.5 0 Vert
4. 6.5 0 Vert
16. 10. 0 Vert
10. 10. 0 Vert

(18) Diagram
% aebf/cgdg/ghefehfh.m
{ Cycles } 0 0. 0. 15. 4. 13.5 Prop
{ (G)# } 2.79003 15.8767 0 -1 1 Label
{ Cycles } 0 0. 0. 5. 4. 6.5 Prop
{ (G)# } 2.54424 4.77869 0 1 1 Label
{ ScalarDash } 0 0. 20 15. 16. 10. Prop
{ (H)# } 17.4649 12.8321 1 -1 1 Label
{ ScalarDash } 0 0. 20 5. 16. 10. Prop
{ (H)# } 18.5351 7.8321 -1 -1 1 Label
{ ScalarDash } 0 0. 16. 10. 10. 10. Prop
{ (H)# } 13. 9.18 0 1 1 Label
{ Straight } 1 0. 4. 13.5 4. 6.5 Prop
{ (u)# (e)_ } 2.93 10. 1 0 1 Label
{ Straight } -1 0. 4. 13.5 10. 10. Prop
{ (u)# (e)_ } 7.301 12.6089 -1 -1 1 Label
{ Straight } 1 0. 4. 6.5 10. 10. Prop
{ (u)# (e)_ } 7.301 7.39114 -1 1 1 Label
4. 13.5 0 Vert
4. 6.5 0 Vert
16. 10. 0 Vert
10. 10. 0 Vert

grestore
showpage

%%Page: 3 3 
gsave
82 169 514 673 3 3 Layout

(19) Diagram
% aebf/cgdg/ghefehfh.m
{ Cycles } 0 0. 0. 15. 4. 13.5 Prop
{ (G)# } 2.79003 15.8767 0 -1 1 Label
{ Cycles } 0 0. 0. 5. 4. 6.5 Prop
{ (G)# } 2.54424 4.77869 0 1 1 Label
{ ScalarDash } 0 0. 20 15. 16. 10. Prop
{ (H)# } 17.4649 12.8321 1 -1 1 Label
{ ScalarDash } 0 0. 20 5. 16. 10. Prop
{ (H)# } 18.5351 7.8321 -1 -1 1 Label
{ ScalarDash } 0 0. 16. 10. 10. 10. Prop
{ (H)# } 13. 9.18 0 1 1 Label
{ Straight } -1 0. 4. 13.5 4. 6.5 Prop
{ (d)# (e)_ } 2.93 10. 1 0 1 Label
{ Straight } 1 0. 4. 13.5 10. 10. Prop
{ (d)# (e)_ } 7.301 12.6089 -1 -1 1 Label
{ Straight } -1 0. 4. 6.5 10. 10. Prop
{ (d)# (e)_ } 7.301 7.39114 -1 1 1 Label
4. 13.5 0 Vert
4. 6.5 0 Vert
16. 10. 0 Vert
10. 10. 0 Vert

(20) Diagram
% aebf/cgdg/ghefehfh.m
{ Cycles } 0 0. 0. 15. 4. 13.5 Prop
{ (G)# } 2.79003 15.8767 0 -1 1 Label
{ Cycles } 0 0. 0. 5. 4. 6.5 Prop
{ (G)# } 2.54424 4.77869 0 1 1 Label
{ ScalarDash } 0 0. 20 15. 16. 10. Prop
{ (H)# } 17.4649 12.8321 1 -1 1 Label
{ ScalarDash } 0 0. 20 5. 16. 10. Prop
{ (H)# } 18.5351 7.8321 -1 -1 1 Label
{ ScalarDash } 0 0. 16. 10. 10. 10. Prop
{ (H)# } 13. 9.18 0 1 1 Label
{ Straight } 1 0. 4. 13.5 4. 6.5 Prop
{ (d)# (e)_ } 2.93 10. 1 0 1 Label
{ Straight } -1 0. 4. 13.5 10. 10. Prop
{ (d)# (e)_ } 7.301 12.6089 -1 -1 1 Label
{ Straight } 1 0. 4. 6.5 10. 10. Prop
{ (d)# (e)_ } 7.301 7.39114 -1 1 1 Label
4. 13.5 0 Vert
4. 6.5 0 Vert
16. 10. 0 Vert
10. 10. 0 Vert

(21) Diagram
% aebf/cgdg/ghefehfh.m
{ Cycles } 0 0. 0. 15. 4. 13.5 Prop
{ (G)# } 2.79003 15.8767 0 -1 1 Label
{ Cycles } 0 0. 0. 5. 4. 6.5 Prop
{ (G)# } 2.54424 4.77869 0 1 1 Label
{ ScalarDash } 0 0. 20 15. 16. 10. Prop
{ (H)# } 17.4649 12.8321 1 -1 1 Label
{ ScalarDash } 0 0. 20 5. 16. 10. Prop
{ (H)# } 18.5351 7.8321 -1 -1 1 Label
{ ScalarDash } 0 0. 16. 10. 10. 10. Prop
{ (H)# } 13. 9.18 0 1 1 Label
{ ScalarDash } 0 0. 4. 13.5 4. 6.5 Prop
{ (phiQ5)# } 3.18 10. 1 0 1 Label
{ ScalarDash } 0 0. 4. 13.5 10. 10. Prop
{ (phiQ5)# } 7.17503 12.3929 -1 -1 1 Label
{ ScalarDash } 0 0. 4. 6.5 10. 10. Prop
{ (phiQ5)# } 7.17503 7.60709 -1 1 1 Label
4. 13.5 0 Vert
4. 6.5 0 Vert
16. 10. 0 Vert
10. 10. 0 Vert

(22) Diagram
% aebf/cgdg/ghefehfh.m
{ Cycles } 0 0. 0. 15. 4. 13.5 Prop
{ (G)# } 2.79003 15.8767 0 -1 1 Label
{ Cycles } 0 0. 0. 5. 4. 6.5 Prop
{ (G)# } 2.54424 4.77869 0 1 1 Label
{ ScalarDash } 0 0. 20 15. 16. 10. Prop
{ (H)# } 17.4649 12.8321 1 -1 1 Label
{ ScalarDash } 0 0. 20 5. 16. 10. Prop
{ (H)# } 18.5351 7.8321 -1 -1 1 Label
{ ScalarDash } 0 0. 16. 10. 10. 10. Prop
{ (H)# } 13. 9.18 0 1 1 Label
{ ScalarDash } 0 0. 4. 13.5 4. 6.5 Prop
{ (phiQ5)# } 3.18 10. 1 0 1 Label
{ ScalarDash } 0 0. 4. 13.5 10. 10. Prop
{ (phiQ5)# } 7.17503 12.3929 -1 -1 1 Label
{ ScalarDash } 0 0. 4. 6.5 10. 10. Prop
{ (phiQ5)# } 7.17503 7.60709 -1 1 1 Label
4. 13.5 0 Vert
4. 6.5 0 Vert
16. 10. 0 Vert
10. 10. 0 Vert

(23) Diagram
% aebf/cgdg/ghefehfh.m
{ Cycles } 0 0. 0. 15. 4. 13.5 Prop
{ (G)# } 2.79003 15.8767 0 -1 1 Label
{ Cycles } 0 0. 0. 5. 4. 6.5 Prop
{ (G)# } 2.54424 4.77869 0 1 1 Label
{ ScalarDash } 0 0. 20 15. 16. 10. Prop
{ (H)# } 17.4649 12.8321 1 -1 1 Label
{ ScalarDash } 0 0. 20 5. 16. 10. Prop
{ (H)# } 18.5351 7.8321 -1 -1 1 Label
{ ScalarDash } 0 0. 16. 10. 10. 10. Prop
{ (H)# } 13. 9.18 0 1 1 Label
{ ScalarDash } 0 0. 4. 13.5 4. 6.5 Prop
{ (phiQ2)# } 3.18 10. 1 0 1 Label
{ ScalarDash } 0 0. 4. 13.5 10. 10. Prop
{ (phiQ2)# } 7.17503 12.3929 -1 -1 1 Label
{ ScalarDash } 0 0. 4. 6.5 10. 10. Prop
{ (phiQ2)# } 7.17503 7.60709 -1 1 1 Label
4. 13.5 0 Vert
4. 6.5 0 Vert
16. 10. 0 Vert
10. 10. 0 Vert

(24) Diagram
% aebf/cgdg/ghefehfh.m
{ Cycles } 0 0. 0. 15. 4. 13.5 Prop
{ (G)# } 2.79003 15.8767 0 -1 1 Label
{ Cycles } 0 0. 0. 5. 4. 6.5 Prop
{ (G)# } 2.54424 4.77869 0 1 1 Label
{ ScalarDash } 0 0. 20 15. 16. 10. Prop
{ (H)# } 17.4649 12.8321 1 -1 1 Label
{ ScalarDash } 0 0. 20 5. 16. 10. Prop
{ (H)# } 18.5351 7.8321 -1 -1 1 Label
{ ScalarDash } 0 0. 16. 10. 10. 10. Prop
{ (H)# } 13. 9.18 0 1 1 Label
{ ScalarDash } 0 0. 4. 13.5 4. 6.5 Prop
{ (phiQ2)# } 3.18 10. 1 0 1 Label
{ ScalarDash } 0 0. 4. 13.5 10. 10. Prop
{ (phiQ2)# } 7.17503 12.3929 -1 -1 1 Label
{ ScalarDash } 0 0. 4. 6.5 10. 10. Prop
{ (phiQ2)# } 7.17503 7.60709 -1 1 1 Label
4. 13.5 0 Vert
4. 6.5 0 Vert
16. 10. 0 Vert
10. 10. 0 Vert

(25) Diagram
% aebf/cgdh/efegfhgh.m
{ Cycles } 0 0. 0. 15. 6.5 13.5 Prop
{ (G)# } 3.75593 15.9624 0 -1 1 Label
{ Cycles } 0 0. 0. 5. 6.5 6.5 Prop
{ (G)# } 3.59853 4.71969 0 1 1 Label
{ ScalarDash } 0 0. 20 15. 13.5 13.5 Prop
{ (H)# } 16.4577 15.0367 0 -1 1 Label
{ ScalarDash } 0 0. 20 5. 13.5 6.5 Prop
{ (H)# } 16.4577 4.96329 0 1 1 Label
{ Straight } -1 0. 6.5 13.5 6.5 6.5 Prop
{ (u)# (e)_ } 5.43 10. 1 0 1 Label
{ Straight } 1 0. 6.5 13.5 13.5 13.5 Prop
{ (u)# (e)_ } 10. 14.57 0 -1 1 Label
{ Straight } -1 0. 6.5 6.5 13.5 6.5 Prop
{ (u)# (e)_ } 10. 5.43 0 1 1 Label
{ Straight } 1 0. 13.5 13.5 13.5 6.5 Prop
{ (u)# (f)_ } 14.57 10. -1 0 1 Label
6.5 13.5 0 Vert
6.5 6.5 0 Vert
13.5 13.5 0 Vert
13.5 6.5 0 Vert

(26) Diagram
% aebf/cgdh/efegfhgh.m
{ Cycles } 0 0. 0. 15. 6.5 13.5 Prop
{ (G)# } 3.75593 15.9624 0 -1 1 Label
{ Cycles } 0 0. 0. 5. 6.5 6.5 Prop
{ (G)# } 3.59853 4.71969 0 1 1 Label
{ ScalarDash } 0 0. 20 15. 13.5 13.5 Prop
{ (H)# } 16.4577 15.0367 0 -1 1 Label
{ ScalarDash } 0 0. 20 5. 13.5 6.5 Prop
{ (H)# } 16.4577 4.96329 0 1 1 Label
{ Straight } 1 0. 6.5 13.5 6.5 6.5 Prop
{ (u)# (e)_ } 5.43 10. 1 0 1 Label
{ Straight } -1 0. 6.5 13.5 13.5 13.5 Prop
{ (u)# (e)_ } 10. 14.57 0 -1 1 Label
{ Straight } 1 0. 6.5 6.5 13.5 6.5 Prop
{ (u)# (e)_ } 10. 5.43 0 1 1 Label
{ Straight } -1 0. 13.5 13.5 13.5 6.5 Prop
{ (u)# (f)_ } 14.57 10. -1 0 1 Label
6.5 13.5 0 Vert
6.5 6.5 0 Vert
13.5 13.5 0 Vert
13.5 6.5 0 Vert

(27) Diagram
% aebf/cgdh/efegfhgh.m
{ Cycles } 0 0. 0. 15. 6.5 13.5 Prop
{ (G)# } 3.75593 15.9624 0 -1 1 Label
{ Cycles } 0 0. 0. 5. 6.5 6.5 Prop
{ (G)# } 3.59853 4.71969 0 1 1 Label
{ ScalarDash } 0 0. 20 15. 13.5 13.5 Prop
{ (H)# } 16.4577 15.0367 0 -1 1 Label
{ ScalarDash } 0 0. 20 5. 13.5 6.5 Prop
{ (H)# } 16.4577 4.96329 0 1 1 Label
{ Straight } -1 0. 6.5 13.5 6.5 6.5 Prop
{ (d)# (e)_ } 5.43 10. 1 0 1 Label
{ Straight } 1 0. 6.5 13.5 13.5 13.5 Prop
{ (d)# (e)_ } 10. 14.57 0 -1 1 Label
{ Straight } -1 0. 6.5 6.5 13.5 6.5 Prop
{ (d)# (e)_ } 10. 5.43 0 1 1 Label
{ Straight } 1 0. 13.5 13.5 13.5 6.5 Prop
{ (d)# (f)_ } 14.57 10. -1 0 1 Label
6.5 13.5 0 Vert
6.5 6.5 0 Vert
13.5 13.5 0 Vert
13.5 6.5 0 Vert

grestore
showpage

%%Page: 4 4 
gsave
82 169 514 673 3 3 Layout

(28) Diagram
% aebf/cgdh/efegfhgh.m
{ Cycles } 0 0. 0. 15. 6.5 13.5 Prop
{ (G)# } 3.75593 15.9624 0 -1 1 Label
{ Cycles } 0 0. 0. 5. 6.5 6.5 Prop
{ (G)# } 3.59853 4.71969 0 1 1 Label
{ ScalarDash } 0 0. 20 15. 13.5 13.5 Prop
{ (H)# } 16.4577 15.0367 0 -1 1 Label
{ ScalarDash } 0 0. 20 5. 13.5 6.5 Prop
{ (H)# } 16.4577 4.96329 0 1 1 Label
{ Straight } 1 0. 6.5 13.5 6.5 6.5 Prop
{ (d)# (e)_ } 5.43 10. 1 0 1 Label
{ Straight } -1 0. 6.5 13.5 13.5 13.5 Prop
{ (d)# (e)_ } 10. 14.57 0 -1 1 Label
{ Straight } 1 0. 6.5 6.5 13.5 6.5 Prop
{ (d)# (e)_ } 10. 5.43 0 1 1 Label
{ Straight } -1 0. 13.5 13.5 13.5 6.5 Prop
{ (d)# (f)_ } 14.57 10. -1 0 1 Label
6.5 13.5 0 Vert
6.5 6.5 0 Vert
13.5 13.5 0 Vert
13.5 6.5 0 Vert

(29) Diagram
% aebf/cgdh/efegfhgh.m
{ Cycles } 0 0. 0. 15. 6.5 13.5 Prop
{ (G)# } 3.75593 15.9624 0 -1 1 Label
{ Cycles } 0 0. 0. 5. 6.5 6.5 Prop
{ (G)# } 3.59853 4.71969 0 1 1 Label
{ ScalarDash } 0 0. 20 15. 13.5 13.5 Prop
{ (H)# } 16.4577 15.0367 0 -1 1 Label
{ ScalarDash } 0 0. 20 5. 13.5 6.5 Prop
{ (H)# } 16.4577 4.96329 0 1 1 Label
{ ScalarDash } 0 0. 6.5 13.5 6.5 6.5 Prop
{ (phiQ5)# } 5.68 10. 1 0 1 Label
{ ScalarDash } 0 0. 6.5 13.5 13.5 13.5 Prop
{ (phiQ5)# } 10. 14.32 0 -1 1 Label
{ ScalarDash } 0 0. 6.5 6.5 13.5 6.5 Prop
{ (phiQ5)# } 10. 5.68 0 1 1 Label
{ ScalarDash } 0 0. 13.5 13.5 13.5 6.5 Prop
{ (phiQ5)# } 14.32 10. -1 0 1 Label
6.5 13.5 0 Vert
6.5 6.5 0 Vert
13.5 13.5 0 Vert
13.5 6.5 0 Vert

(30) Diagram
% aebf/cgdh/efegfhgh.m
{ Cycles } 0 0. 0. 15. 6.5 13.5 Prop
{ (G)# } 3.75593 15.9624 0 -1 1 Label
{ Cycles } 0 0. 0. 5. 6.5 6.5 Prop
{ (G)# } 3.59853 4.71969 0 1 1 Label
{ ScalarDash } 0 0. 20 15. 13.5 13.5 Prop
{ (H)# } 16.4577 15.0367 0 -1 1 Label
{ ScalarDash } 0 0. 20 5. 13.5 6.5 Prop
{ (H)# } 16.4577 4.96329 0 1 1 Label
{ ScalarDash } 0 0. 6.5 13.5 6.5 6.5 Prop
{ (phiQ5)# } 5.68 10. 1 0 1 Label
{ ScalarDash } 0 0. 6.5 13.5 13.5 13.5 Prop
{ (phiQ5)# } 10. 14.32 0 -1 1 Label
{ ScalarDash } 0 0. 6.5 6.5 13.5 6.5 Prop
{ (phiQ5)# } 10. 5.68 0 1 1 Label
{ ScalarDash } 0 0. 13.5 13.5 13.5 6.5 Prop
{ (phiQ5)# } 14.32 10. -1 0 1 Label
6.5 13.5 0 Vert
6.5 6.5 0 Vert
13.5 13.5 0 Vert
13.5 6.5 0 Vert

(31) Diagram
% aebf/cgdh/efegfhgh.m
{ Cycles } 0 0. 0. 15. 6.5 13.5 Prop
{ (G)# } 3.75593 15.9624 0 -1 1 Label
{ Cycles } 0 0. 0. 5. 6.5 6.5 Prop
{ (G)# } 3.59853 4.71969 0 1 1 Label
{ ScalarDash } 0 0. 20 15. 13.5 13.5 Prop
{ (H)# } 16.4577 15.0367 0 -1 1 Label
{ ScalarDash } 0 0. 20 5. 13.5 6.5 Prop
{ (H)# } 16.4577 4.96329 0 1 1 Label
{ ScalarDash } 0 0. 6.5 13.5 6.5 6.5 Prop
{ (phiQ2)# } 5.68 10. 1 0 1 Label
{ ScalarDash } 0 0. 6.5 13.5 13.5 13.5 Prop
{ (phiQ2)# } 10. 14.32 0 -1 1 Label
{ ScalarDash } 0 0. 6.5 6.5 13.5 6.5 Prop
{ (phiQ2)# } 10. 5.68 0 1 1 Label
{ ScalarDash } 0 0. 13.5 13.5 13.5 6.5 Prop
{ (phiQ2)# } 14.32 10. -1 0 1 Label
6.5 13.5 0 Vert
6.5 6.5 0 Vert
13.5 13.5 0 Vert
13.5 6.5 0 Vert

(32) Diagram
% aebf/cgdh/efegfhgh.m
{ Cycles } 0 0. 0. 15. 6.5 13.5 Prop
{ (G)# } 3.75593 15.9624 0 -1 1 Label
{ Cycles } 0 0. 0. 5. 6.5 6.5 Prop
{ (G)# } 3.59853 4.71969 0 1 1 Label
{ ScalarDash } 0 0. 20 15. 13.5 13.5 Prop
{ (H)# } 16.4577 15.0367 0 -1 1 Label
{ ScalarDash } 0 0. 20 5. 13.5 6.5 Prop
{ (H)# } 16.4577 4.96329 0 1 1 Label
{ ScalarDash } 0 0. 6.5 13.5 6.5 6.5 Prop
{ (phiQ2)# } 5.68 10. 1 0 1 Label
{ ScalarDash } 0 0. 6.5 13.5 13.5 13.5 Prop
{ (phiQ2)# } 10. 14.32 0 -1 1 Label
{ ScalarDash } 0 0. 6.5 6.5 13.5 6.5 Prop
{ (phiQ2)# } 10. 5.68 0 1 1 Label
{ ScalarDash } 0 0. 13.5 13.5 13.5 6.5 Prop
{ (phiQ2)# } 14.32 10. -1 0 1 Label
6.5 13.5 0 Vert
6.5 6.5 0 Vert
13.5 13.5 0 Vert
13.5 6.5 0 Vert

(33) Diagram
% aebf/cgdh/efehfggh.m
{ Cycles } 0 0. 0. 15. 6.5 13.5 Prop
{ (G)# } 3.75593 15.9624 0 -1 1 Label
{ Cycles } 0 0. 0. 5. 6.5 6.5 Prop
{ (G)# } 3.59853 4.71969 0 1 1 Label
{ ScalarDash } 0 0. 20 15. 13.5 6.5 Prop
{ (H)# } 18.1792 13.67 1 -1 1 Label
{ ScalarDash } 0 0. 20 5. 13.5 13.5 Prop
{ (H)# } 18.0298 6.57995 1 1 1 Label
{ Straight } -1 0. 6.5 13.5 6.5 6.5 Prop
{ (u)# (e)_ } 5.43 10. 1 0 1 Label
{ Straight } 1 0. 6.5 13.5 13.5 13.5 Prop
{ (u)# (e)_ } 10. 14.57 0 -1 1 Label
{ Straight } -1 0. 6.5 6.5 13.5 6.5 Prop
{ (u)# (e)_ } 10. 5.43 0 1 1 Label
{ Straight } -1 0. 13.5 6.5 13.5 13.5 Prop
{ (u)# (f)_ } 12.43 10. 1 0 1 Label
6.5 13.5 0 Vert
6.5 6.5 0 Vert
13.5 6.5 0 Vert
13.5 13.5 0 Vert

(34) Diagram
% aebf/cgdh/efehfggh.m
{ Cycles } 0 0. 0. 15. 6.5 13.5 Prop
{ (G)# } 3.75593 15.9624 0 -1 1 Label
{ Cycles } 0 0. 0. 5. 6.5 6.5 Prop
{ (G)# } 3.59853 4.71969 0 1 1 Label
{ ScalarDash } 0 0. 20 15. 13.5 6.5 Prop
{ (H)# } 18.1792 13.67 1 -1 1 Label
{ ScalarDash } 0 0. 20 5. 13.5 13.5 Prop
{ (H)# } 18.0298 6.57995 1 1 1 Label
{ Straight } 1 0. 6.5 13.5 6.5 6.5 Prop
{ (u)# (e)_ } 5.43 10. 1 0 1 Label
{ Straight } -1 0. 6.5 13.5 13.5 13.5 Prop
{ (u)# (e)_ } 10. 14.57 0 -1 1 Label
{ Straight } 1 0. 6.5 6.5 13.5 6.5 Prop
{ (u)# (e)_ } 10. 5.43 0 1 1 Label
{ Straight } 1 0. 13.5 6.5 13.5 13.5 Prop
{ (u)# (f)_ } 12.43 10. 1 0 1 Label
6.5 13.5 0 Vert
6.5 6.5 0 Vert
13.5 6.5 0 Vert
13.5 13.5 0 Vert

(35) Diagram
% aebf/cgdh/efehfggh.m
{ Cycles } 0 0. 0. 15. 6.5 13.5 Prop
{ (G)# } 3.75593 15.9624 0 -1 1 Label
{ Cycles } 0 0. 0. 5. 6.5 6.5 Prop
{ (G)# } 3.59853 4.71969 0 1 1 Label
{ ScalarDash } 0 0. 20 15. 13.5 6.5 Prop
{ (H)# } 18.1792 13.67 1 -1 1 Label
{ ScalarDash } 0 0. 20 5. 13.5 13.5 Prop
{ (H)# } 18.0298 6.57995 1 1 1 Label
{ Straight } -1 0. 6.5 13.5 6.5 6.5 Prop
{ (d)# (e)_ } 5.43 10. 1 0 1 Label
{ Straight } 1 0. 6.5 13.5 13.5 13.5 Prop
{ (d)# (e)_ } 10. 14.57 0 -1 1 Label
{ Straight } -1 0. 6.5 6.5 13.5 6.5 Prop
{ (d)# (e)_ } 10. 5.43 0 1 1 Label
{ Straight } -1 0. 13.5 6.5 13.5 13.5 Prop
{ (d)# (f)_ } 12.43 10. 1 0 1 Label
6.5 13.5 0 Vert
6.5 6.5 0 Vert
13.5 6.5 0 Vert
13.5 13.5 0 Vert

(36) Diagram
% aebf/cgdh/efehfggh.m
{ Cycles } 0 0. 0. 15. 6.5 13.5 Prop
{ (G)# } 3.75593 15.9624 0 -1 1 Label
{ Cycles } 0 0. 0. 5. 6.5 6.5 Prop
{ (G)# } 3.59853 4.71969 0 1 1 Label
{ ScalarDash } 0 0. 20 15. 13.5 6.5 Prop
{ (H)# } 18.1792 13.67 1 -1 1 Label
{ ScalarDash } 0 0. 20 5. 13.5 13.5 Prop
{ (H)# } 18.0298 6.57995 1 1 1 Label
{ Straight } 1 0. 6.5 13.5 6.5 6.5 Prop
{ (d)# (e)_ } 5.43 10. 1 0 1 Label
{ Straight } -1 0. 6.5 13.5 13.5 13.5 Prop
{ (d)# (e)_ } 10. 14.57 0 -1 1 Label
{ Straight } 1 0. 6.5 6.5 13.5 6.5 Prop
{ (d)# (e)_ } 10. 5.43 0 1 1 Label
{ Straight } 1 0. 13.5 6.5 13.5 13.5 Prop
{ (d)# (f)_ } 12.43 10. 1 0 1 Label
6.5 13.5 0 Vert
6.5 6.5 0 Vert
13.5 6.5 0 Vert
13.5 13.5 0 Vert

grestore
showpage

%%Page: 5 5 
gsave
82 169 514 673 3 3 Layout

(37) Diagram
% aebf/cgdh/efehfggh.m
{ Cycles } 0 0. 0. 15. 6.5 13.5 Prop
{ (G)# } 3.75593 15.9624 0 -1 1 Label
{ Cycles } 0 0. 0. 5. 6.5 6.5 Prop
{ (G)# } 3.59853 4.71969 0 1 1 Label
{ ScalarDash } 0 0. 20 15. 13.5 6.5 Prop
{ (H)# } 18.1792 13.67 1 -1 1 Label
{ ScalarDash } 0 0. 20 5. 13.5 13.5 Prop
{ (H)# } 18.0298 6.57995 1 1 1 Label
{ ScalarDash } 0 0. 6.5 13.5 6.5 6.5 Prop
{ (phiQ5)# } 5.68 10. 1 0 1 Label
{ ScalarDash } 0 0. 6.5 13.5 13.5 13.5 Prop
{ (phiQ5)# } 10. 14.32 0 -1 1 Label
{ ScalarDash } 0 0. 6.5 6.5 13.5 6.5 Prop
{ (phiQ5)# } 10. 5.68 0 1 1 Label
{ ScalarDash } 0 0. 13.5 6.5 13.5 13.5 Prop
{ (phiQ5)# } 12.68 10. 1 0 1 Label
6.5 13.5 0 Vert
6.5 6.5 0 Vert
13.5 6.5 0 Vert
13.5 13.5 0 Vert

(38) Diagram
% aebf/cgdh/efehfggh.m
{ Cycles } 0 0. 0. 15. 6.5 13.5 Prop
{ (G)# } 3.75593 15.9624 0 -1 1 Label
{ Cycles } 0 0. 0. 5. 6.5 6.5 Prop
{ (G)# } 3.59853 4.71969 0 1 1 Label
{ ScalarDash } 0 0. 20 15. 13.5 6.5 Prop
{ (H)# } 18.1792 13.67 1 -1 1 Label
{ ScalarDash } 0 0. 20 5. 13.5 13.5 Prop
{ (H)# } 18.0298 6.57995 1 1 1 Label
{ ScalarDash } 0 0. 6.5 13.5 6.5 6.5 Prop
{ (phiQ5)# } 5.68 10. 1 0 1 Label
{ ScalarDash } 0 0. 6.5 13.5 13.5 13.5 Prop
{ (phiQ5)# } 10. 14.32 0 -1 1 Label
{ ScalarDash } 0 0. 6.5 6.5 13.5 6.5 Prop
{ (phiQ5)# } 10. 5.68 0 1 1 Label
{ ScalarDash } 0 0. 13.5 6.5 13.5 13.5 Prop
{ (phiQ5)# } 12.68 10. 1 0 1 Label
6.5 13.5 0 Vert
6.5 6.5 0 Vert
13.5 6.5 0 Vert
13.5 13.5 0 Vert

(39) Diagram
% aebf/cgdh/efehfggh.m
{ Cycles } 0 0. 0. 15. 6.5 13.5 Prop
{ (G)# } 3.75593 15.9624 0 -1 1 Label
{ Cycles } 0 0. 0. 5. 6.5 6.5 Prop
{ (G)# } 3.59853 4.71969 0 1 1 Label
{ ScalarDash } 0 0. 20 15. 13.5 6.5 Prop
{ (H)# } 18.1792 13.67 1 -1 1 Label
{ ScalarDash } 0 0. 20 5. 13.5 13.5 Prop
{ (H)# } 18.0298 6.57995 1 1 1 Label
{ ScalarDash } 0 0. 6.5 13.5 6.5 6.5 Prop
{ (phiQ2)# } 5.68 10. 1 0 1 Label
{ ScalarDash } 0 0. 6.5 13.5 13.5 13.5 Prop
{ (phiQ2)# } 10. 14.32 0 -1 1 Label
{ ScalarDash } 0 0. 6.5 6.5 13.5 6.5 Prop
{ (phiQ2)# } 10. 5.68 0 1 1 Label
{ ScalarDash } 0 0. 13.5 6.5 13.5 13.5 Prop
{ (phiQ2)# } 12.68 10. 1 0 1 Label
6.5 13.5 0 Vert
6.5 6.5 0 Vert
13.5 6.5 0 Vert
13.5 13.5 0 Vert

(40) Diagram
% aebf/cgdh/efehfggh.m
{ Cycles } 0 0. 0. 15. 6.5 13.5 Prop
{ (G)# } 3.75593 15.9624 0 -1 1 Label
{ Cycles } 0 0. 0. 5. 6.5 6.5 Prop
{ (G)# } 3.59853 4.71969 0 1 1 Label
{ ScalarDash } 0 0. 20 15. 13.5 6.5 Prop
{ (H)# } 18.1792 13.67 1 -1 1 Label
{ ScalarDash } 0 0. 20 5. 13.5 13.5 Prop
{ (H)# } 18.0298 6.57995 1 1 1 Label
{ ScalarDash } 0 0. 6.5 13.5 6.5 6.5 Prop
{ (phiQ2)# } 5.68 10. 1 0 1 Label
{ ScalarDash } 0 0. 6.5 13.5 13.5 13.5 Prop
{ (phiQ2)# } 10. 14.32 0 -1 1 Label
{ ScalarDash } 0 0. 6.5 6.5 13.5 6.5 Prop
{ (phiQ2)# } 10. 5.68 0 1 1 Label
{ ScalarDash } 0 0. 13.5 6.5 13.5 13.5 Prop
{ (phiQ2)# } 12.68 10. 1 0 1 Label
6.5 13.5 0 Vert
6.5 6.5 0 Vert
13.5 6.5 0 Vert
13.5 13.5 0 Vert

(41) Diagram
% aebf/cgdh/egehfgfh.m
{ Cycles } 0 0. 0. 15. 13.5 13. Prop
{ (G)# } 3.51237 16.2198 0 -1 1 Label
{ Cycles } 0 0. 0. 5. 6.5 6. Prop
{ (G)# } 3.48569 4.44802 0 1 1 Label
{ ScalarDash } 0 0. 20 15. 6.5 13. Prop
{ (H)# } 16.6265 15.2808 0 -1 1 Label
{ ScalarDash } 0 0. 20 5. 13.5 6. Prop
{ (H)# } 16.5523 4.69512 0 1 1 Label
{ Straight } -1 0. 13.5 13. 6.5 13. Prop
{ (u)# (e)_ } 10. 11.93 0 1 1 Label
{ Straight } 1 0. 13.5 13. 13.5 6. Prop
{ (u)# (e)_ } 14.57 9.5 -1 0 1 Label
{ Straight } 1 0. 6.5 6. 6.5 13. Prop
{ (u)# (f)_ } 5.43 9.5 1 0 1 Label
{ Straight } -1 0. 6.5 6. 13.5 6. Prop
{ (u)# (f)_ } 10. 4.93 0 1 1 Label
13.5 13. 0 Vert
6.5 6. 0 Vert
6.5 13. 0 Vert
13.5 6. 0 Vert

(42) Diagram
% aebf/cgdh/egehfgfh.m
{ Cycles } 0 0. 0. 15. 13.5 13. Prop
{ (G)# } 3.51237 16.2198 0 -1 1 Label
{ Cycles } 0 0. 0. 5. 6.5 6. Prop
{ (G)# } 3.48569 4.44802 0 1 1 Label
{ ScalarDash } 0 0. 20 15. 6.5 13. Prop
{ (H)# } 16.6265 15.2808 0 -1 1 Label
{ ScalarDash } 0 0. 20 5. 13.5 6. Prop
{ (H)# } 16.5523 4.69512 0 1 1 Label
{ Straight } 1 0. 13.5 13. 6.5 13. Prop
{ (u)# (e)_ } 10. 11.93 0 1 1 Label
{ Straight } -1 0. 13.5 13. 13.5 6. Prop
{ (u)# (e)_ } 14.57 9.5 -1 0 1 Label
{ Straight } -1 0. 6.5 6. 6.5 13. Prop
{ (u)# (f)_ } 5.43 9.5 1 0 1 Label
{ Straight } 1 0. 6.5 6. 13.5 6. Prop
{ (u)# (f)_ } 10. 4.93 0 1 1 Label
13.5 13. 0 Vert
6.5 6. 0 Vert
6.5 13. 0 Vert
13.5 6. 0 Vert

(43) Diagram
% aebf/cgdh/egehfgfh.m
{ Cycles } 0 0. 0. 15. 13.5 13. Prop
{ (G)# } 3.51237 16.2198 0 -1 1 Label
{ Cycles } 0 0. 0. 5. 6.5 6. Prop
{ (G)# } 3.48569 4.44802 0 1 1 Label
{ ScalarDash } 0 0. 20 15. 6.5 13. Prop
{ (H)# } 16.6265 15.2808 0 -1 1 Label
{ ScalarDash } 0 0. 20 5. 13.5 6. Prop
{ (H)# } 16.5523 4.69512 0 1 1 Label
{ Straight } -1 0. 13.5 13. 6.5 13. Prop
{ (d)# (e)_ } 10. 11.93 0 1 1 Label
{ Straight } 1 0. 13.5 13. 13.5 6. Prop
{ (d)# (e)_ } 14.57 9.5 -1 0 1 Label
{ Straight } 1 0. 6.5 6. 6.5 13. Prop
{ (d)# (f)_ } 5.43 9.5 1 0 1 Label
{ Straight } -1 0. 6.5 6. 13.5 6. Prop
{ (d)# (f)_ } 10. 4.93 0 1 1 Label
13.5 13. 0 Vert
6.5 6. 0 Vert
6.5 13. 0 Vert
13.5 6. 0 Vert

(44) Diagram
% aebf/cgdh/egehfgfh.m
{ Cycles } 0 0. 0. 15. 13.5 13. Prop
{ (G)# } 3.51237 16.2198 0 -1 1 Label
{ Cycles } 0 0. 0. 5. 6.5 6. Prop
{ (G)# } 3.48569 4.44802 0 1 1 Label
{ ScalarDash } 0 0. 20 15. 6.5 13. Prop
{ (H)# } 16.6265 15.2808 0 -1 1 Label
{ ScalarDash } 0 0. 20 5. 13.5 6. Prop
{ (H)# } 16.5523 4.69512 0 1 1 Label
{ Straight } 1 0. 13.5 13. 6.5 13. Prop
{ (d)# (e)_ } 10. 11.93 0 1 1 Label
{ Straight } -1 0. 13.5 13. 13.5 6. Prop
{ (d)# (e)_ } 14.57 9.5 -1 0 1 Label
{ Straight } -1 0. 6.5 6. 6.5 13. Prop
{ (d)# (f)_ } 5.43 9.5 1 0 1 Label
{ Straight } 1 0. 6.5 6. 13.5 6. Prop
{ (d)# (f)_ } 10. 4.93 0 1 1 Label
13.5 13. 0 Vert
6.5 6. 0 Vert
6.5 13. 0 Vert
13.5 6. 0 Vert

(45) Diagram
% aebf/cgdh/egehfgfh.m
{ Cycles } 0 0. 0. 15. 13.5 13. Prop
{ (G)# } 3.51237 16.2198 0 -1 1 Label
{ Cycles } 0 0. 0. 5. 6.5 6. Prop
{ (G)# } 3.48569 4.44802 0 1 1 Label
{ ScalarDash } 0 0. 20 15. 6.5 13. Prop
{ (H)# } 16.6265 15.2808 0 -1 1 Label
{ ScalarDash } 0 0. 20 5. 13.5 6. Prop
{ (H)# } 16.5523 4.69512 0 1 1 Label
{ ScalarDash } 0 0. 13.5 13. 6.5 13. Prop
{ (phiQ5)# } 10. 12.18 0 1 1 Label
{ ScalarDash } 0 0. 13.5 13. 13.5 6. Prop
{ (phiQ5)# } 14.32 9.5 -1 0 1 Label
{ ScalarDash } 0 0. 6.5 6. 6.5 13. Prop
{ (phiQ5)# } 5.68 9.5 1 0 1 Label
{ ScalarDash } 0 0. 6.5 6. 13.5 6. Prop
{ (phiQ5)# } 10. 5.18 0 1 1 Label
13.5 13. 0 Vert
6.5 6. 0 Vert
6.5 13. 0 Vert
13.5 6. 0 Vert

grestore
showpage

%%Page: 6 6 
gsave
82 169 514 673 3 3 Layout

(46) Diagram
% aebf/cgdh/egehfgfh.m
{ Cycles } 0 0. 0. 15. 13.5 13. Prop
{ (G)# } 3.51237 16.2198 0 -1 1 Label
{ Cycles } 0 0. 0. 5. 6.5 6. Prop
{ (G)# } 3.48569 4.44802 0 1 1 Label
{ ScalarDash } 0 0. 20 15. 6.5 13. Prop
{ (H)# } 16.6265 15.2808 0 -1 1 Label
{ ScalarDash } 0 0. 20 5. 13.5 6. Prop
{ (H)# } 16.5523 4.69512 0 1 1 Label
{ ScalarDash } 0 0. 13.5 13. 6.5 13. Prop
{ (phiQ5)# } 10. 12.18 0 1 1 Label
{ ScalarDash } 0 0. 13.5 13. 13.5 6. Prop
{ (phiQ5)# } 14.32 9.5 -1 0 1 Label
{ ScalarDash } 0 0. 6.5 6. 6.5 13. Prop
{ (phiQ5)# } 5.68 9.5 1 0 1 Label
{ ScalarDash } 0 0. 6.5 6. 13.5 6. Prop
{ (phiQ5)# } 10. 5.18 0 1 1 Label
13.5 13. 0 Vert
6.5 6. 0 Vert
6.5 13. 0 Vert
13.5 6. 0 Vert

(47) Diagram
% aebf/cgdh/egehfgfh.m
{ Cycles } 0 0. 0. 15. 13.5 13. Prop
{ (G)# } 3.51237 16.2198 0 -1 1 Label
{ Cycles } 0 0. 0. 5. 6.5 6. Prop
{ (G)# } 3.48569 4.44802 0 1 1 Label
{ ScalarDash } 0 0. 20 15. 6.5 13. Prop
{ (H)# } 16.6265 15.2808 0 -1 1 Label
{ ScalarDash } 0 0. 20 5. 13.5 6. Prop
{ (H)# } 16.5523 4.69512 0 1 1 Label
{ ScalarDash } 0 0. 13.5 13. 6.5 13. Prop
{ (phiQ2)# } 10. 12.18 0 1 1 Label
{ ScalarDash } 0 0. 13.5 13. 13.5 6. Prop
{ (phiQ2)# } 14.32 9.5 -1 0 1 Label
{ ScalarDash } 0 0. 6.5 6. 6.5 13. Prop
{ (phiQ2)# } 5.68 9.5 1 0 1 Label
{ ScalarDash } 0 0. 6.5 6. 13.5 6. Prop
{ (phiQ2)# } 10. 5.18 0 1 1 Label
13.5 13. 0 Vert
6.5 6. 0 Vert
6.5 13. 0 Vert
13.5 6. 0 Vert

(48) Diagram
% aebf/cgdh/egehfgfh.m
{ Cycles } 0 0. 0. 15. 13.5 13. Prop
{ (G)# } 3.51237 16.2198 0 -1 1 Label
{ Cycles } 0 0. 0. 5. 6.5 6. Prop
{ (G)# } 3.48569 4.44802 0 1 1 Label
{ ScalarDash } 0 0. 20 15. 6.5 13. Prop
{ (H)# } 16.6265 15.2808 0 -1 1 Label
{ ScalarDash } 0 0. 20 5. 13.5 6. Prop
{ (H)# } 16.5523 4.69512 0 1 1 Label
{ ScalarDash } 0 0. 13.5 13. 6.5 13. Prop
{ (phiQ2)# } 10. 12.18 0 1 1 Label
{ ScalarDash } 0 0. 13.5 13. 13.5 6. Prop
{ (phiQ2)# } 14.32 9.5 -1 0 1 Label
{ ScalarDash } 0 0. 6.5 6. 6.5 13. Prop
{ (phiQ2)# } 5.68 9.5 1 0 1 Label
{ ScalarDash } 0 0. 6.5 6. 13.5 6. Prop
{ (phiQ2)# } 10. 5.18 0 1 1 Label
13.5 13. 0 Vert
6.5 6. 0 Vert
6.5 13. 0 Vert
13.5 6. 0 Vert

(49) Diagram
% aebe/cfdf/efef.m
{ Cycles } 0 0. 0. 15. 6. 10. Prop
{ (G)# } 2.48771 11.7893 1 1 1 Label
{ Cycles } 0 0. 0. 5. 6. 10. Prop
{ (G)# } 3.51229 6.78926 -1 1 1 Label
{ ScalarDash } 0 0. 20 15. 14. 10. Prop
{ (H)# } 16.6478 13.0187 1 -1 1 Label
{ ScalarDash } 0 0. 20 5. 14. 10. Prop
{ (H)# } 17.3522 8.01869 -1 -1 1 Label
{ ScalarDash } 0 0.8 6. 10. 14. 10. Prop
{ (phiQ5)# } 10. 5.98 0 1 1 Label
{ ScalarDash } 0 -0.8 6. 10. 14. 10. Prop
{ (phiQ5)# } 10. 14.02 0 -1 1 Label
6. 10. 0 Vert
14. 10. 0 Vert

(50) Diagram
% aebe/cfdf/efef.m
{ Cycles } 0 0. 0. 15. 6. 10. Prop
{ (G)# } 2.48771 11.7893 1 1 1 Label
{ Cycles } 0 0. 0. 5. 6. 10. Prop
{ (G)# } 3.51229 6.78926 -1 1 1 Label
{ ScalarDash } 0 0. 20 15. 14. 10. Prop
{ (H)# } 16.6478 13.0187 1 -1 1 Label
{ ScalarDash } 0 0. 20 5. 14. 10. Prop
{ (H)# } 17.3522 8.01869 -1 -1 1 Label
{ ScalarDash } 0 0.8 6. 10. 14. 10. Prop
{ (phiQ2)# } 10. 5.98 0 1 1 Label
{ ScalarDash } 0 -0.8 6. 10. 14. 10. Prop
{ (phiQ2)# } 10. 14.02 0 -1 1 Label
6. 10. 0 Vert
14. 10. 0 Vert

(51) Diagram
% aebe/cfdf/eggfgf.m
{ Cycles } 0 0. 0. 15. 4. 10. Prop
{ (G)# } 1.26965 12.0117 1 1 1 Label
{ Cycles } 0 0. 0. 5. 4. 10. Prop
{ (G)# } 2.73035 7.01172 -1 1 1 Label
{ ScalarDash } 0 0. 20 15. 15.5 10. Prop
{ (H)# } 18.2363 12.1103 -1 1 1 Label
{ ScalarDash } 0 0. 20 5. 15.5 10. Prop
{ (H)# } 18.2363 7.88965 -1 -1 1 Label
{ Cycles } 0 0. 4. 10. 10. 10. Prop
{ (G)# } 7. 11.77 0 -1 1 Label
{ ScalarDash } 0 0.8 10. 10. 15.5 10. Prop
{ (phiQ5)# } 12.75 6.98 0 1 1 Label
{ ScalarDash } 0 -0.8 10. 10. 15.5 10. Prop
{ (phiQ5)# } 12.75 13.02 0 -1 1 Label
4. 10. 0 Vert
10. 10. 0 Vert
15.5 10. 0 Vert

(52) Diagram
% aebe/cfdf/eggfgf.m
{ Cycles } 0 0. 0. 15. 4. 10. Prop
{ (G)# } 1.26965 12.0117 1 1 1 Label
{ Cycles } 0 0. 0. 5. 4. 10. Prop
{ (G)# } 2.73035 7.01172 -1 1 1 Label
{ ScalarDash } 0 0. 20 15. 15.5 10. Prop
{ (H)# } 18.2363 12.1103 -1 1 1 Label
{ ScalarDash } 0 0. 20 5. 15.5 10. Prop
{ (H)# } 18.2363 7.88965 -1 -1 1 Label
{ Cycles } 0 0. 4. 10. 10. 10. Prop
{ (G)# } 7. 11.77 0 -1 1 Label
{ ScalarDash } 0 0.8 10. 10. 15.5 10. Prop
{ (phiQ2)# } 12.75 6.98 0 1 1 Label
{ ScalarDash } 0 -0.8 10. 10. 15.5 10. Prop
{ (phiQ2)# } 12.75 13.02 0 -1 1 Label
4. 10. 0 Vert
10. 10. 0 Vert
15.5 10. 0 Vert

(53) Diagram
% aebe/cfdf/fggege.m
{ Cycles } 0 0. 0. 15. 4. 10. Prop
{ (G)# } 2.35957 14.6211 -1 -1 1 Label
{ Cycles } 0 0. 0. 5. 4. 10. Prop
{ (G)# } 0.723045 8.42556 1 -1 1 Label
{ ScalarDash } 0 0. 20 15. 16.5 10. Prop
{ (H)# } 17.665 12.7655 1 -1 1 Label
{ ScalarDash } 0 0. 20 5. 16.5 10. Prop
{ (H)# } 18.835 7.7655 -1 -1 1 Label
{ ScalarDash } 0 0. 16.5 10. 9.5 10. Prop
{ (H)# } 13. 9.18 0 1 1 Label
{ ScalarDash } 0 0.8 9.5 10. 4. 10. Prop
{ (phiQ5)# } 6.75 13.02 0 -1 1 Label
{ ScalarDash } 0 -0.8 9.5 10. 4. 10. Prop
{ (phiQ5)# } 6.75 6.98 0 1 1 Label
16.5 10. 0 Vert
9.5 10. 0 Vert
4. 10. 0 Vert

(54) Diagram
% aebe/cfdf/fggege.m
{ Cycles } 0 0. 0. 15. 4. 10. Prop
{ (G)# } 2.35957 14.6211 -1 -1 1 Label
{ Cycles } 0 0. 0. 5. 4. 10. Prop
{ (G)# } 0.723045 8.42556 1 -1 1 Label
{ ScalarDash } 0 0. 20 15. 16.5 10. Prop
{ (H)# } 17.665 12.7655 1 -1 1 Label
{ ScalarDash } 0 0. 20 5. 16.5 10. Prop
{ (H)# } 18.835 7.7655 -1 -1 1 Label
{ ScalarDash } 0 0. 16.5 10. 9.5 10. Prop
{ (H)# } 13. 9.18 0 1 1 Label
{ ScalarDash } 0 0.8 9.5 10. 4. 10. Prop
{ (phiQ2)# } 6.75 13.02 0 -1 1 Label
{ ScalarDash } 0 -0.8 9.5 10. 4. 10. Prop
{ (phiQ2)# } 6.75 6.98 0 1 1 Label
16.5 10. 0 Vert
9.5 10. 0 Vert
4. 10. 0 Vert

grestore
showpage

%%Page: 7 7 
gsave
82 169 514 673 3 3 Layout

(55) Diagram
% aebe/cfdf/egfhghgh.m
{ Cycles } 0 0. 0. 15. 3. 10. Prop
{ (G)# } 0.650886 12.1825 1 1 1 Label
{ Cycles } 0 0. 0. 5. 3. 10. Prop
{ (G)# } 2.34911 7.18253 -1 1 1 Label
{ ScalarDash } 0 0. 20 15. 17. 10. Prop
{ (H)# } 17.8653 12.6888 1 -1 1 Label
{ ScalarDash } 0 0. 20 5. 17. 10. Prop
{ (H)# } 19.1347 7.68884 -1 -1 1 Label
{ Cycles } 0 0. 3. 10. 7. 10. Prop
{ (G)# } 5. 11.77 0 -1 1 Label
{ ScalarDash } 0 0. 17. 10. 13. 10. Prop
{ (H)# } 15. 9.18 0 1 1 Label
{ Straight } -1 0.8 7. 10. 13. 10. Prop
{ (u)# (e)_ } 10. 6.53 0 1 1 Label
{ Straight } 1 -0.8 7. 10. 13. 10. Prop
{ (u)# (e)_ } 10. 13.47 0 -1 1 Label
3. 10. 0 Vert
17. 10. 0 Vert
7. 10. 0 Vert
13. 10. 0 Vert

(56) Diagram
% aebe/cfdf/egfhghgh.m
{ Cycles } 0 0. 0. 15. 3. 10. Prop
{ (G)# } 0.650886 12.1825 1 1 1 Label
{ Cycles } 0 0. 0. 5. 3. 10. Prop
{ (G)# } 2.34911 7.18253 -1 1 1 Label
{ ScalarDash } 0 0. 20 15. 17. 10. Prop
{ (H)# } 17.8653 12.6888 1 -1 1 Label
{ ScalarDash } 0 0. 20 5. 17. 10. Prop
{ (H)# } 19.1347 7.68884 -1 -1 1 Label
{ Cycles } 0 0. 3. 10. 7. 10. Prop
{ (G)# } 5. 11.77 0 -1 1 Label
{ ScalarDash } 0 0. 17. 10. 13. 10. Prop
{ (H)# } 15. 9.18 0 1 1 Label
{ Straight } -1 0.8 7. 10. 13. 10. Prop
{ (d)# (e)_ } 10. 6.53 0 1 1 Label
{ Straight } 1 -0.8 7. 10. 13. 10. Prop
{ (d)# (e)_ } 10. 13.47 0 -1 1 Label
3. 10. 0 Vert
17. 10. 0 Vert
7. 10. 0 Vert
13. 10. 0 Vert

(57) Diagram
% aebe/cfdf/egfhghgh.m
{ Cycles } 0 0. 0. 15. 3. 10. Prop
{ (G)# } 0.650886 12.1825 1 1 1 Label
{ Cycles } 0 0. 0. 5. 3. 10. Prop
{ (G)# } 2.34911 7.18253 -1 1 1 Label
{ ScalarDash } 0 0. 20 15. 17. 10. Prop
{ (H)# } 17.8653 12.6888 1 -1 1 Label
{ ScalarDash } 0 0. 20 5. 17. 10. Prop
{ (H)# } 19.1347 7.68884 -1 -1 1 Label
{ Cycles } 0 0. 3. 10. 7. 10. Prop
{ (G)# } 5. 11.77 0 -1 1 Label
{ ScalarDash } 0 0. 17. 10. 13. 10. Prop
{ (H)# } 15. 9.18 0 1 1 Label
{ ScalarDash } 0 0.8 7. 10. 13. 10. Prop
{ (phiQ5)# } 10. 6.78 0 1 1 Label
{ ScalarDash } 0 -0.8 7. 10. 13. 10. Prop
{ (phiQ5)# } 10. 13.22 0 -1 1 Label
3. 10. 0 Vert
17. 10. 0 Vert
7. 10. 0 Vert
13. 10. 0 Vert

(58) Diagram
% aebe/cfdf/egfhghgh.m
{ Cycles } 0 0. 0. 15. 3. 10. Prop
{ (G)# } 0.650886 12.1825 1 1 1 Label
{ Cycles } 0 0. 0. 5. 3. 10. Prop
{ (G)# } 2.34911 7.18253 -1 1 1 Label
{ ScalarDash } 0 0. 20 15. 17. 10. Prop
{ (H)# } 17.8653 12.6888 1 -1 1 Label
{ ScalarDash } 0 0. 20 5. 17. 10. Prop
{ (H)# } 19.1347 7.68884 -1 -1 1 Label
{ Cycles } 0 0. 3. 10. 7. 10. Prop
{ (G)# } 5. 11.77 0 -1 1 Label
{ ScalarDash } 0 0. 17. 10. 13. 10. Prop
{ (H)# } 15. 9.18 0 1 1 Label
{ ScalarDash } 0 0.8 7. 10. 13. 10. Prop
{ (phiQ2)# } 10. 6.78 0 1 1 Label
{ ScalarDash } 0 -0.8 7. 10. 13. 10. Prop
{ (phiQ2)# } 10. 13.22 0 -1 1 Label
3. 10. 0 Vert
17. 10. 0 Vert
7. 10. 0 Vert
13. 10. 0 Vert

() Diagram

() Diagram

() Diagram

() Diagram

() Diagram

grestore
showpage

%%Trailer
end
%%EOF
