(* * * * * * * * * * * * * * * * * * * * * * * * * * * * * * * * * * * * * * * * *)
(*                                                                             *)
(*         This file has been automatically generated by FeynRules.            *)
(*                                                                             *)
(* * * * * * * * * * * * * * * * * * * * * * * * * * * * * * * * * * * * * * * * *)


FR$ModelInformation={
  ModelName->"bdm3_lamhs",
  Authors -> {"N. Christensen", "C. Duhr", "B. Fuks"},
  Version -> "1.4.6",
  Date -> "15. 04. 2014",
  Institutions -> {"Michigan State University", "Universite catholique de Louvain (CP3)", "IPHC Strasbourg / University of Strasbourg"},
  Emails -> {"neil@pa.msu.edu", "claude.duhr@uclouvain.be", "benjamin.fuks@cnrs.in2p3.fr"},
  URLs -> "http://feynrules.phys.ucl.ac.be/view/Main/StandardModel"};

FR$ClassesTranslation={A -> V[1], Z -> V[2], W -> V[3], G -> V[4], ghA -> U[1], ghZ -> U[2], ghWp -> U[3], ghWm -> U[4], ghG -> U[5], ve -> F[1], vm -> F[2], vt -> F[3], e -> F[4], mu -> F[5], ta -> F[6], u -> F[7], c -> F[8], t -> F[9], d -> F[10], s -> F[11], b -> F[12], H -> S[1], G0 -> S[2], GP -> S[3], chiM -> F[13], S0 -> S[4], A0 -> S[5], phiLp -> S[6], phiQ5 -> S[7], phiQ2 -> S[8]};

FR$InteractionOrderPerturbativeExpansion={{QCD, 0}, {QED, 0}, {NP, 0}};

FR$GoldstoneList={S[2], S[3]};

(*     Declared indices    *)

IndexRange[ Index[Gluon] ] = NoUnfold[ Range[ 8 ] ]

IndexRange[ Index[SU2W] ] = Range[ 3 ]

IndexRange[ Index[Generation] ] = Range[ 3 ]

IndexRange[ Index[Colour] ] = NoUnfold[ Range[ 3 ] ]

IndexRange[ Index[SU2D] ] = Range[ 2 ]

(*     Declared particles    *)

M$ClassesDescription = {
V[1] == {
    SelfConjugate -> True,
    PropagatorType -> Sine,
    PropagatorArrow -> None,
    Mass -> 0,
    Indices -> {},
    PropagatorLabel -> "A" },

V[2] == {
    SelfConjugate -> True,
    PropagatorType -> Sine,
    PropagatorArrow -> None,
    Mass -> MZ,
    Indices -> {},
    PropagatorLabel -> "Z" },

V[3] == {
    SelfConjugate -> False,
    QuantumNumbers -> {Q},
    PropagatorType -> Sine,
    PropagatorArrow -> Forward,
    Mass -> MW,
    Indices -> {},
    PropagatorLabel -> "W" },

V[4] == {
    SelfConjugate -> True,
    PropagatorType -> Cycles,
    PropagatorArrow -> None,
    Mass -> 0,
    Indices -> {Index[Gluon]},
    PropagatorLabel -> "G" },

U[1] == {
    SelfConjugate -> False,
    QuantumNumbers -> {GhostNumber},
    PropagatorType -> GhostDash,
    PropagatorArrow -> Forward,
    Mass -> 0,
    Indices -> {},
    PropagatorLabel -> "ghA" },

U[2] == {
    SelfConjugate -> False,
    QuantumNumbers -> {GhostNumber},
    PropagatorType -> GhostDash,
    PropagatorArrow -> Forward,
    Mass -> MZ,
    Indices -> {},
    PropagatorLabel -> "ghZ" },

U[3] == {
    SelfConjugate -> False,
    QuantumNumbers -> {GhostNumber, Q},
    PropagatorType -> GhostDash,
    PropagatorArrow -> Forward,
    Mass -> MW,
    Indices -> {},
    PropagatorLabel -> "ghWp" },

U[4] == {
    SelfConjugate -> False,
    QuantumNumbers -> {GhostNumber, -Q},
    PropagatorType -> GhostDash,
    PropagatorArrow -> Forward,
    Mass -> MW,
    Indices -> {},
    PropagatorLabel -> "ghWm" },

U[5] == {
    SelfConjugate -> False,
    QuantumNumbers -> {GhostNumber},
    PropagatorType -> GhostDash,
    PropagatorArrow -> Forward,
    Mass -> 0,
    Indices -> {Index[Gluon]},
    PropagatorLabel -> "ghG" },

F[1] == {
    SelfConjugate -> False,
    QuantumNumbers -> {LeptonNumber},
    PropagatorType -> Straight,
    PropagatorArrow -> Forward,
    Mass -> 0,
    Indices -> {},
    PropagatorLabel -> "ve" },

F[2] == {
    SelfConjugate -> False,
    QuantumNumbers -> {LeptonNumber},
    PropagatorType -> Straight,
    PropagatorArrow -> Forward,
    Mass -> 0,
    Indices -> {},
    PropagatorLabel -> "vm" },

F[3] == {
    SelfConjugate -> False,
    QuantumNumbers -> {LeptonNumber},
    PropagatorType -> Straight,
    PropagatorArrow -> Forward,
    Mass -> 0,
    Indices -> {},
    PropagatorLabel -> "vt" },

F[4] == {
    SelfConjugate -> False,
    QuantumNumbers -> {-Q, LeptonNumber},
    PropagatorType -> Straight,
    PropagatorArrow -> Forward,
    Mass -> Me,
    Indices -> {},
    PropagatorLabel -> "e" },

F[5] == {
    SelfConjugate -> False,
    QuantumNumbers -> {-Q, LeptonNumber},
    PropagatorType -> Straight,
    PropagatorArrow -> Forward,
    Mass -> MMU,
    Indices -> {},
    PropagatorLabel -> "mu" },

F[6] == {
    SelfConjugate -> False,
    QuantumNumbers -> {-Q, LeptonNumber},
    PropagatorType -> Straight,
    PropagatorArrow -> Forward,
    Mass -> MTA,
    Indices -> {},
    PropagatorLabel -> "ta" },

F[7] == {
    SelfConjugate -> False,
    QuantumNumbers -> {(2*Q)/3},
    PropagatorType -> Straight,
    PropagatorArrow -> Forward,
    Mass -> MU,
    Indices -> {Index[Colour]},
    PropagatorLabel -> "u" },

F[8] == {
    SelfConjugate -> False,
    QuantumNumbers -> {(2*Q)/3},
    PropagatorType -> Straight,
    PropagatorArrow -> Forward,
    Mass -> MC,
    Indices -> {Index[Colour]},
    PropagatorLabel -> "c" },

F[9] == {
    SelfConjugate -> False,
    QuantumNumbers -> {(2*Q)/3},
    PropagatorType -> Straight,
    PropagatorArrow -> Forward,
    Mass -> MT,
    Indices -> {Index[Colour]},
    PropagatorLabel -> "t" },

F[10] == {
    SelfConjugate -> False,
    QuantumNumbers -> {-1/3*Q},
    PropagatorType -> Straight,
    PropagatorArrow -> Forward,
    Mass -> MD,
    Indices -> {Index[Colour]},
    PropagatorLabel -> "d" },

F[11] == {
    SelfConjugate -> False,
    QuantumNumbers -> {-1/3*Q},
    PropagatorType -> Straight,
    PropagatorArrow -> Forward,
    Mass -> MS,
    Indices -> {Index[Colour]},
    PropagatorLabel -> "s" },

F[12] == {
    SelfConjugate -> False,
    QuantumNumbers -> {-1/3*Q},
    PropagatorType -> Straight,
    PropagatorArrow -> Forward,
    Mass -> MB,
    Indices -> {Index[Colour]},
    PropagatorLabel -> "b" },

S[1] == {
    SelfConjugate -> True,
    PropagatorType -> ScalarDash,
    PropagatorArrow -> None,
    Mass -> MH,
    Indices -> {},
    PropagatorLabel -> "H" },

S[2] == {
    SelfConjugate -> True,
    PropagatorType -> ScalarDash,
    PropagatorArrow -> None,
    Mass -> MZ,
    Indices -> {},
    PropagatorLabel -> "G0" },

S[3] == {
    SelfConjugate -> False,
    QuantumNumbers -> {Q},
    PropagatorType -> ScalarDash,
    PropagatorArrow -> None,
    Mass -> MW,
    Indices -> {},
    PropagatorLabel -> "GP" },

F[13] == {
    SelfConjugate -> False,
    QuantumNumbers -> {-Q},
    PropagatorType -> Straight,
    PropagatorArrow -> Forward,
    Mass -> Mchi,
    Indices -> {},
    PropagatorLabel -> "chiM" },

S[4] == {
    SelfConjugate -> True,
    PropagatorType -> ScalarDash,
    PropagatorArrow -> None,
    Mass -> MS0,
    Indices -> {},
    PropagatorLabel -> "S0" },

S[5] == {
    SelfConjugate -> True,
    PropagatorType -> ScalarDash,
    PropagatorArrow -> None,
    Mass -> MA0,
    Indices -> {},
    PropagatorLabel -> "A0" },

S[6] == {
    SelfConjugate -> False,
    QuantumNumbers -> {Q},
    PropagatorType -> ScalarDash,
    PropagatorArrow -> None,
    Mass -> MphiLp,
    Indices -> {},
    PropagatorLabel -> "phiLp" },

S[7] == {
    SelfConjugate -> False,
    QuantumNumbers -> {(5*Q)/3},
    PropagatorType -> ScalarDash,
    PropagatorArrow -> None,
    Mass -> MphiQ5,
    Indices -> {Index[Colour]},
    PropagatorLabel -> "phiQ5" },

S[8] == {
    SelfConjugate -> False,
    QuantumNumbers -> {(2*Q)/3},
    PropagatorType -> ScalarDash,
    PropagatorArrow -> None,
    Mass -> MphiQ2,
    Indices -> {Index[Colour]},
    PropagatorLabel -> "phiQ2" }
}


(*        Definitions       *)

GaugeXi[ V[1] ] = GaugeXi[A];
GaugeXi[ V[2] ] = GaugeXi[Z];
GaugeXi[ V[3] ] = GaugeXi[W];
GaugeXi[ V[4] ] = GaugeXi[G];
GaugeXi[ U[1] ] = GaugeXi[A];
GaugeXi[ U[2] ] = GaugeXi[Z];
GaugeXi[ U[3] ] = GaugeXi[W];
GaugeXi[ U[4] ] = GaugeXi[W];
GaugeXi[ U[5] ] = GaugeXi[G];
GaugeXi[ S[1] ] = 1;
GaugeXi[ S[2] ] = GaugeXi[Z];
GaugeXi[ S[3] ] = GaugeXi[W];
GaugeXi[ F[13] ] = GaugeXi[F[21]];
GaugeXi[ S[4] ] = GaugeXi[S[21]];
GaugeXi[ S[5] ] = GaugeXi[S[22]];
GaugeXi[ S[6] ] = GaugeXi[S[23]];
GaugeXi[ S[7] ] = GaugeXi[S[25]];
GaugeXi[ S[8] ] = GaugeXi[S[26]];

MZ[ ___ ] := MZ;
MW[ ___ ] := MW;
Me[ ___ ] := Me;
MMU[ ___ ] := MMU;
MTA[ ___ ] := MTA;
MU[ ___ ] := MU;
MC[ ___ ] := MC;
MT[ ___ ] := MT;
MD[ ___ ] := MD;
MS[ ___ ] := MS;
MB[ ___ ] := MB;
MH[ ___ ] := MH;
Mchi[ ___ ] := Mchi;
MS0[ ___ ] := MS0;
MA0[ ___ ] := MA0;
MphiLp[ ___ ] := MphiLp;
MphiQ5[ ___ ] := MphiQ5;
MphiQ2[ ___ ] := MphiQ2;


TheLabel[ V[4, {__}] ] := TheLabel[V[4]];
TheLabel[ U[5, {__}] ] := TheLabel[U[5]];
TheLabel[ F[7, {__}] ] := TheLabel[F[7]];
TheLabel[ F[8, {__}] ] := TheLabel[F[8]];
TheLabel[ F[9, {__}] ] := TheLabel[F[9]];
TheLabel[ F[10, {__}] ] := TheLabel[F[10]];
TheLabel[ F[11, {__}] ] := TheLabel[F[11]];
TheLabel[ F[12, {__}] ] := TheLabel[F[12]];
TheLabel[ S[7, {__}] ] := TheLabel[S[7]];
TheLabel[ S[8, {__}] ] := TheLabel[S[8]];


(*      Couplings (calculated by FeynRules)      *)

M$CouplingMatrices = {

C[ S[5] , S[5] , S[1] , S[1] ] == {{I*(2*lam5 - lamHPL - lamHPLprime), 0}},

C[ S[1] , S[1] , S[1] , S[1] ] == {{(-6*I)*lamH, 0}},

C[ S[5] , S[5] , S[5] , S[5] ] == {{(-6*I)*lamPL, 0}},

C[ S[1] , S[1] , S[6] , -S[6] ] == {{(-I)*lamHPL, 0}},

C[ S[5] , S[5] , S[6] , -S[6] ] == {{(-2*I)*lamPL, 0}},

C[ S[6] , S[6] , -S[6] , -S[6] ] == {{(-4*I)*lamPL, 0}},

C[ S[1] , S[1] , S[4] , S[4] ] == {{(-I)*(2*lam5 + lamHPL + lamHPLprime), 0}},

C[ S[5] , S[5] , S[4] , S[4] ] == {{(-2*I)*lamPL, 0}},

C[ S[6] , -S[6] , S[4] , S[4] ] == {{(-2*I)*lamPL, 0}},

C[ S[4] , S[4] , S[4] , S[4] ] == {{(-6*I)*lamPL, 0}},

C[ S[5] , S[5] , S[1] ] == {{I*(2*lam5 - lamHPL - lamHPLprime)*vev, 0}},

C[ S[1] , S[1] , S[1] ] == {{(-6*I)*lamH*vev, 0}},

C[ S[1] , S[6] , -S[6] ] == {{(-I)*lamHPL*vev, 0}},

C[ S[1] , S[4] , S[4] ] == {{(-I)*(2*lam5 + lamHPL + lamHPLprime)*vev, 0}},

C[ S[6] , -S[6] , V[1] , V[1] ] == {{(2*I)*EL^2, 0}},

C[ S[6] , -S[6] , V[1] ] == {{(-I)*gc16, 0}, {I*gc16, 0}},

C[ -U[5, {e1x1}] , U[5, {e2x1}] , V[4, {e3x2}] ] == {{gc17*SUNF[e3x2, e1x1, e2x1], 0}, {gc17*SUNF[e3x2, e1x1, e2x1], 0}, {0, 0}},

C[ V[4, {e1x2}] , V[4, {e2x2}] , V[4, {e3x2}] ] == {{-(gc18*SUNF[e1x2, e2x2, e3x2]), 0}, {gc18*SUNF[e1x2, e2x2, e3x2], 0}, {gc18*SUNF[e1x2, e2x2, e3x2], 0}, {-(gc18*SUNF[e1x2, e2x2, e3x2]), 0}, {-(gc18*SUNF[e1x2, e2x2, e3x2]), 0}, {gc18*SUNF[e1x2, e2x2, e3x2], 0}},

C[ V[4, {e1x2}] , V[4, {e2x2}] , V[4, {e3x2}] , V[4, {e4x2}] ] == {{(-I)*gc19*(SUNF[e1x2, e2x2, e3x2, e4x2] + SUNF[e1x2, e3x2, e2x2, e4x2]), 0}, {I*gc19*(SUNF[e1x2, e2x2, e3x2, e4x2] - SUNF[e1x2, e4x2, e2x2, e3x2]), 0}, {I*gc19*(SUNF[e1x2, e3x2, e2x2, e4x2] + SUNF[e1x2, e4x2, e2x2, e3x2]), 0}},

C[ -F[13] , F[13] , V[1] ] == {{I*gc20, 0}, {I*gc20, 0}},

C[ S[8, {e2x1}] , -S[8, {e3x1}] , V[1] ] == {{(-I)*gc21*IndexDelta[e2x1, e3x1], 0}, {I*gc21*IndexDelta[e2x1, e3x1], 0}},

C[ S[1] , S[1] , S[8, {e3x1}] , -S[8, {e4x1}] ] == {{(-I)*(lamHPQ + lamHPQprime)*IndexDelta[e3x1, e4x1], 0}},

C[ S[5] , S[5] , S[8, {e3x1}] , -S[8, {e4x1}] ] == {{(-I)*(lamPQPL + lamPQPLprime)*IndexDelta[e3x1, e4x1], 0}},

C[ S[6] , -S[6] , S[8, {e3x1}] , -S[8, {e4x1}] ] == {{(-I)*(lamPQPL + yPQPL)*IndexDelta[e3x1, e4x1], 0}},

C[ S[8, {e1x1}] , -S[8, {e2x1}] , S[4] , S[4] ] == {{(-I)*(lamPQPL + lamPQPLprime)*IndexDelta[e1x1, e2x1], 0}},

C[ S[1] , S[8, {e2x1}] , -S[8, {e3x1}] ] == {{(-I)*(lamHPQ + lamHPQprime)*vev*IndexDelta[e2x1, e3x1], 0}},

C[ S[8, {e3x1}] , -S[8, {e4x1}] , V[1] , V[1] ] == {{((8*I)/9)*EL^2*IndexDelta[e3x1, e4x1], 0}},

C[ S[8, {e1x1}] , S[8, {e2x1}] , -S[8, {e3x1}] , -S[8, {e4x1}] ] == {{(2*I)*lamPQ*(IndexDelta[e1x1, e4x1]*IndexDelta[e2x1, e3x1] + IndexDelta[e1x1, e3x1]*IndexDelta[e2x1, e4x1]), 0}},

C[ S[5] , -S[6] , -S[8, {e3x1}] , S[7, {e4x1}] ] == {{((lamPQPLprime - yPQPL)*IndexDelta[e3x1, e4x1])/Sqrt[2], 0}},

C[ -S[6] , -S[8, {e2x1}] , S[7, {e3x1}] , S[4] ] == {{((-I)*(lamPQPLprime - yPQPL)*IndexDelta[e2x1, e3x1])/Sqrt[2], 0}},

C[ S[7, {e2x1}] , -S[7, {e3x1}] , V[1] ] == {{(-I)*gc31*IndexDelta[e2x1, e3x1], 0}, {I*gc31*IndexDelta[e2x1, e3x1], 0}},

C[ S[5] , S[6] , S[8, {e3x1}] , -S[7, {e4x1}] ] == {{-(((lamPQPLprime - yPQPL)*IndexDelta[e3x1, e4x1])/Sqrt[2]), 0}},

C[ S[6] , S[8, {e2x1}] , -S[7, {e3x1}] , S[4] ] == {{((-I)*(lamPQPLprime - yPQPL)*IndexDelta[e2x1, e3x1])/Sqrt[2], 0}},

C[ S[1] , S[1] , S[7, {e3x1}] , -S[7, {e4x1}] ] == {{(-I)*(lamHPQ + yHPQ)*IndexDelta[e3x1, e4x1], 0}},

C[ S[5] , S[5] , S[7, {e3x1}] , -S[7, {e4x1}] ] == {{(-I)*(lamPQPL + yPQPL)*IndexDelta[e3x1, e4x1], 0}},

C[ S[6] , -S[6] , S[7, {e3x1}] , -S[7, {e4x1}] ] == {{(-I)*(lamPQPL + lamPQPLprime)*IndexDelta[e3x1, e4x1], 0}},

C[ S[7, {e1x1}] , -S[7, {e2x1}] , S[4] , S[4] ] == {{(-I)*(lamPQPL + yPQPL)*IndexDelta[e1x1, e2x1], 0}},

C[ S[1] , S[7, {e2x1}] , -S[7, {e3x1}] ] == {{(-I)*vev*(lamHPQ + yHPQ)*IndexDelta[e2x1, e3x1], 0}},

C[ S[7, {e3x1}] , -S[7, {e4x1}] , V[1] , V[1] ] == {{((50*I)/9)*EL^2*IndexDelta[e3x1, e4x1], 0}},

C[ S[8, {e1x1}] , -S[8, {e2x1}] , S[7, {e3x1}] , -S[7, {e4x1}] ] == {{(2*I)*lamPQ*IndexDelta[e1x1, e2x1]*IndexDelta[e3x1, e4x1], 0}},

C[ S[7, {e1x1}] , S[7, {e2x1}] , -S[7, {e3x1}] , -S[7, {e4x1}] ] == {{(2*I)*lamPQ*(IndexDelta[e1x1, e4x1]*IndexDelta[e2x1, e3x1] + IndexDelta[e1x1, e3x1]*IndexDelta[e2x1, e4x1]), 0}},

C[ -F[12, {e1x2}] , F[12, {e2x2}] , S[1] ] == {{I*gc42*IndexDelta[e1x2, e2x2], 0}, {I*gc42*IndexDelta[e1x2, e2x2], 0}},

C[ -F[10, {e1x2}] , F[10, {e2x2}] , S[1] ] == {{I*gc43*IndexDelta[e1x2, e2x2], 0}, {I*gc43*IndexDelta[e1x2, e2x2], 0}},

C[ -F[11, {e1x2}] , F[11, {e2x2}] , S[1] ] == {{I*gc44*IndexDelta[e1x2, e2x2], 0}, {I*gc44*IndexDelta[e1x2, e2x2], 0}},

C[ -F[4] , F[4] , S[1] ] == {{I*gc45, 0}, {I*gc45, 0}},

C[ -F[5] , F[5] , S[1] ] == {{I*gc46, 0}, {I*gc46, 0}},

C[ -F[6] , F[6] , S[1] ] == {{I*gc47, 0}, {I*gc47, 0}},

C[ -F[8, {e1x2}] , F[8, {e2x2}] , S[1] ] == {{I*gc48*IndexDelta[e1x2, e2x2], 0}, {I*gc48*IndexDelta[e1x2, e2x2], 0}},

C[ -F[9, {e1x2}] , F[9, {e2x2}] , S[1] ] == {{I*gc49*IndexDelta[e1x2, e2x2], 0}, {I*gc49*IndexDelta[e1x2, e2x2], 0}},

C[ -F[7, {e1x2}] , F[7, {e2x2}] , S[1] ] == {{I*gc50*IndexDelta[e1x2, e2x2], 0}, {I*gc50*IndexDelta[e1x2, e2x2], 0}},

C[ -F[13] , F[8, {e2x2}] , -S[7, {e3x1}] ] == {{I*gc51*IndexDelta[e2x2, e3x1], 0}, {0, 0}},

C[ -F[13] , F[9, {e2x2}] , -S[7, {e3x1}] ] == {{I*gc52*IndexDelta[e2x2, e3x1], 0}, {0, 0}},

C[ -F[13] , F[7, {e2x2}] , -S[7, {e3x1}] ] == {{I*gc53*IndexDelta[e2x2, e3x1], 0}, {0, 0}},

C[ -F[13] , F[12, {e2x2}] , -S[8, {e3x1}] ] == {{I*gc54*IndexDelta[e2x2, e3x1], 0}, {0, 0}},

C[ -F[13] , F[11, {e2x2}] , -S[8, {e3x1}] ] == {{I*gc55*IndexDelta[e2x2, e3x1], 0}, {0, 0}},

C[ -F[13] , F[2] , -S[6] ] == {{I*gc56, 0}, {0, 0}},

C[ -F[13] , F[5] , S[5] ] == {{gc57, 0}, {0, 0}},

C[ -F[13] , F[5] , S[4] ] == {{I*gc58, 0}, {0, 0}},

C[ -F[8, {e1x2}] , F[13] , S[7, {e3x1}] ] == {{0, 0}, {I*gc59R*IndexDelta[e1x2, e3x1], 0}},

C[ -F[9, {e1x2}] , F[13] , S[7, {e3x1}] ] == {{0, 0}, {I*gc60R*IndexDelta[e1x2, e3x1], 0}},

C[ -F[7, {e1x2}] , F[13] , S[7, {e3x1}] ] == {{0, 0}, {I*gc61R*IndexDelta[e1x2, e3x1], 0}},

C[ -F[12, {e1x2}] , F[13] , S[8, {e3x1}] ] == {{0, 0}, {I*gc62R*IndexDelta[e1x2, e3x1], 0}},

C[ -F[11, {e1x2}] , F[13] , S[8, {e3x1}] ] == {{0, 0}, {I*gc63R*IndexDelta[e1x2, e3x1], 0}},

C[ -F[2] , F[13] , S[6] ] == {{0, 0}, {I*gc64R, 0}},

C[ -F[5] , F[13] , S[5] ] == {{0, 0}, {gc65R, 0}},

C[ -F[5] , F[13] , S[4] ] == {{0, 0}, {I*gc66R, 0}},

C[ S[8, {e2x1}] , -S[8, {e3x1}] , V[4, {e1x2}] ] == {{(-I)*gc67*SUNT[e1x2, e3x1, e2x1], 0}, {I*gc67*SUNT[e1x2, e3x1, e2x1], 0}},

C[ S[8, {e3x1}] , -S[8, {e4x1}] , V[1] , V[4, {e2x2}] ] == {{((4*I)/3)*EL*GS*SUNT[e2x2, e4x1, e3x1], 0}},

C[ S[7, {e2x1}] , -S[7, {e3x1}] , V[4, {e1x2}] ] == {{(-I)*gc69*SUNT[e1x2, e3x1, e2x1], 0}, {I*gc69*SUNT[e1x2, e3x1, e2x1], 0}},

C[ S[7, {e3x1}] , -S[7, {e4x1}] , V[1] , V[4, {e2x2}] ] == {{((10*I)/3)*EL*GS*SUNT[e2x2, e4x1, e3x1], 0}},

C[ S[8, {e3x1}] , -S[8, {e4x1}] , V[4, {e1x2}] , V[4, {e2x2}] ] == {{I*GS^2*(SUNT[e1x2, e2x2, e4x1, e3x1] + SUNT[e2x2, e1x2, e4x1, e3x1]), 0}},

C[ S[7, {e3x1}] , -S[7, {e4x1}] , V[4, {e1x2}] , V[4, {e2x2}] ] == {{I*GS^2*(SUNT[e1x2, e2x2, e4x1, e3x1] + SUNT[e2x2, e1x2, e4x1, e3x1]), 0}},

C[ S[5] , -S[6] , V[1] , V[3] ] == {{-1/2*EL^2/sw, 0}},

C[ -S[6] , S[4] , V[1] , V[3] ] == {{((I/2)*EL^2)/sw, 0}},

C[ S[5] , -S[6] , V[3] ] == {{-gc75, 0}, {gc75, 0}},

C[ -S[6] , S[4] , V[3] ] == {{(-I)*gc76, 0}, {I*gc76, 0}},

C[ V[1] , V[3] , -V[3] ] == {{(-I)*gc77, 0}, {I*gc77, 0}, {I*gc77, 0}, {(-I)*gc77, 0}, {(-I)*gc77, 0}, {I*gc77, 0}},

C[ S[8, {e1x1}] , -S[7, {e2x1}] , V[3] ] == {{(-I)*gc78*IndexDelta[e1x1, e2x1], 0}, {I*gc78*IndexDelta[e1x1, e2x1], 0}},

C[ S[8, {e2x1}] , -S[7, {e3x1}] , V[1] , V[3] ] == {{(((7*I)/3)*EL^2*IndexDelta[e2x1, e3x1])/(Sqrt[2]*sw), 0}},

C[ S[8, {e2x1}] , -S[7, {e3x1}] , V[4, {e1x2}] , V[3] ] == {{(I*Sqrt[2]*EL*GS*SUNT[e1x2, e3x1, e2x1])/sw, 0}},

C[ S[5] , S[6] , V[1] , -V[3] ] == {{EL^2/(2*sw), 0}},

C[ S[6] , S[4] , V[1] , -V[3] ] == {{((I/2)*EL^2)/sw, 0}},

C[ S[5] , S[6] , -V[3] ] == {{-gc83, 0}, {gc83, 0}},

C[ S[6] , S[4] , -V[3] ] == {{(-I)*gc84, 0}, {I*gc84, 0}},

C[ -S[8, {e1x1}] , S[7, {e2x1}] , -V[3] ] == {{(-I)*gc85*IndexDelta[e1x1, e2x1], 0}, {I*gc85*IndexDelta[e1x1, e2x1], 0}},

C[ -S[8, {e2x1}] , S[7, {e3x1}] , V[1] , -V[3] ] == {{(((7*I)/3)*EL^2*IndexDelta[e2x1, e3x1])/(Sqrt[2]*sw), 0}},

C[ -S[8, {e2x1}] , S[7, {e3x1}] , V[4, {e1x2}] , -V[3] ] == {{(I*Sqrt[2]*EL*GS*SUNT[e1x2, e2x1, e3x1])/sw, 0}},

C[ S[5] , S[5] , V[3] , -V[3] ] == {{((I/2)*EL^2)/sw^2, 0}},

C[ S[1] , S[1] , V[3] , -V[3] ] == {{((I/2)*EL^2)/sw^2, 0}},

C[ S[6] , -S[6] , V[3] , -V[3] ] == {{((I/2)*EL^2)/sw^2, 0}},

C[ S[4] , S[4] , V[3] , -V[3] ] == {{((I/2)*EL^2)/sw^2, 0}},

C[ S[1] , V[3] , -V[3] ] == {{((I/2)*EL^2*vev)/sw^2, 0}},

C[ V[1] , V[1] , V[3] , -V[3] ] == {{(-I)*gc93, 0}, {(-I)*gc93, 0}, {(2*I)*gc93, 0}},

C[ S[8, {e1x1}] , -S[8, {e2x1}] , V[3] , -V[3] ] == {{((I/2)*EL^2*IndexDelta[e1x1, e2x1])/sw^2, 0}},

C[ S[7, {e1x1}] , -S[7, {e2x1}] , V[3] , -V[3] ] == {{((I/2)*EL^2*IndexDelta[e1x1, e2x1])/sw^2, 0}},

C[ V[3] , -V[3] , V[2] ] == {{(-I)*gc96, 0}, {I*gc96, 0}, {I*gc96, 0}, {(-I)*gc96, 0}, {(-I)*gc96, 0}, {I*gc96, 0}},

C[ V[3] , V[3] , -V[3] , -V[3] ] == {{(-I)*gc97, 0}, {(-I)*gc97, 0}, {(2*I)*gc97, 0}},

C[ S[6] , -S[6] , V[1] , V[2] ] == {{(I*EL^2*(cw - sw)*(cw + sw))/(cw*sw), 0}},

C[ S[5] , S[4] , V[2] ] == {{-gc99, 0}, {gc99, 0}},

C[ S[6] , -S[6] , V[2] ] == {{(-I)*gc100, 0}, {I*gc100, 0}},

C[ -F[13] , F[13] , V[2] ] == {{I*gc101, 0}, {I*gc101, 0}},

C[ S[8, {e1x1}] , -S[8, {e2x1}] , V[2] ] == {{(-I)*gc102*IndexDelta[e1x1, e2x1], 0}, {I*gc102*IndexDelta[e1x1, e2x1], 0}},

C[ S[8, {e2x1}] , -S[8, {e3x1}] , V[1] , V[2] ] == {{(((-2*I)/9)*EL^2*(3*cw^2 + 7*sw^2)*IndexDelta[e2x1, e3x1])/(cw*sw), 0}},

C[ S[7, {e1x1}] , -S[7, {e2x1}] , V[2] ] == {{(-I)*gc104*IndexDelta[e1x1, e2x1], 0}, {I*gc104*IndexDelta[e1x1, e2x1], 0}},

C[ S[7, {e2x1}] , -S[7, {e3x1}] , V[1] , V[2] ] == {{(((5*I)/9)*EL^2*(3*cw^2 - 7*sw^2)*IndexDelta[e2x1, e3x1])/(cw*sw), 0}},

C[ S[8, {e2x1}] , -S[8, {e3x1}] , V[4, {e1x2}] , V[2] ] == {{((-1/3*I)*EL*GS*(3*cw^2 + 7*sw^2)*SUNT[e1x2, e3x1, e2x1])/(cw*sw), 0}},

C[ S[7, {e2x1}] , -S[7, {e3x1}] , V[4, {e1x2}] , V[2] ] == {{((I/3)*EL*GS*(3*cw^2 - 7*sw^2)*SUNT[e1x2, e3x1, e2x1])/(cw*sw), 0}},

C[ S[5] , -S[6] , V[3] , V[2] ] == {{EL^2/(2*cw), 0}},

C[ -S[6] , S[4] , V[3] , V[2] ] == {{((-1/2*I)*EL^2)/cw, 0}},

C[ S[8, {e1x1}] , -S[7, {e2x1}] , V[3] , V[2] ] == {{(((-7*I)/3)*EL^2*IndexDelta[e1x1, e2x1])/(Sqrt[2]*cw), 0}},

C[ S[5] , S[6] , -V[3] , V[2] ] == {{-1/2*EL^2/cw, 0}},

C[ S[6] , S[4] , -V[3] , V[2] ] == {{((-1/2*I)*EL^2)/cw, 0}},

C[ -S[8, {e1x1}] , S[7, {e2x1}] , -V[3] , V[2] ] == {{(((-7*I)/3)*EL^2*IndexDelta[e1x1, e2x1])/(Sqrt[2]*cw), 0}},

C[ V[1] , V[3] , -V[3] , V[2] ] == {{(-2*I)*gc114, 0}, {I*gc114, 0}, {I*gc114, 0}},

C[ S[5] , S[5] , V[2] , V[2] ] == {{((I/2)*EL^2*(cw^2 + sw^2)^2)/(cw^2*sw^2), 0}},

C[ S[1] , S[1] , V[2] , V[2] ] == {{((I/2)*EL^2*(cw^2 + sw^2)^2)/(cw^2*sw^2), 0}},

C[ S[6] , -S[6] , V[2] , V[2] ] == {{((I/2)*EL^2*(cw - sw)^2*(cw + sw)^2)/(cw^2*sw^2), 0}},

C[ S[4] , S[4] , V[2] , V[2] ] == {{((I/2)*EL^2*(cw^2 + sw^2)^2)/(cw^2*sw^2), 0}},

C[ S[1] , V[2] , V[2] ] == {{((I/2)*EL^2*(cw^2 + sw^2)^2*vev)/(cw^2*sw^2), 0}},

C[ S[8, {e1x1}] , -S[8, {e2x1}] , V[2] , V[2] ] == {{((I/18)*EL^2*(3*cw^2 + 7*sw^2)^2*IndexDelta[e1x1, e2x1])/(cw^2*sw^2), 0}},

C[ S[7, {e1x1}] , -S[7, {e2x1}] , V[2] , V[2] ] == {{((I/18)*EL^2*(3*cw^2 - 7*sw^2)^2*IndexDelta[e1x1, e2x1])/(cw^2*sw^2), 0}},

C[ V[3] , -V[3] , V[2] , V[2] ] == {{(-I)*gc122, 0}, {(-I)*gc122, 0}, {(2*I)*gc122, 0}},

C[ -F[4] , F[4] , V[1] ] == {{I*gc123, 0}, {I*gc123, 0}},

C[ -F[5] , F[5] , V[1] ] == {{I*gc124, 0}, {I*gc124, 0}},

C[ -F[6] , F[6] , V[1] ] == {{I*gc125, 0}, {I*gc125, 0}},

C[ -F[8, {e1x2}] , F[8, {e2x2}] , V[1] ] == {{I*gc126*IndexDelta[e1x2, e2x2], 0}, {I*gc126*IndexDelta[e1x2, e2x2], 0}},

C[ -F[9, {e1x2}] , F[9, {e2x2}] , V[1] ] == {{I*gc127*IndexDelta[e1x2, e2x2], 0}, {I*gc127*IndexDelta[e1x2, e2x2], 0}},

C[ -F[7, {e1x2}] , F[7, {e2x2}] , V[1] ] == {{I*gc128*IndexDelta[e1x2, e2x2], 0}, {I*gc128*IndexDelta[e1x2, e2x2], 0}},

C[ -F[12, {e1x2}] , F[12, {e2x2}] , V[1] ] == {{I*gc129*IndexDelta[e1x2, e2x2], 0}, {I*gc129*IndexDelta[e1x2, e2x2], 0}},

C[ -F[10, {e1x2}] , F[10, {e2x2}] , V[1] ] == {{I*gc130*IndexDelta[e1x2, e2x2], 0}, {I*gc130*IndexDelta[e1x2, e2x2], 0}},

C[ -F[11, {e1x2}] , F[11, {e2x2}] , V[1] ] == {{I*gc131*IndexDelta[e1x2, e2x2], 0}, {I*gc131*IndexDelta[e1x2, e2x2], 0}},

C[ -F[8, {e1x2}] , F[8, {e2x2}] , V[4, {e3x2}] ] == {{I*gc132*SUNT[e3x2, e1x2, e2x2], 0}, {I*gc132*SUNT[e3x2, e1x2, e2x2], 0}},

C[ -F[9, {e1x2}] , F[9, {e2x2}] , V[4, {e3x2}] ] == {{I*gc133*SUNT[e3x2, e1x2, e2x2], 0}, {I*gc133*SUNT[e3x2, e1x2, e2x2], 0}},

C[ -F[7, {e1x2}] , F[7, {e2x2}] , V[4, {e3x2}] ] == {{I*gc134*SUNT[e3x2, e1x2, e2x2], 0}, {I*gc134*SUNT[e3x2, e1x2, e2x2], 0}},

C[ -F[12, {e1x2}] , F[12, {e2x2}] , V[4, {e3x2}] ] == {{I*gc135*SUNT[e3x2, e1x2, e2x2], 0}, {I*gc135*SUNT[e3x2, e1x2, e2x2], 0}},

C[ -F[10, {e1x2}] , F[10, {e2x2}] , V[4, {e3x2}] ] == {{I*gc136*SUNT[e3x2, e1x2, e2x2], 0}, {I*gc136*SUNT[e3x2, e1x2, e2x2], 0}},

C[ -F[11, {e1x2}] , F[11, {e2x2}] , V[4, {e3x2}] ] == {{I*gc137*SUNT[e3x2, e1x2, e2x2], 0}, {I*gc137*SUNT[e3x2, e1x2, e2x2], 0}},

C[ -F[8, {e1x2}] , F[12, {e2x2}] , V[3] ] == {{I*gc138*IndexDelta[e1x2, e2x2], 0}, {0, 0}},

C[ -F[8, {e1x2}] , F[10, {e2x2}] , V[3] ] == {{I*gc139*IndexDelta[e1x2, e2x2], 0}, {0, 0}},

C[ -F[8, {e1x2}] , F[11, {e2x2}] , V[3] ] == {{I*gc140*IndexDelta[e1x2, e2x2], 0}, {0, 0}},

C[ -F[9, {e1x2}] , F[12, {e2x2}] , V[3] ] == {{I*gc141*IndexDelta[e1x2, e2x2], 0}, {0, 0}},

C[ -F[9, {e1x2}] , F[10, {e2x2}] , V[3] ] == {{I*gc142*IndexDelta[e1x2, e2x2], 0}, {0, 0}},

C[ -F[9, {e1x2}] , F[11, {e2x2}] , V[3] ] == {{I*gc143*IndexDelta[e1x2, e2x2], 0}, {0, 0}},

C[ -F[7, {e1x2}] , F[12, {e2x2}] , V[3] ] == {{I*gc144*IndexDelta[e1x2, e2x2], 0}, {0, 0}},

C[ -F[7, {e1x2}] , F[10, {e2x2}] , V[3] ] == {{I*gc145*IndexDelta[e1x2, e2x2], 0}, {0, 0}},

C[ -F[7, {e1x2}] , F[11, {e2x2}] , V[3] ] == {{I*gc146*IndexDelta[e1x2, e2x2], 0}, {0, 0}},

C[ -F[12, {e1x2}] , F[8, {e2x2}] , -V[3] ] == {{I*gc147*IndexDelta[e1x2, e2x2], 0}, {0, 0}},

C[ -F[12, {e1x2}] , F[9, {e2x2}] , -V[3] ] == {{I*gc148*IndexDelta[e1x2, e2x2], 0}, {0, 0}},

C[ -F[12, {e1x2}] , F[7, {e2x2}] , -V[3] ] == {{I*gc149*IndexDelta[e1x2, e2x2], 0}, {0, 0}},

C[ -F[10, {e1x2}] , F[8, {e2x2}] , -V[3] ] == {{I*gc150*IndexDelta[e1x2, e2x2], 0}, {0, 0}},

C[ -F[10, {e1x2}] , F[9, {e2x2}] , -V[3] ] == {{I*gc151*IndexDelta[e1x2, e2x2], 0}, {0, 0}},

C[ -F[10, {e1x2}] , F[7, {e2x2}] , -V[3] ] == {{I*gc152*IndexDelta[e1x2, e2x2], 0}, {0, 0}},

C[ -F[11, {e1x2}] , F[8, {e2x2}] , -V[3] ] == {{I*gc153*IndexDelta[e1x2, e2x2], 0}, {0, 0}},

C[ -F[11, {e1x2}] , F[9, {e2x2}] , -V[3] ] == {{I*gc154*IndexDelta[e1x2, e2x2], 0}, {0, 0}},

C[ -F[11, {e1x2}] , F[7, {e2x2}] , -V[3] ] == {{I*gc155*IndexDelta[e1x2, e2x2], 0}, {0, 0}},

C[ -F[1] , F[4] , V[3] ] == {{I*gc156, 0}, {0, 0}},

C[ -F[2] , F[5] , V[3] ] == {{I*gc157, 0}, {0, 0}},

C[ -F[3] , F[6] , V[3] ] == {{I*gc158, 0}, {0, 0}},

C[ -F[4] , F[1] , -V[3] ] == {{I*gc159, 0}, {0, 0}},

C[ -F[5] , F[2] , -V[3] ] == {{I*gc160, 0}, {0, 0}},

C[ -F[6] , F[3] , -V[3] ] == {{I*gc161, 0}, {0, 0}},

C[ -F[8, {e1x2}] , F[8, {e2x2}] , V[2] ] == {{I*gc162L*IndexDelta[e1x2, e2x2], 0}, {I*gc162R*IndexDelta[e1x2, e2x2], 0}},

C[ -F[9, {e1x2}] , F[9, {e2x2}] , V[2] ] == {{I*gc163L*IndexDelta[e1x2, e2x2], 0}, {I*gc163R*IndexDelta[e1x2, e2x2], 0}},

C[ -F[7, {e1x2}] , F[7, {e2x2}] , V[2] ] == {{I*gc164L*IndexDelta[e1x2, e2x2], 0}, {I*gc164R*IndexDelta[e1x2, e2x2], 0}},

C[ -F[12, {e1x2}] , F[12, {e2x2}] , V[2] ] == {{I*gc165L*IndexDelta[e1x2, e2x2], 0}, {I*gc165R*IndexDelta[e1x2, e2x2], 0}},

C[ -F[10, {e1x2}] , F[10, {e2x2}] , V[2] ] == {{I*gc166L*IndexDelta[e1x2, e2x2], 0}, {I*gc166R*IndexDelta[e1x2, e2x2], 0}},

C[ -F[11, {e1x2}] , F[11, {e2x2}] , V[2] ] == {{I*gc167L*IndexDelta[e1x2, e2x2], 0}, {I*gc167R*IndexDelta[e1x2, e2x2], 0}},

C[ -F[1] , F[1] , V[2] ] == {{I*gc168, 0}, {0, 0}},

C[ -F[2] , F[2] , V[2] ] == {{I*gc169, 0}, {0, 0}},

C[ -F[3] , F[3] , V[2] ] == {{I*gc170, 0}, {0, 0}},

C[ -F[4] , F[4] , V[2] ] == {{I*gc171L, 0}, {I*gc171R, 0}},

C[ -F[5] , F[5] , V[2] ] == {{I*gc172L, 0}, {I*gc172R, 0}},

C[ -F[6] , F[6] , V[2] ] == {{I*gc173L, 0}, {I*gc173R, 0}}

}

(* * * * * * * * * * * * * * * * * * * * * * * * * * * * * * * * * * * *)

(* Parameter replacement lists (These lists were created by FeynRules) *)

(* FA Couplings *)

M$FACouplings = {
     gc16 -> -EL,
     gc17 -> GS,
     gc18 -> -GS,
     gc19 -> -GS^2,
     gc20 -> -EL,
     gc21 -> (-2*EL)/3,
     gc31 -> (-5*EL)/3,
     gc42 -> -(yb/Sqrt[2]),
     gc43 -> -(ydo/Sqrt[2]),
     gc44 -> -(ys/Sqrt[2]),
     gc45 -> -(ye/Sqrt[2]),
     gc46 -> -(ym/Sqrt[2]),
     gc47 -> -(ytau/Sqrt[2]),
     gc48 -> -(yc/Sqrt[2]),
     gc49 -> -(yt/Sqrt[2]),
     gc50 -> -(yup/Sqrt[2]),
     gc51 -> CKM2x3*ymbD + CKM2x2*ymsD,
     gc52 -> CKM3x3*ymbD + CKM3x2*ymsD,
     gc53 -> CKM1x3*ymbD + CKM1x2*ymsD,
     gc54 -> ymbD,
     gc55 -> ymsD,
     gc56 -> ymmD,
     gc57 -> ymmD/Sqrt[2],
     gc58 -> ymmD/Sqrt[2],
     gc59R -> CKM2x3*ymbD + CKM2x2*ymsD,
     gc60R -> CKM3x3*ymbD + CKM3x2*ymsD,
     gc61R -> CKM1x3*ymbD + CKM1x2*ymsD,
     gc62R -> ymbD,
     gc63R -> ymsD,
     gc64R -> ymmD,
     gc65R -> -(ymmD/Sqrt[2]),
     gc66R -> ymmD/Sqrt[2],
     gc67 -> -GS,
     gc69 -> -GS,
     gc75 -> EL/(2*sw),
     gc76 -> EL/(2*sw),
     gc77 -> EL,
     gc78 -> -(EL/(Sqrt[2]*sw)),
     gc83 -> EL/(2*sw),
     gc84 -> -1/2*EL/sw,
     gc85 -> EL/(Sqrt[2]*sw),
     gc93 -> -EL^2,
     gc96 -> (cw*EL)/sw,
     gc97 -> EL^2/sw^2,
     gc99 -> -1/2*(EL*(cw^2 + sw^2))/(cw*sw),
     gc100 -> -1/2*(cw*EL)/sw + (EL*sw)/(2*cw),
     gc101 -> (EL*sw)/cw,
     gc102 -> (cw*EL)/(2*sw) + (7*EL*sw)/(6*cw),
     gc104 -> -1/2*(cw*EL)/sw + (7*EL*sw)/(6*cw),
     gc114 -> (cw*EL^2)/sw,
     gc122 -> -((cw^2*EL^2)/sw^2),
     gc123 -> -EL,
     gc124 -> -EL,
     gc125 -> -EL,
     gc126 -> (2*EL)/3,
     gc127 -> (2*EL)/3,
     gc128 -> (2*EL)/3,
     gc129 -> -1/3*EL,
     gc130 -> -1/3*EL,
     gc131 -> -1/3*EL,
     gc132 -> GS,
     gc133 -> GS,
     gc134 -> GS,
     gc135 -> GS,
     gc136 -> GS,
     gc137 -> GS,
     gc138 -> (CKM2x3*EL)/(Sqrt[2]*sw),
     gc139 -> (CKM2x1*EL)/(Sqrt[2]*sw),
     gc140 -> (CKM2x2*EL)/(Sqrt[2]*sw),
     gc141 -> (CKM3x3*EL)/(Sqrt[2]*sw),
     gc142 -> (CKM3x1*EL)/(Sqrt[2]*sw),
     gc143 -> (CKM3x2*EL)/(Sqrt[2]*sw),
     gc144 -> (CKM1x3*EL)/(Sqrt[2]*sw),
     gc145 -> (CKM1x1*EL)/(Sqrt[2]*sw),
     gc146 -> (CKM1x2*EL)/(Sqrt[2]*sw),
     gc147 -> (CKM2x3*EL)/(Sqrt[2]*sw),
     gc148 -> (CKM3x3*EL)/(Sqrt[2]*sw),
     gc149 -> (CKM1x3*EL)/(Sqrt[2]*sw),
     gc150 -> (CKM2x1*EL)/(Sqrt[2]*sw),
     gc151 -> (CKM3x1*EL)/(Sqrt[2]*sw),
     gc152 -> (CKM1x1*EL)/(Sqrt[2]*sw),
     gc153 -> (CKM2x2*EL)/(Sqrt[2]*sw),
     gc154 -> (CKM3x2*EL)/(Sqrt[2]*sw),
     gc155 -> (CKM1x2*EL)/(Sqrt[2]*sw),
     gc156 -> EL/(Sqrt[2]*sw),
     gc157 -> EL/(Sqrt[2]*sw),
     gc158 -> EL/(Sqrt[2]*sw),
     gc159 -> EL/(Sqrt[2]*sw),
     gc160 -> EL/(Sqrt[2]*sw),
     gc161 -> EL/(Sqrt[2]*sw),
     gc162L -> (cw*EL)/(2*sw) - (EL*sw)/(6*cw),
     gc162R -> (-2*EL*sw)/(3*cw),
     gc163L -> (cw*EL)/(2*sw) - (EL*sw)/(6*cw),
     gc163R -> (-2*EL*sw)/(3*cw),
     gc164L -> (cw*EL)/(2*sw) - (EL*sw)/(6*cw),
     gc164R -> (-2*EL*sw)/(3*cw),
     gc165L -> -1/6*(EL*(3*cw^2 + sw^2))/(cw*sw),
     gc165R -> (EL*sw)/(3*cw),
     gc166L -> -1/6*(EL*(3*cw^2 + sw^2))/(cw*sw),
     gc166R -> (EL*sw)/(3*cw),
     gc167L -> -1/6*(EL*(3*cw^2 + sw^2))/(cw*sw),
     gc167R -> (EL*sw)/(3*cw),
     gc168 -> (EL*(cw^2 + sw^2))/(2*cw*sw),
     gc169 -> (EL*(cw^2 + sw^2))/(2*cw*sw),
     gc170 -> (EL*(cw^2 + sw^2))/(2*cw*sw),
     gc171L -> -1/2*(EL*(cw^2 - sw^2))/(cw*sw),
     gc171R -> (EL*sw)/cw,
     gc172L -> -1/2*(EL*(cw^2 - sw^2))/(cw*sw),
     gc172R -> (EL*sw)/cw,
     gc173L -> -1/2*(EL*(cw^2 - sw^2))/(cw*sw),
     gc173R -> (EL*sw)/cw};

