
 VEGAS:
 ======
 ABSERR    =     0.00000    
 POINTS    =      10000          ITERATIONS   =     5

 GLUON FUSION: GG --> HIGGS
 ==========================

 P P COLLIDER
 ============
 ENERGY        =     14.0000     TEV

   LO-LAMBDA_5 =    0.254973     GEV    LO-ALPHA_S (M_Z) =    0.118000    

 T-MASS        =     172.500     GEV     B-MASS    =     4.84131     GEV
 C-MASS        =     1.43131     GEV

 NON-LINEAR LAGRANGIAN

 HIGGS  = H
 ============================================================
 M_H       =     125.000      GEV
 REN-SCALE =     62.5000      GEV   FAC-SCALE =     62.5000      GEV
 G^H_B     =     1.00000      G^H_T     =     1.00000    
 G^H_C     =     1.00000      C^H_G     =     0.00000    
 G^H_CTG   =    0.351775-320
 SIG0      =     15.9142     +-    0.171021E-04  PB

