(* * * * * * * * * * * * * * * * * * * * * * * * * * * * * * * * * * * * * * * * *)
(*                                                                             *)
(*         This file has been automatically generated by FeynRules.            *)
(*                                                                             *)
(* * * * * * * * * * * * * * * * * * * * * * * * * * * * * * * * * * * * * * * * *)


FR$ModelInformation={
  ModelName->"bdm3_lamhs",
  Authors -> {"N. Christensen", "C. Duhr", "B. Fuks"},
  Version -> "1.4.6",
  Date -> "15. 04. 2014",
  Institutions -> {"Michigan State University", "Universite catholique de Louvain (CP3)", "IPHC Strasbourg / University of Strasbourg"},
  Emails -> {"neil@pa.msu.edu", "claude.duhr@uclouvain.be", "benjamin.fuks@cnrs.in2p3.fr"},
  URLs -> "http://feynrules.phys.ucl.ac.be/view/Main/StandardModel"};

FR$ClassesTranslation={A -> V[1], Z -> V[2], W -> V[3], G -> V[4], ghA -> U[1], ghZ -> U[2], ghWp -> U[3], ghWm -> U[4], ghG -> U[5], ve -> F[1], vm -> F[2], vt -> F[3], e -> F[4], mu -> F[5], ta -> F[6], u -> F[7], c -> F[8], t -> F[9], d -> F[10], s -> F[11], b -> F[12], H -> S[1], G0 -> S[2], GP -> S[3], chiM -> F[13], S0 -> S[4], A0 -> S[5], phiLp -> S[6], phiQ5 -> S[7], phiQ2 -> S[8]};

FR$InteractionOrderPerturbativeExpansion={{QCD, 0}, {QED, 0}, {NP, 0}};

FR$GoldstoneList={S[2], S[3]};

(*     Declared indices    *)

IndexRange[ Index[Gluon] ] = NoUnfold[ Range[ 8 ] ]

IndexRange[ Index[SU2W] ] = Range[ 3 ]

IndexRange[ Index[Generation] ] = Range[ 3 ]

IndexRange[ Index[Colour] ] = NoUnfold[ Range[ 3 ] ]

IndexRange[ Index[SU2D] ] = Range[ 2 ]

(*     Declared particles    *)

M$ClassesDescription = {
V[1] == {
    SelfConjugate -> True,
    PropagatorType -> Sine,
    PropagatorArrow -> None,
    Mass -> 0,
    Indices -> {},
    PropagatorLabel -> "A" },

V[2] == {
    SelfConjugate -> True,
    PropagatorType -> Sine,
    PropagatorArrow -> None,
    Mass -> MZ,
    Indices -> {},
    PropagatorLabel -> "Z" },

V[3] == {
    SelfConjugate -> False,
    QuantumNumbers -> {Q},
    PropagatorType -> Sine,
    PropagatorArrow -> Forward,
    Mass -> MW,
    Indices -> {},
    PropagatorLabel -> "W" },

V[4] == {
    SelfConjugate -> True,
    PropagatorType -> Cycles,
    PropagatorArrow -> None,
    Mass -> 0,
    Indices -> {Index[Gluon]},
    PropagatorLabel -> "G" },

U[1] == {
    SelfConjugate -> False,
    QuantumNumbers -> {GhostNumber},
    PropagatorType -> GhostDash,
    PropagatorArrow -> Forward,
    Mass -> 0,
    Indices -> {},
    PropagatorLabel -> "ghA" },

U[2] == {
    SelfConjugate -> False,
    QuantumNumbers -> {GhostNumber},
    PropagatorType -> GhostDash,
    PropagatorArrow -> Forward,
    Mass -> MZ,
    Indices -> {},
    PropagatorLabel -> "ghZ" },

U[3] == {
    SelfConjugate -> False,
    QuantumNumbers -> {GhostNumber, Q},
    PropagatorType -> GhostDash,
    PropagatorArrow -> Forward,
    Mass -> MW,
    Indices -> {},
    PropagatorLabel -> "ghWp" },

U[4] == {
    SelfConjugate -> False,
    QuantumNumbers -> {GhostNumber, -Q},
    PropagatorType -> GhostDash,
    PropagatorArrow -> Forward,
    Mass -> MW,
    Indices -> {},
    PropagatorLabel -> "ghWm" },

U[5] == {
    SelfConjugate -> False,
    QuantumNumbers -> {GhostNumber},
    PropagatorType -> GhostDash,
    PropagatorArrow -> Forward,
    Mass -> 0,
    Indices -> {Index[Gluon]},
    PropagatorLabel -> "ghG" },

F[1] == {
    SelfConjugate -> False,
    QuantumNumbers -> {LeptonNumber},
    PropagatorType -> Straight,
    PropagatorArrow -> Forward,
    Mass -> 0,
    Indices -> {},
    PropagatorLabel -> "ve" },

F[2] == {
    SelfConjugate -> False,
    QuantumNumbers -> {LeptonNumber},
    PropagatorType -> Straight,
    PropagatorArrow -> Forward,
    Mass -> 0,
    Indices -> {},
    PropagatorLabel -> "vm" },

F[3] == {
    SelfConjugate -> False,
    QuantumNumbers -> {LeptonNumber},
    PropagatorType -> Straight,
    PropagatorArrow -> Forward,
    Mass -> 0,
    Indices -> {},
    PropagatorLabel -> "vt" },

F[4] == {
    SelfConjugate -> False,
    QuantumNumbers -> {-Q, LeptonNumber},
    PropagatorType -> Straight,
    PropagatorArrow -> Forward,
    Mass -> Me,
    Indices -> {},
    PropagatorLabel -> "e" },

F[5] == {
    SelfConjugate -> False,
    QuantumNumbers -> {-Q, LeptonNumber},
    PropagatorType -> Straight,
    PropagatorArrow -> Forward,
    Mass -> MMU,
    Indices -> {},
    PropagatorLabel -> "mu" },

F[6] == {
    SelfConjugate -> False,
    QuantumNumbers -> {-Q, LeptonNumber},
    PropagatorType -> Straight,
    PropagatorArrow -> Forward,
    Mass -> MTA,
    Indices -> {},
    PropagatorLabel -> "ta" },

F[7] == {
    SelfConjugate -> False,
    QuantumNumbers -> {(2*Q)/3},
    PropagatorType -> Straight,
    PropagatorArrow -> Forward,
    Mass -> MU,
    Indices -> {Index[Colour]},
    PropagatorLabel -> "u" },

F[8] == {
    SelfConjugate -> False,
    QuantumNumbers -> {(2*Q)/3},
    PropagatorType -> Straight,
    PropagatorArrow -> Forward,
    Mass -> MC,
    Indices -> {Index[Colour]},
    PropagatorLabel -> "c" },

F[9] == {
    SelfConjugate -> False,
    QuantumNumbers -> {(2*Q)/3},
    PropagatorType -> Straight,
    PropagatorArrow -> Forward,
    Mass -> MT,
    Indices -> {Index[Colour]},
    PropagatorLabel -> "t" },

F[10] == {
    SelfConjugate -> False,
    QuantumNumbers -> {-1/3*Q},
    PropagatorType -> Straight,
    PropagatorArrow -> Forward,
    Mass -> MD,
    Indices -> {Index[Colour]},
    PropagatorLabel -> "d" },

F[11] == {
    SelfConjugate -> False,
    QuantumNumbers -> {-1/3*Q},
    PropagatorType -> Straight,
    PropagatorArrow -> Forward,
    Mass -> MS,
    Indices -> {Index[Colour]},
    PropagatorLabel -> "s" },

F[12] == {
    SelfConjugate -> False,
    QuantumNumbers -> {-1/3*Q},
    PropagatorType -> Straight,
    PropagatorArrow -> Forward,
    Mass -> MB,
    Indices -> {Index[Colour]},
    PropagatorLabel -> "b" },

S[1] == {
    SelfConjugate -> True,
    PropagatorType -> ScalarDash,
    PropagatorArrow -> None,
    Mass -> MH,
    Indices -> {},
    PropagatorLabel -> "H" },

S[2] == {
    SelfConjugate -> True,
    PropagatorType -> ScalarDash,
    PropagatorArrow -> None,
    Mass -> MZ,
    Indices -> {},
    PropagatorLabel -> "G0" },

S[3] == {
    SelfConjugate -> False,
    QuantumNumbers -> {Q},
    PropagatorType -> ScalarDash,
    PropagatorArrow -> None,
    Mass -> MW,
    Indices -> {},
    PropagatorLabel -> "GP" },

F[13] == {
    SelfConjugate -> False,
    QuantumNumbers -> {-Q},
    PropagatorType -> Straight,
    PropagatorArrow -> Forward,
    Mass -> Mchi,
    Indices -> {},
    PropagatorLabel -> "chiM" },

S[4] == {
    SelfConjugate -> True,
    PropagatorType -> ScalarDash,
    PropagatorArrow -> None,
    Mass -> MS0,
    Indices -> {},
    PropagatorLabel -> "S0" },

S[5] == {
    SelfConjugate -> True,
    PropagatorType -> ScalarDash,
    PropagatorArrow -> None,
    Mass -> MA0,
    Indices -> {},
    PropagatorLabel -> "A0" },

S[6] == {
    SelfConjugate -> False,
    QuantumNumbers -> {Q},
    PropagatorType -> ScalarDash,
    PropagatorArrow -> None,
    Mass -> MphiLp,
    Indices -> {},
    PropagatorLabel -> "phiLp" },

S[7] == {
    SelfConjugate -> False,
    QuantumNumbers -> {(5*Q)/3},
    PropagatorType -> ScalarDash,
    PropagatorArrow -> None,
    Mass -> MphiQ5,
    Indices -> {Index[Colour]},
    PropagatorLabel -> "phiQ5" },

S[8] == {
    SelfConjugate -> False,
    QuantumNumbers -> {(2*Q)/3},
    PropagatorType -> ScalarDash,
    PropagatorArrow -> None,
    Mass -> MphiQ2,
    Indices -> {Index[Colour]},
    PropagatorLabel -> "phiQ2" }
}


(*        Definitions       *)

GaugeXi[ V[1] ] = GaugeXi[A];
GaugeXi[ V[2] ] = GaugeXi[Z];
GaugeXi[ V[3] ] = GaugeXi[W];
GaugeXi[ V[4] ] = GaugeXi[G];
GaugeXi[ U[1] ] = GaugeXi[A];
GaugeXi[ U[2] ] = GaugeXi[Z];
GaugeXi[ U[3] ] = GaugeXi[W];
GaugeXi[ U[4] ] = GaugeXi[W];
GaugeXi[ U[5] ] = GaugeXi[G];
GaugeXi[ S[1] ] = 1;
GaugeXi[ S[2] ] = GaugeXi[Z];
GaugeXi[ S[3] ] = GaugeXi[W];
GaugeXi[ F[13] ] = GaugeXi[F[21]];
GaugeXi[ S[4] ] = GaugeXi[S[21]];
GaugeXi[ S[5] ] = GaugeXi[S[22]];
GaugeXi[ S[6] ] = GaugeXi[S[23]];
GaugeXi[ S[7] ] = GaugeXi[S[25]];
GaugeXi[ S[8] ] = GaugeXi[S[26]];

MZ[ ___ ] := MZ;
MW[ ___ ] := MW;
Me[ ___ ] := Me;
MMU[ ___ ] := MMU;
MTA[ ___ ] := MTA;
MU[ ___ ] := MU;
MC[ ___ ] := MC;
MT[ ___ ] := MT;
MD[ ___ ] := MD;
MS[ ___ ] := MS;
MB[ ___ ] := MB;
MH[ ___ ] := MH;
Mchi[ ___ ] := Mchi;
MS0[ ___ ] := MS0;
MA0[ ___ ] := MA0;
MphiLp[ ___ ] := MphiLp;
MphiQ5[ ___ ] := MphiQ5;
MphiQ2[ ___ ] := MphiQ2;


TheLabel[ V[4, {__}] ] := TheLabel[V[4]];
TheLabel[ U[5, {__}] ] := TheLabel[U[5]];
TheLabel[ F[7, {__}] ] := TheLabel[F[7]];
TheLabel[ F[8, {__}] ] := TheLabel[F[8]];
TheLabel[ F[9, {__}] ] := TheLabel[F[9]];
TheLabel[ F[10, {__}] ] := TheLabel[F[10]];
TheLabel[ F[11, {__}] ] := TheLabel[F[11]];
TheLabel[ F[12, {__}] ] := TheLabel[F[12]];
TheLabel[ S[7, {__}] ] := TheLabel[S[7]];
TheLabel[ S[8, {__}] ] := TheLabel[S[8]];


(*      Couplings (calculated by FeynRules)      *)

M$CouplingMatrices = {

C[ S[5] , S[5] , S[2] , S[2] ] == {{(-I)*(2*lam5 + lamHPL + lamHPLprime), 0}},

C[ S[5] , S[5] , S[1] , S[1] ] == {{I*(2*lam5 - lamHPL - lamHPLprime), 0}},

C[ S[2] , S[2] , S[2] , S[2] ] == {{(-6*I)*lamH, 0}},

C[ S[2] , S[2] , S[3] , -S[3] ] == {{(-2*I)*lamH, 0}},

C[ S[3] , S[3] , -S[3] , -S[3] ] == {{(-4*I)*lamH, 0}},

C[ S[2] , S[2] , S[1] , S[1] ] == {{(-2*I)*lamH, 0}},

C[ S[3] , -S[3] , S[1] , S[1] ] == {{(-2*I)*lamH, 0}},

C[ S[1] , S[1] , S[1] , S[1] ] == {{(-6*I)*lamH, 0}},

C[ S[5] , S[5] , S[3] , -S[3] ] == {{(-I)*lamHPL, 0}},

C[ S[5] , S[5] , S[5] , S[5] ] == {{(-6*I)*lamPL, 0}},

C[ S[5] , S[2] , -S[3] , S[6] ] == {{lam5 + lamHPLprime/2, 0}},

C[ S[5] , -S[3] , S[1] , S[6] ] == {{(I/2)*(2*lam5 - lamHPLprime), 0}},

C[ -S[3] , -S[3] , S[6] , S[6] ] == {{(4*I)*lam5, 0}},

C[ S[5] , S[2] , S[3] , -S[6] ] == {{-lam5 - lamHPLprime/2, 0}},

C[ S[5] , S[3] , S[1] , -S[6] ] == {{(I/2)*(2*lam5 - lamHPLprime), 0}},

C[ S[2] , S[2] , S[6] , -S[6] ] == {{(-I)*lamHPL, 0}},

C[ S[3] , -S[3] , S[6] , -S[6] ] == {{(-I)*(lamHPL + lamHPLprime), 0}},

C[ S[1] , S[1] , S[6] , -S[6] ] == {{(-I)*lamHPL, 0}},

C[ S[5] , S[5] , S[6] , -S[6] ] == {{(-2*I)*lamPL, 0}},

C[ S[3] , S[3] , -S[6] , -S[6] ] == {{(4*I)*lam5, 0}},

C[ S[6] , S[6] , -S[6] , -S[6] ] == {{(-4*I)*lamPL, 0}},

C[ S[5] , S[2] , S[1] , S[4] ] == {{(-2*I)*lam5, 0}},

C[ S[2] , -S[3] , S[6] , S[4] ] == {{(-I)*lam5 + (I/2)*lamHPLprime, 0}},

C[ -S[3] , S[1] , S[6] , S[4] ] == {{lam5 + lamHPLprime/2, 0}},

C[ S[2] , S[3] , -S[6] , S[4] ] == {{(-I)*lam5 + (I/2)*lamHPLprime, 0}},

C[ S[3] , S[1] , -S[6] , S[4] ] == {{-lam5 - lamHPLprime/2, 0}},

C[ S[2] , S[2] , S[4] , S[4] ] == {{I*(2*lam5 - lamHPL - lamHPLprime), 0}},

C[ S[1] , S[1] , S[4] , S[4] ] == {{(-I)*(2*lam5 + lamHPL + lamHPLprime), 0}},

C[ S[3] , -S[3] , S[4] , S[4] ] == {{(-I)*lamHPL, 0}},

C[ S[5] , S[5] , S[4] , S[4] ] == {{(-2*I)*lamPL, 0}},

C[ S[6] , -S[6] , S[4] , S[4] ] == {{(-2*I)*lamPL, 0}},

C[ S[4] , S[4] , S[4] , S[4] ] == {{(-6*I)*lamPL, 0}},

C[ S[5] , S[5] , S[1] ] == {{I*(2*lam5 - lamHPL - lamHPLprime)*vev, 0}},

C[ S[2] , S[2] , S[1] ] == {{(-2*I)*lamH*vev, 0}},

C[ S[3] , -S[3] , S[1] ] == {{(-2*I)*lamH*vev, 0}},

C[ S[1] , S[1] , S[1] ] == {{(-6*I)*lamH*vev, 0}},

C[ S[5] , -S[3] , S[6] ] == {{(I/2)*(2*lam5 - lamHPLprime)*vev, 0}},

C[ S[5] , S[3] , -S[6] ] == {{(I/2)*(2*lam5 - lamHPLprime)*vev, 0}},

C[ S[1] , S[6] , -S[6] ] == {{(-I)*lamHPL*vev, 0}},

C[ S[5] , S[2] , S[4] ] == {{(-2*I)*lam5*vev, 0}},

C[ -S[3] , S[6] , S[4] ] == {{((2*lam5 + lamHPLprime)*vev)/2, 0}},

C[ S[3] , -S[6] , S[4] ] == {{-1/2*((2*lam5 + lamHPLprime)*vev), 0}},

C[ S[1] , S[4] , S[4] ] == {{(-I)*(2*lam5 + lamHPL + lamHPLprime)*vev, 0}},

C[ S[3] , -S[3] , V[1] , V[1] ] == {{(2*I)*EL^2, 0}},

C[ S[6] , -S[6] , V[1] , V[1] ] == {{(2*I)*EL^2, 0}},

C[ S[3] , -S[3] , V[1] ] == {{(-I)*gc46, 0}, {I*gc46, 0}},

C[ S[6] , -S[6] , V[1] ] == {{(-I)*gc47, 0}, {I*gc47, 0}},

C[ -U[1] , U[4] , V[3] ] == {{I*gc48, 0}, {I*gc48, 0}, {0, 0}},

C[ -U[1] , U[3] , -V[3] ] == {{I*gc49, 0}, {I*gc49, 0}, {0, 0}},

C[ -S[3] , -U[4] , U[1] ] == {{(EL^2*vev)/(2*sw), 0}},

C[ -U[4] , U[1] , -V[3] ] == {{I*gc51, 0}, {I*gc51, 0}, {0, 0}},

C[ S[2] , -U[4] , U[4] ] == {{-1/4*(EL^2*vev)/sw^2, 0}},

C[ S[1] , -U[4] , U[4] ] == {{((-1/4*I)*EL^2*vev)/sw^2, 0}},

C[ -U[4] , U[4] , V[1] ] == {{I*gc54, 0}, {I*gc54, 0}, {0, 0}},

C[ -U[4] , U[4] , V[2] ] == {{I*gc55, 0}, {I*gc55, 0}, {0, 0}},

C[ -S[3] , -U[4] , U[2] ] == {{(EL^2*(cw - sw)*(cw + sw)*vev)/(4*cw*sw^2), 0}},

C[ -U[4] , U[2] , -V[3] ] == {{I*gc57, 0}, {I*gc57, 0}, {0, 0}},

C[ S[3] , -U[3] , U[1] ] == {{-1/2*(EL^2*vev)/sw, 0}},

C[ -U[3] , U[1] , V[3] ] == {{I*gc59, 0}, {I*gc59, 0}, {0, 0}},

C[ S[2] , -U[3] , U[3] ] == {{(EL^2*vev)/(4*sw^2), 0}},

C[ S[1] , -U[3] , U[3] ] == {{((-1/4*I)*EL^2*vev)/sw^2, 0}},

C[ -U[3] , U[3] , V[1] ] == {{I*gc62, 0}, {I*gc62, 0}, {0, 0}},

C[ -U[3] , U[3] , V[2] ] == {{I*gc63, 0}, {I*gc63, 0}, {0, 0}},

C[ S[3] , -U[3] , U[2] ] == {{-1/4*(EL^2*(cw - sw)*(cw + sw)*vev)/(cw*sw^2), 0}},

C[ -U[3] , U[2] , V[3] ] == {{I*gc65, 0}, {I*gc65, 0}, {0, 0}},

C[ S[3] , -U[2] , U[4] ] == {{(EL^2*(cw^2 + sw^2)*vev)/(4*cw*sw^2), 0}},

C[ -U[2] , U[4] , V[3] ] == {{I*gc67, 0}, {I*gc67, 0}, {0, 0}},

C[ -S[3] , -U[2] , U[3] ] == {{-1/4*(EL^2*(cw^2 + sw^2)*vev)/(cw*sw^2), 0}},

C[ -U[2] , U[3] , -V[3] ] == {{I*gc69, 0}, {I*gc69, 0}, {0, 0}},

C[ S[1] , -U[2] , U[2] ] == {{((-1/4*I)*EL^2*(cw^2 + sw^2)^2*vev)/(cw^2*sw^2), 0}},

C[ -U[5, {e1x1}] , U[5, {e2x1}] , V[4, {e3x2}] ] == {{gc71*SUNF[e3x2, e1x1, e2x1], 0}, {gc71*SUNF[e3x2, e1x1, e2x1], 0}, {0, 0}},

C[ V[4, {e1x2}] , V[4, {e2x2}] , V[4, {e3x2}] ] == {{-(gc72*SUNF[e1x2, e2x2, e3x2]), 0}, {gc72*SUNF[e1x2, e2x2, e3x2], 0}, {gc72*SUNF[e1x2, e2x2, e3x2], 0}, {-(gc72*SUNF[e1x2, e2x2, e3x2]), 0}, {-(gc72*SUNF[e1x2, e2x2, e3x2]), 0}, {gc72*SUNF[e1x2, e2x2, e3x2], 0}},

C[ V[4, {e1x2}] , V[4, {e2x2}] , V[4, {e3x2}] , V[4, {e4x2}] ] == {{(-I)*gc73*(SUNF[e1x2, e2x2, e3x2, e4x2] + SUNF[e1x2, e3x2, e2x2, e4x2]), 0}, {I*gc73*(SUNF[e1x2, e2x2, e3x2, e4x2] - SUNF[e1x2, e4x2, e2x2, e3x2]), 0}, {I*gc73*(SUNF[e1x2, e3x2, e2x2, e4x2] + SUNF[e1x2, e4x2, e2x2, e3x2]), 0}},

C[ -F[13] , F[13] , V[1] ] == {{I*gc74, 0}, {I*gc74, 0}},

C[ S[8, {e2x1}] , -S[8, {e3x1}] , V[1] ] == {{(-I)*gc75*IndexDelta[e2x1, e3x1], 0}, {I*gc75*IndexDelta[e2x1, e3x1], 0}},

C[ S[2] , S[2] , S[8, {e3x1}] , -S[8, {e4x1}] ] == {{(-I)*(lamHPQ + lamHPQprime)*IndexDelta[e3x1, e4x1], 0}},

C[ S[3] , -S[3] , S[8, {e3x1}] , -S[8, {e4x1}] ] == {{(-I)*(lamHPQ + yHPQ)*IndexDelta[e3x1, e4x1], 0}},

C[ S[1] , S[1] , S[8, {e3x1}] , -S[8, {e4x1}] ] == {{(-I)*(lamHPQ + lamHPQprime)*IndexDelta[e3x1, e4x1], 0}},

C[ S[5] , S[5] , S[8, {e3x1}] , -S[8, {e4x1}] ] == {{(-I)*(lamPQPL + lamPQPLprime)*IndexDelta[e3x1, e4x1], 0}},

C[ S[6] , -S[6] , S[8, {e3x1}] , -S[8, {e4x1}] ] == {{(-I)*(lamPQPL + yPQPL)*IndexDelta[e3x1, e4x1], 0}},

C[ S[8, {e1x1}] , -S[8, {e2x1}] , S[4] , S[4] ] == {{(-I)*(lamPQPL + lamPQPLprime)*IndexDelta[e1x1, e2x1], 0}},

C[ S[1] , S[8, {e2x1}] , -S[8, {e3x1}] ] == {{(-I)*(lamHPQ + lamHPQprime)*vev*IndexDelta[e2x1, e3x1], 0}},

C[ S[8, {e3x1}] , -S[8, {e4x1}] , V[1] , V[1] ] == {{((8*I)/9)*EL^2*IndexDelta[e3x1, e4x1], 0}},

C[ S[8, {e1x1}] , S[8, {e2x1}] , -S[8, {e3x1}] , -S[8, {e4x1}] ] == {{(2*I)*lamPQ*(IndexDelta[e1x1, e4x1]*IndexDelta[e2x1, e3x1] + IndexDelta[e1x1, e3x1]*IndexDelta[e2x1, e4x1]), 0}},

C[ S[2] , -S[3] , -S[8, {e3x1}] , S[7, {e4x1}] ] == {{(I*(lamHPQprime - yHPQ)*IndexDelta[e3x1, e4x1])/Sqrt[2], 0}},

C[ -S[3] , S[1] , -S[8, {e3x1}] , S[7, {e4x1}] ] == {{((lamHPQprime - yHPQ)*IndexDelta[e3x1, e4x1])/Sqrt[2], 0}},

C[ S[5] , -S[6] , -S[8, {e3x1}] , S[7, {e4x1}] ] == {{((lamPQPLprime - yPQPL)*IndexDelta[e3x1, e4x1])/Sqrt[2], 0}},

C[ -S[6] , -S[8, {e2x1}] , S[7, {e3x1}] , S[4] ] == {{((-I)*(lamPQPLprime - yPQPL)*IndexDelta[e2x1, e3x1])/Sqrt[2], 0}},

C[ -S[3] , -S[8, {e2x1}] , S[7, {e3x1}] ] == {{(vev*(lamHPQprime - yHPQ)*IndexDelta[e2x1, e3x1])/Sqrt[2], 0}},

C[ S[7, {e2x1}] , -S[7, {e3x1}] , V[1] ] == {{(-I)*gc90*IndexDelta[e2x1, e3x1], 0}, {I*gc90*IndexDelta[e2x1, e3x1], 0}},

C[ S[2] , S[3] , S[8, {e3x1}] , -S[7, {e4x1}] ] == {{(I*(lamHPQprime - yHPQ)*IndexDelta[e3x1, e4x1])/Sqrt[2], 0}},

C[ S[3] , S[1] , S[8, {e3x1}] , -S[7, {e4x1}] ] == {{-(((lamHPQprime - yHPQ)*IndexDelta[e3x1, e4x1])/Sqrt[2]), 0}},

C[ S[5] , S[6] , S[8, {e3x1}] , -S[7, {e4x1}] ] == {{-(((lamPQPLprime - yPQPL)*IndexDelta[e3x1, e4x1])/Sqrt[2]), 0}},

C[ S[6] , S[8, {e2x1}] , -S[7, {e3x1}] , S[4] ] == {{((-I)*(lamPQPLprime - yPQPL)*IndexDelta[e2x1, e3x1])/Sqrt[2], 0}},

C[ S[3] , S[8, {e2x1}] , -S[7, {e3x1}] ] == {{-((vev*(lamHPQprime - yHPQ)*IndexDelta[e2x1, e3x1])/Sqrt[2]), 0}},

C[ S[2] , S[2] , S[7, {e3x1}] , -S[7, {e4x1}] ] == {{(-I)*(lamHPQ + yHPQ)*IndexDelta[e3x1, e4x1], 0}},

C[ S[3] , -S[3] , S[7, {e3x1}] , -S[7, {e4x1}] ] == {{(-I)*(lamHPQ + lamHPQprime)*IndexDelta[e3x1, e4x1], 0}},

C[ S[1] , S[1] , S[7, {e3x1}] , -S[7, {e4x1}] ] == {{(-I)*(lamHPQ + yHPQ)*IndexDelta[e3x1, e4x1], 0}},

C[ S[5] , S[5] , S[7, {e3x1}] , -S[7, {e4x1}] ] == {{(-I)*(lamPQPL + yPQPL)*IndexDelta[e3x1, e4x1], 0}},

C[ S[6] , -S[6] , S[7, {e3x1}] , -S[7, {e4x1}] ] == {{(-I)*(lamPQPL + lamPQPLprime)*IndexDelta[e3x1, e4x1], 0}},

C[ S[7, {e1x1}] , -S[7, {e2x1}] , S[4] , S[4] ] == {{(-I)*(lamPQPL + yPQPL)*IndexDelta[e1x1, e2x1], 0}},

C[ S[1] , S[7, {e2x1}] , -S[7, {e3x1}] ] == {{(-I)*vev*(lamHPQ + yHPQ)*IndexDelta[e2x1, e3x1], 0}},

C[ S[7, {e3x1}] , -S[7, {e4x1}] , V[1] , V[1] ] == {{((50*I)/9)*EL^2*IndexDelta[e3x1, e4x1], 0}},

C[ S[8, {e1x1}] , -S[8, {e2x1}] , S[7, {e3x1}] , -S[7, {e4x1}] ] == {{(2*I)*lamPQ*IndexDelta[e1x1, e2x1]*IndexDelta[e3x1, e4x1], 0}},

C[ S[7, {e1x1}] , S[7, {e2x1}] , -S[7, {e3x1}] , -S[7, {e4x1}] ] == {{(2*I)*lamPQ*(IndexDelta[e1x1, e4x1]*IndexDelta[e2x1, e3x1] + IndexDelta[e1x1, e3x1]*IndexDelta[e2x1, e4x1]), 0}},

C[ -F[12, {e1x2}] , F[8, {e2x2}] , -S[3] ] == {{gc106L*IndexDelta[e1x2, e2x2], 0}, {gc106R*IndexDelta[e1x2, e2x2], 0}},

C[ -F[12, {e1x2}] , F[9, {e2x2}] , -S[3] ] == {{gc107L*IndexDelta[e1x2, e2x2], 0}, {gc107R*IndexDelta[e1x2, e2x2], 0}},

C[ -F[12, {e1x2}] , F[7, {e2x2}] , -S[3] ] == {{gc108L*IndexDelta[e1x2, e2x2], 0}, {gc108R*IndexDelta[e1x2, e2x2], 0}},

C[ -F[10, {e1x2}] , F[8, {e2x2}] , -S[3] ] == {{gc109L*IndexDelta[e1x2, e2x2], 0}, {gc109R*IndexDelta[e1x2, e2x2], 0}},

C[ -F[10, {e1x2}] , F[9, {e2x2}] , -S[3] ] == {{gc110L*IndexDelta[e1x2, e2x2], 0}, {gc110R*IndexDelta[e1x2, e2x2], 0}},

C[ -F[10, {e1x2}] , F[7, {e2x2}] , -S[3] ] == {{gc111L*IndexDelta[e1x2, e2x2], 0}, {gc111R*IndexDelta[e1x2, e2x2], 0}},

C[ -F[11, {e1x2}] , F[8, {e2x2}] , -S[3] ] == {{gc112L*IndexDelta[e1x2, e2x2], 0}, {gc112R*IndexDelta[e1x2, e2x2], 0}},

C[ -F[11, {e1x2}] , F[9, {e2x2}] , -S[3] ] == {{gc113L*IndexDelta[e1x2, e2x2], 0}, {gc113R*IndexDelta[e1x2, e2x2], 0}},

C[ -F[11, {e1x2}] , F[7, {e2x2}] , -S[3] ] == {{gc114L*IndexDelta[e1x2, e2x2], 0}, {gc114R*IndexDelta[e1x2, e2x2], 0}},

C[ -F[12, {e1x2}] , F[12, {e2x2}] , S[2] ] == {{gc115L*IndexDelta[e1x2, e2x2], 0}, {gc115R*IndexDelta[e1x2, e2x2], 0}},

C[ -F[10, {e1x2}] , F[10, {e2x2}] , S[2] ] == {{gc116L*IndexDelta[e1x2, e2x2], 0}, {gc116R*IndexDelta[e1x2, e2x2], 0}},

C[ -F[11, {e1x2}] , F[11, {e2x2}] , S[2] ] == {{gc117L*IndexDelta[e1x2, e2x2], 0}, {gc117R*IndexDelta[e1x2, e2x2], 0}},

C[ -F[12, {e1x2}] , F[12, {e2x2}] , S[1] ] == {{I*gc118*IndexDelta[e1x2, e2x2], 0}, {I*gc118*IndexDelta[e1x2, e2x2], 0}},

C[ -F[10, {e1x2}] , F[10, {e2x2}] , S[1] ] == {{I*gc119*IndexDelta[e1x2, e2x2], 0}, {I*gc119*IndexDelta[e1x2, e2x2], 0}},

C[ -F[11, {e1x2}] , F[11, {e2x2}] , S[1] ] == {{I*gc120*IndexDelta[e1x2, e2x2], 0}, {I*gc120*IndexDelta[e1x2, e2x2], 0}},

C[ -F[4] , F[1] , -S[3] ] == {{gc121, 0}, {0, 0}},

C[ -F[5] , F[2] , -S[3] ] == {{gc122, 0}, {0, 0}},

C[ -F[6] , F[3] , -S[3] ] == {{gc123, 0}, {0, 0}},

C[ -F[4] , F[4] , S[2] ] == {{gc124L, 0}, {gc124R, 0}},

C[ -F[5] , F[5] , S[2] ] == {{gc125L, 0}, {gc125R, 0}},

C[ -F[6] , F[6] , S[2] ] == {{gc126L, 0}, {gc126R, 0}},

C[ -F[4] , F[4] , S[1] ] == {{I*gc127, 0}, {I*gc127, 0}},

C[ -F[5] , F[5] , S[1] ] == {{I*gc128, 0}, {I*gc128, 0}},

C[ -F[6] , F[6] , S[1] ] == {{I*gc129, 0}, {I*gc129, 0}},

C[ -F[8, {e1x2}] , F[12, {e2x2}] , S[3] ] == {{gc130L*IndexDelta[e1x2, e2x2], 0}, {gc130R*IndexDelta[e1x2, e2x2], 0}},

C[ -F[8, {e1x2}] , F[10, {e2x2}] , S[3] ] == {{gc131L*IndexDelta[e1x2, e2x2], 0}, {gc131R*IndexDelta[e1x2, e2x2], 0}},

C[ -F[8, {e1x2}] , F[11, {e2x2}] , S[3] ] == {{gc132L*IndexDelta[e1x2, e2x2], 0}, {gc132R*IndexDelta[e1x2, e2x2], 0}},

C[ -F[9, {e1x2}] , F[12, {e2x2}] , S[3] ] == {{gc133L*IndexDelta[e1x2, e2x2], 0}, {gc133R*IndexDelta[e1x2, e2x2], 0}},

C[ -F[9, {e1x2}] , F[10, {e2x2}] , S[3] ] == {{gc134L*IndexDelta[e1x2, e2x2], 0}, {gc134R*IndexDelta[e1x2, e2x2], 0}},

C[ -F[9, {e1x2}] , F[11, {e2x2}] , S[3] ] == {{gc135L*IndexDelta[e1x2, e2x2], 0}, {gc135R*IndexDelta[e1x2, e2x2], 0}},

C[ -F[7, {e1x2}] , F[12, {e2x2}] , S[3] ] == {{gc136L*IndexDelta[e1x2, e2x2], 0}, {gc136R*IndexDelta[e1x2, e2x2], 0}},

C[ -F[7, {e1x2}] , F[10, {e2x2}] , S[3] ] == {{gc137L*IndexDelta[e1x2, e2x2], 0}, {gc137R*IndexDelta[e1x2, e2x2], 0}},

C[ -F[7, {e1x2}] , F[11, {e2x2}] , S[3] ] == {{gc138L*IndexDelta[e1x2, e2x2], 0}, {gc138R*IndexDelta[e1x2, e2x2], 0}},

C[ -F[8, {e1x2}] , F[8, {e2x2}] , S[2] ] == {{gc139L*IndexDelta[e1x2, e2x2], 0}, {gc139R*IndexDelta[e1x2, e2x2], 0}},

C[ -F[9, {e1x2}] , F[9, {e2x2}] , S[2] ] == {{gc140L*IndexDelta[e1x2, e2x2], 0}, {gc140R*IndexDelta[e1x2, e2x2], 0}},

C[ -F[7, {e1x2}] , F[7, {e2x2}] , S[2] ] == {{gc141L*IndexDelta[e1x2, e2x2], 0}, {gc141R*IndexDelta[e1x2, e2x2], 0}},

C[ -F[8, {e1x2}] , F[8, {e2x2}] , S[1] ] == {{I*gc142*IndexDelta[e1x2, e2x2], 0}, {I*gc142*IndexDelta[e1x2, e2x2], 0}},

C[ -F[9, {e1x2}] , F[9, {e2x2}] , S[1] ] == {{I*gc143*IndexDelta[e1x2, e2x2], 0}, {I*gc143*IndexDelta[e1x2, e2x2], 0}},

C[ -F[7, {e1x2}] , F[7, {e2x2}] , S[1] ] == {{I*gc144*IndexDelta[e1x2, e2x2], 0}, {I*gc144*IndexDelta[e1x2, e2x2], 0}},

C[ -F[13] , F[8, {e2x2}] , -S[7, {e3x1}] ] == {{I*gc145*IndexDelta[e2x2, e3x1], 0}, {0, 0}},

C[ -F[13] , F[9, {e2x2}] , -S[7, {e3x1}] ] == {{I*gc146*IndexDelta[e2x2, e3x1], 0}, {0, 0}},

C[ -F[13] , F[7, {e2x2}] , -S[7, {e3x1}] ] == {{I*gc147*IndexDelta[e2x2, e3x1], 0}, {0, 0}},

C[ -F[13] , F[12, {e2x2}] , -S[8, {e3x1}] ] == {{I*gc148*IndexDelta[e2x2, e3x1], 0}, {0, 0}},

C[ -F[13] , F[11, {e2x2}] , -S[8, {e3x1}] ] == {{I*gc149*IndexDelta[e2x2, e3x1], 0}, {0, 0}},

C[ -F[13] , F[2] , -S[6] ] == {{I*gc150, 0}, {0, 0}},

C[ -F[13] , F[5] , S[5] ] == {{gc151, 0}, {0, 0}},

C[ -F[13] , F[5] , S[4] ] == {{I*gc152, 0}, {0, 0}},

C[ -F[8, {e1x2}] , F[13] , S[7, {e3x1}] ] == {{0, 0}, {I*gc153R*IndexDelta[e1x2, e3x1], 0}},

C[ -F[9, {e1x2}] , F[13] , S[7, {e3x1}] ] == {{0, 0}, {I*gc154R*IndexDelta[e1x2, e3x1], 0}},

C[ -F[7, {e1x2}] , F[13] , S[7, {e3x1}] ] == {{0, 0}, {I*gc155R*IndexDelta[e1x2, e3x1], 0}},

C[ -F[12, {e1x2}] , F[13] , S[8, {e3x1}] ] == {{0, 0}, {I*gc156R*IndexDelta[e1x2, e3x1], 0}},

C[ -F[11, {e1x2}] , F[13] , S[8, {e3x1}] ] == {{0, 0}, {I*gc157R*IndexDelta[e1x2, e3x1], 0}},

C[ -F[2] , F[13] , S[6] ] == {{0, 0}, {I*gc158R, 0}},

C[ -F[5] , F[13] , S[5] ] == {{0, 0}, {gc159R, 0}},

C[ -F[5] , F[13] , S[4] ] == {{0, 0}, {I*gc160R, 0}},

C[ S[8, {e2x1}] , -S[8, {e3x1}] , V[4, {e1x2}] ] == {{(-I)*gc161*SUNT[e1x2, e3x1, e2x1], 0}, {I*gc161*SUNT[e1x2, e3x1, e2x1], 0}},

C[ S[8, {e3x1}] , -S[8, {e4x1}] , V[1] , V[4, {e2x2}] ] == {{((4*I)/3)*EL*GS*SUNT[e2x2, e4x1, e3x1], 0}},

C[ S[7, {e2x1}] , -S[7, {e3x1}] , V[4, {e1x2}] ] == {{(-I)*gc163*SUNT[e1x2, e3x1, e2x1], 0}, {I*gc163*SUNT[e1x2, e3x1, e2x1], 0}},

C[ S[7, {e3x1}] , -S[7, {e4x1}] , V[1] , V[4, {e2x2}] ] == {{((10*I)/3)*EL*GS*SUNT[e2x2, e4x1, e3x1], 0}},

C[ S[8, {e3x1}] , -S[8, {e4x1}] , V[4, {e1x2}] , V[4, {e2x2}] ] == {{I*GS^2*(SUNT[e1x2, e2x2, e4x1, e3x1] + SUNT[e2x2, e1x2, e4x1, e3x1]), 0}},

C[ S[7, {e3x1}] , -S[7, {e4x1}] , V[4, {e1x2}] , V[4, {e2x2}] ] == {{I*GS^2*(SUNT[e1x2, e2x2, e4x1, e3x1] + SUNT[e2x2, e1x2, e4x1, e3x1]), 0}},

C[ S[2] , -S[3] , V[1] , V[3] ] == {{((-1/2*I)*EL^2)/sw, 0}},

C[ -S[3] , S[1] , V[1] , V[3] ] == {{-1/2*EL^2/sw, 0}},

C[ S[5] , -S[6] , V[1] , V[3] ] == {{-1/2*EL^2/sw, 0}},

C[ -S[6] , S[4] , V[1] , V[3] ] == {{((I/2)*EL^2)/sw, 0}},

C[ -S[3] , V[1] , V[3] ] == {{-1/2*(EL^2*vev)/sw, 0}},

C[ S[5] , -S[6] , V[3] ] == {{-gc172, 0}, {gc172, 0}},

C[ S[2] , -S[3] , V[3] ] == {{(-I)*gc173, 0}, {I*gc173, 0}},

C[ -S[3] , S[1] , V[3] ] == {{-gc174, 0}, {gc174, 0}},

C[ -S[6] , S[4] , V[3] ] == {{(-I)*gc175, 0}, {I*gc175, 0}},

C[ V[1] , V[3] , -V[3] ] == {{(-I)*gc176, 0}, {I*gc176, 0}, {I*gc176, 0}, {(-I)*gc176, 0}, {(-I)*gc176, 0}, {I*gc176, 0}},

C[ S[8, {e1x1}] , -S[7, {e2x1}] , V[3] ] == {{(-I)*gc177*IndexDelta[e1x1, e2x1], 0}, {I*gc177*IndexDelta[e1x1, e2x1], 0}},

C[ S[8, {e2x1}] , -S[7, {e3x1}] , V[1] , V[3] ] == {{(((7*I)/3)*EL^2*IndexDelta[e2x1, e3x1])/(Sqrt[2]*sw), 0}},

C[ S[8, {e2x1}] , -S[7, {e3x1}] , V[4, {e1x2}] , V[3] ] == {{(I*Sqrt[2]*EL*GS*SUNT[e1x2, e3x1, e2x1])/sw, 0}},

C[ S[2] , S[3] , V[1] , -V[3] ] == {{((-1/2*I)*EL^2)/sw, 0}},

C[ S[3] , S[1] , V[1] , -V[3] ] == {{EL^2/(2*sw), 0}},

C[ S[5] , S[6] , V[1] , -V[3] ] == {{EL^2/(2*sw), 0}},

C[ S[6] , S[4] , V[1] , -V[3] ] == {{((I/2)*EL^2)/sw, 0}},

C[ S[3] , V[1] , -V[3] ] == {{(EL^2*vev)/(2*sw), 0}},

C[ S[5] , S[6] , -V[3] ] == {{-gc185, 0}, {gc185, 0}},

C[ S[2] , S[3] , -V[3] ] == {{(-I)*gc186, 0}, {I*gc186, 0}},

C[ S[3] , S[1] , -V[3] ] == {{-gc187, 0}, {gc187, 0}},

C[ S[6] , S[4] , -V[3] ] == {{(-I)*gc188, 0}, {I*gc188, 0}},

C[ -S[8, {e1x1}] , S[7, {e2x1}] , -V[3] ] == {{(-I)*gc189*IndexDelta[e1x1, e2x1], 0}, {I*gc189*IndexDelta[e1x1, e2x1], 0}},

C[ -S[8, {e2x1}] , S[7, {e3x1}] , V[1] , -V[3] ] == {{(((7*I)/3)*EL^2*IndexDelta[e2x1, e3x1])/(Sqrt[2]*sw), 0}},

C[ -S[8, {e2x1}] , S[7, {e3x1}] , V[4, {e1x2}] , -V[3] ] == {{(I*Sqrt[2]*EL*GS*SUNT[e1x2, e2x1, e3x1])/sw, 0}},

C[ S[5] , S[5] , V[3] , -V[3] ] == {{((I/2)*EL^2)/sw^2, 0}},

C[ S[2] , S[2] , V[3] , -V[3] ] == {{((I/2)*EL^2)/sw^2, 0}},

C[ S[3] , -S[3] , V[3] , -V[3] ] == {{((I/2)*EL^2)/sw^2, 0}},

C[ S[1] , S[1] , V[3] , -V[3] ] == {{((I/2)*EL^2)/sw^2, 0}},

C[ S[6] , -S[6] , V[3] , -V[3] ] == {{((I/2)*EL^2)/sw^2, 0}},

C[ S[4] , S[4] , V[3] , -V[3] ] == {{((I/2)*EL^2)/sw^2, 0}},

C[ S[1] , V[3] , -V[3] ] == {{((I/2)*EL^2*vev)/sw^2, 0}},

C[ V[1] , V[1] , V[3] , -V[3] ] == {{(-I)*gc199, 0}, {(-I)*gc199, 0}, {(2*I)*gc199, 0}},

C[ S[8, {e1x1}] , -S[8, {e2x1}] , V[3] , -V[3] ] == {{((I/2)*EL^2*IndexDelta[e1x1, e2x1])/sw^2, 0}},

C[ S[7, {e1x1}] , -S[7, {e2x1}] , V[3] , -V[3] ] == {{((I/2)*EL^2*IndexDelta[e1x1, e2x1])/sw^2, 0}},

C[ V[3] , -V[3] , V[2] ] == {{(-I)*gc202, 0}, {I*gc202, 0}, {I*gc202, 0}, {(-I)*gc202, 0}, {(-I)*gc202, 0}, {I*gc202, 0}},

C[ V[3] , V[3] , -V[3] , -V[3] ] == {{(-I)*gc203, 0}, {(-I)*gc203, 0}, {(2*I)*gc203, 0}},

C[ -F[1] , F[4] , S[3] ] == {{0, 0}, {gc204R, 0}},

C[ -F[2] , F[5] , S[3] ] == {{0, 0}, {gc205R, 0}},

C[ -F[3] , F[6] , S[3] ] == {{0, 0}, {gc206R, 0}},

C[ S[3] , -S[3] , V[1] , V[2] ] == {{(I*EL^2*(cw - sw)*(cw + sw))/(cw*sw), 0}},

C[ S[6] , -S[6] , V[1] , V[2] ] == {{(I*EL^2*(cw - sw)*(cw + sw))/(cw*sw), 0}},

C[ S[5] , S[4] , V[2] ] == {{-gc209, 0}, {gc209, 0}},

C[ S[2] , S[1] , V[2] ] == {{-gc210, 0}, {gc210, 0}},

C[ S[3] , -S[3] , V[2] ] == {{(-I)*gc211, 0}, {I*gc211, 0}},

C[ S[6] , -S[6] , V[2] ] == {{(-I)*gc212, 0}, {I*gc212, 0}},

C[ -F[13] , F[13] , V[2] ] == {{I*gc213, 0}, {I*gc213, 0}},

C[ S[8, {e1x1}] , -S[8, {e2x1}] , V[2] ] == {{(-I)*gc214*IndexDelta[e1x1, e2x1], 0}, {I*gc214*IndexDelta[e1x1, e2x1], 0}},

C[ S[8, {e2x1}] , -S[8, {e3x1}] , V[1] , V[2] ] == {{(((-2*I)/9)*EL^2*(3*cw^2 + 7*sw^2)*IndexDelta[e2x1, e3x1])/(cw*sw), 0}},

C[ S[7, {e1x1}] , -S[7, {e2x1}] , V[2] ] == {{(-I)*gc216*IndexDelta[e1x1, e2x1], 0}, {I*gc216*IndexDelta[e1x1, e2x1], 0}},

C[ S[7, {e2x1}] , -S[7, {e3x1}] , V[1] , V[2] ] == {{(((5*I)/9)*EL^2*(3*cw^2 - 7*sw^2)*IndexDelta[e2x1, e3x1])/(cw*sw), 0}},

C[ S[8, {e2x1}] , -S[8, {e3x1}] , V[4, {e1x2}] , V[2] ] == {{((-1/3*I)*EL*GS*(3*cw^2 + 7*sw^2)*SUNT[e1x2, e3x1, e2x1])/(cw*sw), 0}},

C[ S[7, {e2x1}] , -S[7, {e3x1}] , V[4, {e1x2}] , V[2] ] == {{((I/3)*EL*GS*(3*cw^2 - 7*sw^2)*SUNT[e1x2, e3x1, e2x1])/(cw*sw), 0}},

C[ S[2] , -S[3] , V[3] , V[2] ] == {{((I/2)*EL^2)/cw, 0}},

C[ -S[3] , S[1] , V[3] , V[2] ] == {{EL^2/(2*cw), 0}},

C[ S[5] , -S[6] , V[3] , V[2] ] == {{EL^2/(2*cw), 0}},

C[ -S[6] , S[4] , V[3] , V[2] ] == {{((-1/2*I)*EL^2)/cw, 0}},

C[ -S[3] , V[3] , V[2] ] == {{(EL^2*vev)/(2*cw), 0}},

C[ S[8, {e1x1}] , -S[7, {e2x1}] , V[3] , V[2] ] == {{(((-7*I)/3)*EL^2*IndexDelta[e1x1, e2x1])/(Sqrt[2]*cw), 0}},

C[ S[2] , S[3] , -V[3] , V[2] ] == {{((I/2)*EL^2)/cw, 0}},

C[ S[3] , S[1] , -V[3] , V[2] ] == {{-1/2*EL^2/cw, 0}},

C[ S[5] , S[6] , -V[3] , V[2] ] == {{-1/2*EL^2/cw, 0}},

C[ S[6] , S[4] , -V[3] , V[2] ] == {{((-1/2*I)*EL^2)/cw, 0}},

C[ S[3] , -V[3] , V[2] ] == {{-1/2*(EL^2*vev)/cw, 0}},

C[ -S[8, {e1x1}] , S[7, {e2x1}] , -V[3] , V[2] ] == {{(((-7*I)/3)*EL^2*IndexDelta[e1x1, e2x1])/(Sqrt[2]*cw), 0}},

C[ V[1] , V[3] , -V[3] , V[2] ] == {{(-2*I)*gc232, 0}, {I*gc232, 0}, {I*gc232, 0}},

C[ S[5] , S[5] , V[2] , V[2] ] == {{((I/2)*EL^2*(cw^2 + sw^2)^2)/(cw^2*sw^2), 0}},

C[ S[2] , S[2] , V[2] , V[2] ] == {{((I/2)*EL^2*(cw^2 + sw^2)^2)/(cw^2*sw^2), 0}},

C[ S[3] , -S[3] , V[2] , V[2] ] == {{((I/2)*EL^2*(cw - sw)^2*(cw + sw)^2)/(cw^2*sw^2), 0}},

C[ S[1] , S[1] , V[2] , V[2] ] == {{((I/2)*EL^2*(cw^2 + sw^2)^2)/(cw^2*sw^2), 0}},

C[ S[6] , -S[6] , V[2] , V[2] ] == {{((I/2)*EL^2*(cw - sw)^2*(cw + sw)^2)/(cw^2*sw^2), 0}},

C[ S[4] , S[4] , V[2] , V[2] ] == {{((I/2)*EL^2*(cw^2 + sw^2)^2)/(cw^2*sw^2), 0}},

C[ S[1] , V[2] , V[2] ] == {{((I/2)*EL^2*(cw^2 + sw^2)^2*vev)/(cw^2*sw^2), 0}},

C[ S[8, {e1x1}] , -S[8, {e2x1}] , V[2] , V[2] ] == {{((I/18)*EL^2*(3*cw^2 + 7*sw^2)^2*IndexDelta[e1x1, e2x1])/(cw^2*sw^2), 0}},

C[ S[7, {e1x1}] , -S[7, {e2x1}] , V[2] , V[2] ] == {{((I/18)*EL^2*(3*cw^2 - 7*sw^2)^2*IndexDelta[e1x1, e2x1])/(cw^2*sw^2), 0}},

C[ V[3] , -V[3] , V[2] , V[2] ] == {{(-I)*gc242, 0}, {(-I)*gc242, 0}, {(2*I)*gc242, 0}},

C[ -F[4] , F[4] , V[1] ] == {{I*gc243, 0}, {I*gc243, 0}},

C[ -F[5] , F[5] , V[1] ] == {{I*gc244, 0}, {I*gc244, 0}},

C[ -F[6] , F[6] , V[1] ] == {{I*gc245, 0}, {I*gc245, 0}},

C[ -F[8, {e1x2}] , F[8, {e2x2}] , V[1] ] == {{I*gc246*IndexDelta[e1x2, e2x2], 0}, {I*gc246*IndexDelta[e1x2, e2x2], 0}},

C[ -F[9, {e1x2}] , F[9, {e2x2}] , V[1] ] == {{I*gc247*IndexDelta[e1x2, e2x2], 0}, {I*gc247*IndexDelta[e1x2, e2x2], 0}},

C[ -F[7, {e1x2}] , F[7, {e2x2}] , V[1] ] == {{I*gc248*IndexDelta[e1x2, e2x2], 0}, {I*gc248*IndexDelta[e1x2, e2x2], 0}},

C[ -F[12, {e1x2}] , F[12, {e2x2}] , V[1] ] == {{I*gc249*IndexDelta[e1x2, e2x2], 0}, {I*gc249*IndexDelta[e1x2, e2x2], 0}},

C[ -F[10, {e1x2}] , F[10, {e2x2}] , V[1] ] == {{I*gc250*IndexDelta[e1x2, e2x2], 0}, {I*gc250*IndexDelta[e1x2, e2x2], 0}},

C[ -F[11, {e1x2}] , F[11, {e2x2}] , V[1] ] == {{I*gc251*IndexDelta[e1x2, e2x2], 0}, {I*gc251*IndexDelta[e1x2, e2x2], 0}},

C[ -F[8, {e1x2}] , F[8, {e2x2}] , V[4, {e3x2}] ] == {{I*gc252*SUNT[e3x2, e1x2, e2x2], 0}, {I*gc252*SUNT[e3x2, e1x2, e2x2], 0}},

C[ -F[9, {e1x2}] , F[9, {e2x2}] , V[4, {e3x2}] ] == {{I*gc253*SUNT[e3x2, e1x2, e2x2], 0}, {I*gc253*SUNT[e3x2, e1x2, e2x2], 0}},

C[ -F[7, {e1x2}] , F[7, {e2x2}] , V[4, {e3x2}] ] == {{I*gc254*SUNT[e3x2, e1x2, e2x2], 0}, {I*gc254*SUNT[e3x2, e1x2, e2x2], 0}},

C[ -F[12, {e1x2}] , F[12, {e2x2}] , V[4, {e3x2}] ] == {{I*gc255*SUNT[e3x2, e1x2, e2x2], 0}, {I*gc255*SUNT[e3x2, e1x2, e2x2], 0}},

C[ -F[10, {e1x2}] , F[10, {e2x2}] , V[4, {e3x2}] ] == {{I*gc256*SUNT[e3x2, e1x2, e2x2], 0}, {I*gc256*SUNT[e3x2, e1x2, e2x2], 0}},

C[ -F[11, {e1x2}] , F[11, {e2x2}] , V[4, {e3x2}] ] == {{I*gc257*SUNT[e3x2, e1x2, e2x2], 0}, {I*gc257*SUNT[e3x2, e1x2, e2x2], 0}},

C[ -F[8, {e1x2}] , F[12, {e2x2}] , V[3] ] == {{I*gc258*IndexDelta[e1x2, e2x2], 0}, {0, 0}},

C[ -F[8, {e1x2}] , F[10, {e2x2}] , V[3] ] == {{I*gc259*IndexDelta[e1x2, e2x2], 0}, {0, 0}},

C[ -F[8, {e1x2}] , F[11, {e2x2}] , V[3] ] == {{I*gc260*IndexDelta[e1x2, e2x2], 0}, {0, 0}},

C[ -F[9, {e1x2}] , F[12, {e2x2}] , V[3] ] == {{I*gc261*IndexDelta[e1x2, e2x2], 0}, {0, 0}},

C[ -F[9, {e1x2}] , F[10, {e2x2}] , V[3] ] == {{I*gc262*IndexDelta[e1x2, e2x2], 0}, {0, 0}},

C[ -F[9, {e1x2}] , F[11, {e2x2}] , V[3] ] == {{I*gc263*IndexDelta[e1x2, e2x2], 0}, {0, 0}},

C[ -F[7, {e1x2}] , F[12, {e2x2}] , V[3] ] == {{I*gc264*IndexDelta[e1x2, e2x2], 0}, {0, 0}},

C[ -F[7, {e1x2}] , F[10, {e2x2}] , V[3] ] == {{I*gc265*IndexDelta[e1x2, e2x2], 0}, {0, 0}},

C[ -F[7, {e1x2}] , F[11, {e2x2}] , V[3] ] == {{I*gc266*IndexDelta[e1x2, e2x2], 0}, {0, 0}},

C[ -F[12, {e1x2}] , F[8, {e2x2}] , -V[3] ] == {{I*gc267*IndexDelta[e1x2, e2x2], 0}, {0, 0}},

C[ -F[12, {e1x2}] , F[9, {e2x2}] , -V[3] ] == {{I*gc268*IndexDelta[e1x2, e2x2], 0}, {0, 0}},

C[ -F[12, {e1x2}] , F[7, {e2x2}] , -V[3] ] == {{I*gc269*IndexDelta[e1x2, e2x2], 0}, {0, 0}},

C[ -F[10, {e1x2}] , F[8, {e2x2}] , -V[3] ] == {{I*gc270*IndexDelta[e1x2, e2x2], 0}, {0, 0}},

C[ -F[10, {e1x2}] , F[9, {e2x2}] , -V[3] ] == {{I*gc271*IndexDelta[e1x2, e2x2], 0}, {0, 0}},

C[ -F[10, {e1x2}] , F[7, {e2x2}] , -V[3] ] == {{I*gc272*IndexDelta[e1x2, e2x2], 0}, {0, 0}},

C[ -F[11, {e1x2}] , F[8, {e2x2}] , -V[3] ] == {{I*gc273*IndexDelta[e1x2, e2x2], 0}, {0, 0}},

C[ -F[11, {e1x2}] , F[9, {e2x2}] , -V[3] ] == {{I*gc274*IndexDelta[e1x2, e2x2], 0}, {0, 0}},

C[ -F[11, {e1x2}] , F[7, {e2x2}] , -V[3] ] == {{I*gc275*IndexDelta[e1x2, e2x2], 0}, {0, 0}},

C[ -F[1] , F[4] , V[3] ] == {{I*gc276, 0}, {0, 0}},

C[ -F[2] , F[5] , V[3] ] == {{I*gc277, 0}, {0, 0}},

C[ -F[3] , F[6] , V[3] ] == {{I*gc278, 0}, {0, 0}},

C[ -F[4] , F[1] , -V[3] ] == {{I*gc279, 0}, {0, 0}},

C[ -F[5] , F[2] , -V[3] ] == {{I*gc280, 0}, {0, 0}},

C[ -F[6] , F[3] , -V[3] ] == {{I*gc281, 0}, {0, 0}},

C[ -F[8, {e1x2}] , F[8, {e2x2}] , V[2] ] == {{I*gc282L*IndexDelta[e1x2, e2x2], 0}, {I*gc282R*IndexDelta[e1x2, e2x2], 0}},

C[ -F[9, {e1x2}] , F[9, {e2x2}] , V[2] ] == {{I*gc283L*IndexDelta[e1x2, e2x2], 0}, {I*gc283R*IndexDelta[e1x2, e2x2], 0}},

C[ -F[7, {e1x2}] , F[7, {e2x2}] , V[2] ] == {{I*gc284L*IndexDelta[e1x2, e2x2], 0}, {I*gc284R*IndexDelta[e1x2, e2x2], 0}},

C[ -F[12, {e1x2}] , F[12, {e2x2}] , V[2] ] == {{I*gc285L*IndexDelta[e1x2, e2x2], 0}, {I*gc285R*IndexDelta[e1x2, e2x2], 0}},

C[ -F[10, {e1x2}] , F[10, {e2x2}] , V[2] ] == {{I*gc286L*IndexDelta[e1x2, e2x2], 0}, {I*gc286R*IndexDelta[e1x2, e2x2], 0}},

C[ -F[11, {e1x2}] , F[11, {e2x2}] , V[2] ] == {{I*gc287L*IndexDelta[e1x2, e2x2], 0}, {I*gc287R*IndexDelta[e1x2, e2x2], 0}},

C[ -F[1] , F[1] , V[2] ] == {{I*gc288, 0}, {0, 0}},

C[ -F[2] , F[2] , V[2] ] == {{I*gc289, 0}, {0, 0}},

C[ -F[3] , F[3] , V[2] ] == {{I*gc290, 0}, {0, 0}},

C[ -F[4] , F[4] , V[2] ] == {{I*gc291L, 0}, {I*gc291R, 0}},

C[ -F[5] , F[5] , V[2] ] == {{I*gc292L, 0}, {I*gc292R, 0}},

C[ -F[6] , F[6] , V[2] ] == {{I*gc293L, 0}, {I*gc293R, 0}}

}

(* * * * * * * * * * * * * * * * * * * * * * * * * * * * * * * * * * * *)

(* Parameter replacement lists (These lists were created by FeynRules) *)

(* FA Couplings *)

M$FACouplings = {
     gc46 -> -EL,
     gc47 -> -EL,
     gc48 -> EL,
     gc49 -> -EL,
     gc51 -> EL,
     gc54 -> -EL,
     gc55 -> -((cw*EL)/sw),
     gc57 -> (cw*EL)/sw,
     gc59 -> -EL,
     gc62 -> EL,
     gc63 -> (cw*EL)/sw,
     gc65 -> -((cw*EL)/sw),
     gc67 -> (cw*EL)/sw,
     gc69 -> -((cw*EL)/sw),
     gc71 -> GS,
     gc72 -> -GS,
     gc73 -> -GS^2,
     gc74 -> -EL,
     gc75 -> (-2*EL)/3,
     gc90 -> (-5*EL)/3,
     gc106L -> CKM2x3*yb,
     gc106R -> -(CKM2x3*yc),
     gc107L -> CKM3x3*yb,
     gc107R -> -(CKM3x3*yt),
     gc108L -> CKM1x3*yb,
     gc108R -> -(CKM1x3*yup),
     gc109L -> CKM2x1*ydo,
     gc109R -> -(CKM2x1*yc),
     gc110L -> CKM3x1*ydo,
     gc110R -> -(CKM3x1*yt),
     gc111L -> CKM1x1*ydo,
     gc111R -> -(CKM1x1*yup),
     gc112L -> CKM2x2*ys,
     gc112R -> -(CKM2x2*yc),
     gc113L -> CKM3x2*ys,
     gc113R -> -(CKM3x2*yt),
     gc114L -> CKM1x2*ys,
     gc114R -> -(CKM1x2*yup),
     gc115L -> -(yb/Sqrt[2]),
     gc115R -> yb/Sqrt[2],
     gc116L -> -(ydo/Sqrt[2]),
     gc116R -> ydo/Sqrt[2],
     gc117L -> -(ys/Sqrt[2]),
     gc117R -> ys/Sqrt[2],
     gc118 -> -(yb/Sqrt[2]),
     gc119 -> -(ydo/Sqrt[2]),
     gc120 -> -(ys/Sqrt[2]),
     gc121 -> ye,
     gc122 -> ym,
     gc123 -> ytau,
     gc124L -> -(ye/Sqrt[2]),
     gc124R -> ye/Sqrt[2],
     gc125L -> -(ym/Sqrt[2]),
     gc125R -> ym/Sqrt[2],
     gc126L -> -(ytau/Sqrt[2]),
     gc126R -> ytau/Sqrt[2],
     gc127 -> -(ye/Sqrt[2]),
     gc128 -> -(ym/Sqrt[2]),
     gc129 -> -(ytau/Sqrt[2]),
     gc130L -> CKM2x3*yc,
     gc130R -> -(CKM2x3*yb),
     gc131L -> CKM2x1*yc,
     gc131R -> -(CKM2x1*ydo),
     gc132L -> CKM2x2*yc,
     gc132R -> -(CKM2x2*ys),
     gc133L -> CKM3x3*yt,
     gc133R -> -(CKM3x3*yb),
     gc134L -> CKM3x1*yt,
     gc134R -> -(CKM3x1*ydo),
     gc135L -> CKM3x2*yt,
     gc135R -> -(CKM3x2*ys),
     gc136L -> CKM1x3*yup,
     gc136R -> -(CKM1x3*yb),
     gc137L -> CKM1x1*yup,
     gc137R -> -(CKM1x1*ydo),
     gc138L -> CKM1x2*yup,
     gc138R -> -(CKM1x2*ys),
     gc139L -> yc/Sqrt[2],
     gc139R -> -(yc/Sqrt[2]),
     gc140L -> yt/Sqrt[2],
     gc140R -> -(yt/Sqrt[2]),
     gc141L -> yup/Sqrt[2],
     gc141R -> -(yup/Sqrt[2]),
     gc142 -> -(yc/Sqrt[2]),
     gc143 -> -(yt/Sqrt[2]),
     gc144 -> -(yup/Sqrt[2]),
     gc145 -> CKM2x3*ymbD + CKM2x2*ymsD,
     gc146 -> CKM3x3*ymbD + CKM3x2*ymsD,
     gc147 -> CKM1x3*ymbD + CKM1x2*ymsD,
     gc148 -> ymbD,
     gc149 -> ymsD,
     gc150 -> ymmD,
     gc151 -> ymmD/Sqrt[2],
     gc152 -> ymmD/Sqrt[2],
     gc153R -> CKM2x3*ymbD + CKM2x2*ymsD,
     gc154R -> CKM3x3*ymbD + CKM3x2*ymsD,
     gc155R -> CKM1x3*ymbD + CKM1x2*ymsD,
     gc156R -> ymbD,
     gc157R -> ymsD,
     gc158R -> ymmD,
     gc159R -> -(ymmD/Sqrt[2]),
     gc160R -> ymmD/Sqrt[2],
     gc161 -> -GS,
     gc163 -> -GS,
     gc172 -> EL/(2*sw),
     gc173 -> EL/(2*sw),
     gc174 -> -1/2*EL/sw,
     gc175 -> EL/(2*sw),
     gc176 -> EL,
     gc177 -> -(EL/(Sqrt[2]*sw)),
     gc185 -> EL/(2*sw),
     gc186 -> -1/2*EL/sw,
     gc187 -> -1/2*EL/sw,
     gc188 -> -1/2*EL/sw,
     gc189 -> EL/(Sqrt[2]*sw),
     gc199 -> -EL^2,
     gc202 -> (cw*EL)/sw,
     gc203 -> EL^2/sw^2,
     gc204R -> -ye,
     gc205R -> -ym,
     gc206R -> -ytau,
     gc209 -> -1/2*(EL*(cw^2 + sw^2))/(cw*sw),
     gc210 -> -1/2*(EL*(cw^2 + sw^2))/(cw*sw),
     gc211 -> -1/2*(cw*EL)/sw + (EL*sw)/(2*cw),
     gc212 -> -1/2*(cw*EL)/sw + (EL*sw)/(2*cw),
     gc213 -> (EL*sw)/cw,
     gc214 -> (cw*EL)/(2*sw) + (7*EL*sw)/(6*cw),
     gc216 -> -1/2*(cw*EL)/sw + (7*EL*sw)/(6*cw),
     gc232 -> (cw*EL^2)/sw,
     gc242 -> -((cw^2*EL^2)/sw^2),
     gc243 -> -EL,
     gc244 -> -EL,
     gc245 -> -EL,
     gc246 -> (2*EL)/3,
     gc247 -> (2*EL)/3,
     gc248 -> (2*EL)/3,
     gc249 -> -1/3*EL,
     gc250 -> -1/3*EL,
     gc251 -> -1/3*EL,
     gc252 -> GS,
     gc253 -> GS,
     gc254 -> GS,
     gc255 -> GS,
     gc256 -> GS,
     gc257 -> GS,
     gc258 -> (CKM2x3*EL)/(Sqrt[2]*sw),
     gc259 -> (CKM2x1*EL)/(Sqrt[2]*sw),
     gc260 -> (CKM2x2*EL)/(Sqrt[2]*sw),
     gc261 -> (CKM3x3*EL)/(Sqrt[2]*sw),
     gc262 -> (CKM3x1*EL)/(Sqrt[2]*sw),
     gc263 -> (CKM3x2*EL)/(Sqrt[2]*sw),
     gc264 -> (CKM1x3*EL)/(Sqrt[2]*sw),
     gc265 -> (CKM1x1*EL)/(Sqrt[2]*sw),
     gc266 -> (CKM1x2*EL)/(Sqrt[2]*sw),
     gc267 -> (CKM2x3*EL)/(Sqrt[2]*sw),
     gc268 -> (CKM3x3*EL)/(Sqrt[2]*sw),
     gc269 -> (CKM1x3*EL)/(Sqrt[2]*sw),
     gc270 -> (CKM2x1*EL)/(Sqrt[2]*sw),
     gc271 -> (CKM3x1*EL)/(Sqrt[2]*sw),
     gc272 -> (CKM1x1*EL)/(Sqrt[2]*sw),
     gc273 -> (CKM2x2*EL)/(Sqrt[2]*sw),
     gc274 -> (CKM3x2*EL)/(Sqrt[2]*sw),
     gc275 -> (CKM1x2*EL)/(Sqrt[2]*sw),
     gc276 -> EL/(Sqrt[2]*sw),
     gc277 -> EL/(Sqrt[2]*sw),
     gc278 -> EL/(Sqrt[2]*sw),
     gc279 -> EL/(Sqrt[2]*sw),
     gc280 -> EL/(Sqrt[2]*sw),
     gc281 -> EL/(Sqrt[2]*sw),
     gc282L -> (cw*EL)/(2*sw) - (EL*sw)/(6*cw),
     gc282R -> (-2*EL*sw)/(3*cw),
     gc283L -> (cw*EL)/(2*sw) - (EL*sw)/(6*cw),
     gc283R -> (-2*EL*sw)/(3*cw),
     gc284L -> (cw*EL)/(2*sw) - (EL*sw)/(6*cw),
     gc284R -> (-2*EL*sw)/(3*cw),
     gc285L -> -1/6*(EL*(3*cw^2 + sw^2))/(cw*sw),
     gc285R -> (EL*sw)/(3*cw),
     gc286L -> -1/6*(EL*(3*cw^2 + sw^2))/(cw*sw),
     gc286R -> (EL*sw)/(3*cw),
     gc287L -> -1/6*(EL*(3*cw^2 + sw^2))/(cw*sw),
     gc287R -> (EL*sw)/(3*cw),
     gc288 -> (EL*(cw^2 + sw^2))/(2*cw*sw),
     gc289 -> (EL*(cw^2 + sw^2))/(2*cw*sw),
     gc290 -> (EL*(cw^2 + sw^2))/(2*cw*sw),
     gc291L -> -1/2*(EL*(cw^2 - sw^2))/(cw*sw),
     gc291R -> (EL*sw)/cw,
     gc292L -> -1/2*(EL*(cw^2 - sw^2))/(cw*sw),
     gc292R -> (EL*sw)/cw,
     gc293L -> -1/2*(EL*(cw^2 - sw^2))/(cw*sw),
     gc293R -> (EL*sw)/cw};

