
 PDF: NNPDF40_lo_as_01180                                                                                 

 ALPHA_S(M_Z) =   0.11799999999999999     
 LAMBDA_5     =    8.7826502257213265E-002

 VEGAS:
 ======
 ABSERR     =    0.0000000000000000     
 POINTS     =        10000
 ITERATIONS =            5

 CUTS:
 =====
 EPS        =    1.0000000000000000E-008
 IMAG       =    1.0000000000000000E-008

 M_B        =    4.7500000000000000       GEV
 M_T        =    172.50000000000000       GEV

 C_T        =    1.0000000000000000     
 C_B        =    1.0000000000000000     
 C_3        =    1.0000000000000000     
 C_TT       =    0.0000000000000000     
 C_G        =    0.0000000000000000     
 C_GG       =    0.0000000000000000     

 ENERGY     =    14000.000000000000       GEV

 HADRON CROSS SECTION

 GG --> HH
 =========

 M_H =    125.00000000000000       GEV    GAMMA =    4.2003087774955044E-003  GEV
 SCALE =    1.0000000000000000     

 SIGMA_BORN = (   1.6015043533579527E-002  +-    1.9606389315767292E-005 ) PB
 SIGMA_VIRT = (   0.0000000000000000       +-    0.0000000000000000      ) PB
 SIGMA_GG   = (   0.0000000000000000       +-    0.0000000000000000      ) PB
 SIGMA_GQ   = (   0.0000000000000000       +-    0.0000000000000000      ) PB
 SIGMA_QQ   = (   0.0000000000000000       +-    0.0000000000000000      ) PB
     K_VIRT =     0.0000000000000000     
     K_GG   =     0.0000000000000000     
     K_GQ   =     0.0000000000000000     
     K_QQ   =     0.0000000000000000     

 SIGMA_NLO  = (   1.6015043533579527E-002  +-    1.9606389315767292E-005 ) PB
     K_NLO  =     1.0000000000000000     

